persId,objId,Name,sex,Sterbedatum,Vater,Grossvater,Familie,Stamm,Gatte,genannt,GND_id,Breite,Hoehe,Tiefe
wrm-663-1,wrm-663,?,2,1770,?,,Blin,,,,,56,14,10
wrm-690-1,wrm-690,Chajim,1,1458,Awraham,,,,,,,55,16,9
wrm-281-1,wrm-281,Mosche,1,1232,Ascher Halevi,,,Halevi,,,,79,18,19
wrm-1170-1,wrm-1170,?,1,1200,?,,,,,,,52,21,9
wrm-733-1,wrm-733,,,1300,,,,,,,,49,21,"13,5"
wrm-730-1,wrm-730,?,2,1300,?,,,,,,,33,21,10
wrm-864-1,wrm-864,Guta,2,1280,Jizchak,,,,,,,74,24,13
wrm-731-1,wrm-731,,2,1300,,,,,,,,29,24,14
wrm-757-1,wrm-757,Hindele,2,1745,Natan,,,,Schalom (?),,,107,27,12
wrm-946-1,wrm-946,Schlomo,1,1285,David,,,,,,,52,29,9
wrm-286-1,wrm-286,?,2,1270,David Halevi,,,Halevi,,,,55,29,"13,5"
wrm-467-1,wrm-467,,,1344,,,,,,,,72,30,13
wrm-752-1,wrm-752,,,1400,,,,,,,,43,30,16
wrm-879-1,wrm-879,?,2,1300,?,,,,,,,74,30,19
wrm-732-1,wrm-732,?,1,1759,?,,,,,,,56,"30,5",10
wrm-887-1,wrm-887,,,1200,,,,,,,,58,31,15
wrm-586-1,wrm-586,Kalonymos,1,1322,Kalonymos,,,,,,,47,"31,5","8,5"
wrm-228-1,wrm-228,Jizchak,1,1200,?,,,,,,,55,"31,5","11,5"
wrm-715-2,wrm-715,Elieser,1,1324,Mosche,,,,,,,62,32,11
wrm-715-1,wrm-715,Sorlen(?),2,1346,?,,,,,,,62,32,11
wrm-55-1,wrm-55,,,1300,,,,,,,,"60,5",32,12
wrm-394-1,wrm-394,Elieser(?),1,1285,Mosche,,,,,,,64,32,13
wrm-592-1,wrm-592,?,1,1280,?,,,,,,,80,32,13
wrm-1109-1,wrm-1109,,,1300,,,,,,,,60,32,"17,5"
wrm-1214-1,wrm-1214,12 Parnassim,,1096,,,,,,,,"56,5",33,"4,5"
wrm-480-1,wrm-480,Hefa,2,1333,Ascher Halevi,,,Halevi,,,,69,33,14
wrm-743-1,wrm-743,,,1300,,,,,,,,"72,5","33,5","10,5"
wrm-783-1,wrm-783,Mordechai,1,1241,Tamar,,,,,,,52,34,10
wrm-977-1,wrm-977,,,1300,,,,,,,,110,34,"10,5"
wrm-656-1,wrm-656,,,1420,,,,,,,,67,34,14
wrm-1110-1,wrm-1110,,,1300,,,,,,,,"58,3",34,"14,5"
wrm-280-1,wrm-280,,,1200,,,,,,,,"69,5","34,5",12
wrm-358-1,wrm-358,,,1200,,,,,,,,58,"34,5",14
wrm-501-1,wrm-501,Sara,2,1464,Meschulam,,,,,,,"32,5",35,"6,5"
wrm-724-1,wrm-724,?,2,1342,?,,,,,,,"59,5",35,"9,5"
wrm-250-1,wrm-250,Riwka,2,1232,Baruch,,,,,,,"62,5","35,5","14,5"
wrm-716-1,wrm-716,Bella,2,1326,Josef,,,,,,,"56,5",36,11
wrm-646-1,wrm-646,,1,1540,Schmuel(?),,,,,,,47,36,"11,9"
wrm-492-1,wrm-492,Jente,2,1332,Gerschom,,,,,,,69,36,13
wrm-676-1,wrm-676,Sarchen,2,1459,Schlomo,,,,,,,72,36,13
wrm-734-1,wrm-734,?,1,1300,?,,,,,,,"52,5","36,5","13,5"
wrm-1057-1,wrm-1057,,,1300,,,,,,,,62,"36,5",16
wrm-1072-1,wrm-1072,,,1300,,,,,,,,61,37,"12,7"
wrm-1027-1,wrm-1027,Juta,2,1288,Alexander Hakohen,,,Hakohen,,,,79,"37,5","11,3"
wrm-398-1,wrm-398,,,1300,,,,,,,,"63,5","37,5",13
wrm-714-1,wrm-714,Lipheit,2,1458,Schmuel,,,,,,,60,38,11
wrm-451-1,wrm-451,Josef,1,1317,Schmuel,,,,,,,"53,5",38,"12,5"
wrm-390-1,wrm-390,Channa,2,1275,David,,,,,,,60,38,"12,5"
wrm-470-1,wrm-470,?,2,1322,?,,,,,,,69,38,13
wrm-824-1,wrm-824,Riwka,2,1179,Jizchak,,,,,,,73,38,16
wrm-420-1,wrm-420,,,1200,,,,,,,,56,38,21
wrm-397-1,wrm-397,?,2,1300,?,,,,,,,62,38,13
wrm-694-1,wrm-694,?,2,1467,Josef,,,,,,,"51,5","39,5","11,5"
wrm-694-2,wrm-694,?,2,1467,Jizchak,,,,,,,"51,5","39,5","11,5"
wrm-577-1,wrm-577,Guta,2,1326,Jaakow,,,,,,,48,40,9
wrm-763-1,wrm-763,Guta,2,1296,Josef,,,,,,,55,40,13
wrm-772-1,wrm-772,Gutlen,2,1343,Awraham Halevi,,,Halevi,,,,58,40,13
wrm-156-1,wrm-156,,,1240,,,,,,,,58,40,14
wrm-274-1,wrm-274,?,1,1200,?,,,,,,,"59,5",40,"14,5"
wrm-210-1,wrm-210,Menachem,1,1181,Mosche,,,,,,,"63,5",40,19
wrm-427-1,wrm-427,Pesslen,2,1346,Jizchak,,,,,,,"55,5",40,12
wrm-832-1,wrm-832,,,1300,,,,,,,,60,"40,5",10
wrm-615-1,wrm-615,Schönlen,2,1323,Baruch Halevi,,,Halevi,,,,63,41,10
wrm-901-1,wrm-901,Juta,2,1273,David,,,,,,,55,41,13
wrm-718-1,wrm-718,?,2,1335,Alexander,,,,,,,55,41,13
wrm-478-1,wrm-478,?,2,1300,?,,,,,,,58,41,13
wrm-204-1,wrm-204,Batschewa,2,1170,Mosche,,,,,,,"52,5","41,5","10,5"
wrm-657-1,wrm-657,,,1300,,,,,,,,53,42,"9,5"
wrm-844-1,wrm-844,?,2,1295,?,,,,,,,62,42,10
wrm-739-1,wrm-739,Elieser,1,1300,Awraham,,,,,,,72,42,11
wrm-29-1,wrm-29,Josef,1,1325,Baruch,,,,,,,63,42,12
wrm-367-1,wrm-367,Schlumiel,1,1240,?,,,,,,,"48,5",42,15
wrm-202-1,wrm-202,?,2,1519,?,,,,,,,57,42,17
wrm-880-1,wrm-880,,,1300,,,,,,,,"62,5",42,19
wrm-970-2,wrm-970,Seligman,1,1828,Löb Nass,,Nass,,,,,"53,5",43,8
wrm-970-1,wrm-970,Löb Nass,1,1829,,,Nass,,,,,"53,5",43,8
wrm-1181-1,wrm-1181,Jizchak (Izek),1,1730,Jaakow,,,,,,,64,43,9
wrm-958-1,wrm-958,?,2,1309,?,,,,,,,60,43,11
wrm-758-1,wrm-758,Hindele,2,1745,Natan,,,,Schalom,,,65,43,11
wrm-701-1,wrm-701,Jizchak,1,1488,Schlomo Halevi,,,Halevi,,,,47,43,12
wrm-910-1,wrm-910,,,1250,,,,,,,,"57,5",43,16
wrm-945-1,wrm-945,?,1,1400,?,,,,,,,16,43,17
wrm-1052-1,wrm-1052,,,1200,,,,,,,,54,43,"18,5"
wrm-769-1,wrm-769,Menachem,1,1800,?,,,,,,,37,44,8
wrm-468-1,wrm-468,Elasar,1,1326,Jehuda,,,,,,,74,44,9
wrm-468-2,wrm-468,?,0,1327,Meir(?),,,,,,,74,44,9
wrm-721-1,wrm-721,Simcha,2,1345,Josef,,,,,,,77,44,"9,5"
wrm-1208-1,wrm-1208,?,1,1129,?,,,,,,,58,44,"11,5"
wrm-407-1,wrm-407,Binjamin,1,1293,Awraham,,,,,,,50,44,12
wrm-858-1,wrm-858,,,1200,,,,,,,,"55,5",44,12
wrm-219-1,wrm-219,Schmuel ,1,1232,,,,,,,,"61,5",44,15
wrm-33-1,wrm-33,Josef,1,1126,Schlumiel,,,,,,,64,44,15
wrm-749-1,wrm-749,Edlen,2,1300,?,,,,,,,60,44,17
wrm-518-1,wrm-518,Juta,2,1316,Meir,,,,,,,"66,5",44,17
wrm-319-1,wrm-319,,,1200,,,,,,,,61,44,"17,5"
wrm-1131-1,wrm-1131,,,1200,,,,,,,,"54,3",44,"17,8"
wrm-285-1,wrm-285,Herz,1,1786,Seligman Koma Segal,,,Segal,,,,53,"44,5","6,5"
wrm-659-1,wrm-659,Gutlen,2,1473,Schmuel,,,,,,,"52,5","44,5",12
wrm-904-1,wrm-904,Jaakow,1,1300,?,,,,,,,67,"44,5",12
wrm-833-2,wrm-833,?,1,1266,?,,,,,,,"73,5","44,5","12,5"
wrm-833-1,wrm-833,?,1,1250,?,,,,,,,"73,5","44,5","12,5"
wrm-185-1,wrm-185,Jechiel,1,1187,Josef,,,,,,,"59,3","44,5",17
wrm-305-1,wrm-305,Josef,1,1216,Mordechai,,,,,,,63,"44,5",17
wrm-767-1,wrm-767,Pucelle,2,1439,Juda(?) Hakohen,,,Hakohen,,,,55,45,8
wrm-212-1,wrm-212,Mirjam(?),2,1181,Jizchak,,,,,,,63,45,14
wrm-785-1,wrm-785,Elieser,1,1307,Jizchak,,,,,,,67,45,14
wrm-942-1,wrm-942,Josef,1,1247,Jekutiel,,,,,,,59,45,"15,2"
wrm-118-1,wrm-118,,,1200,,,,,,,,"54,5",45,"16,5"
wrm-213-1,wrm-213,Riwka,2,1178,Natan,,,,,,,"62,5",45,"17,5"
wrm-1108-1,wrm-1108,Natronai,1,1245,Jechiel,,,,,,,"58,5",45,19
wrm-851-1,wrm-851,Channa,2,1200,Jizchak,,,,,,,64,45,19
wrm-236-1,wrm-236,Schimon,1,1213,Mosche,,,,,,,54,45,"15,5"
wrm-205-1,wrm-205,?,1,1192,?,,,,,,,48,"45,3","11,8"
wrm-974-1,wrm-974,Hendle,2,1722,Aharon,,,,?,,,62,"45,3",13
wrm-196-1,wrm-196,Channa,2,1209,Mosche,,,,,,,"56,5","45,3",16
wrm-498-1,wrm-498,Jisrael,1,1306,Zadok,,,,,,,62,"45,5",12
wrm-918-1,wrm-918,Israel,1,1316,Mordechai,,,,,,,"63,5","45,5",13
wrm-859-1,wrm-859,,,1250,,,,,,,,"57,5","45,5",16
wrm-173-1,wrm-173,Elasar,1,1216,Jaakow Halevi,,,Halevi,,,,56,"45,7",13
wrm-748-1,wrm-748,Bella,2,1451,Baruch,,,,,,,58,46,11
wrm-748-2,wrm-748,Eljakim,1,1451,Baruch,,,,,,,58,46,11
wrm-533-1,wrm-533,?,1,1300,?,,,,,,,"55,5",46,12
wrm-112-1,wrm-112,Riwka,2,1189,Meir Hakohen,,,Hakohen,,,,55,46,"12,7"
wrm-700-1,wrm-700,Olk,2,1483,Eljakum,,,,,,,38,46,13
wrm-147-1,wrm-147,?,2,1195,?,,,,,,,46,46,13
wrm-117-1,wrm-117,Sara Gitlen,2,1450,Jisrael Jizchak Segal,,,Segal,Aharon Levi,,,"56,5",46,"13,5"
wrm-1242-1,wrm-1242,Guta,2,1340,Meir,,,,,,,"66,5",46,"13,5"
wrm-691-1,wrm-691,David,1,1438,Jekutiel,,,,,,,60,"46,5",7
wrm-966-1,wrm-966,Kela,2,1682,Schimon Deckingen,,Deckingen,,…rich Essen(?),,,"61,5","46,5",15
wrm-143-1,wrm-143,Jaakow(?),1,1211,Pinchas(?),,,,,,,56,"46,5","15,5"
wrm-856-1,wrm-856,,,1200,,,,,,,,61,"46,5","17,5"
wrm-728-1,wrm-728,?,2,1300,?,,,,,,,34,47,10
wrm-609-1,wrm-609,,,1323,,,,,,,,57,47,11
wrm-28-1,wrm-28,Meimelen,2,1314,Elasar,,,,,,,56,47,12
wrm-304-1,wrm-304,,,1200,,,,,,,,67,47,12
wrm-137-1,wrm-137,?,1,1321,?,,,,,,,77,"47,5","9,5"
wrm-160-1,wrm-160,Bruna(?),2,1150,Natan(?),,,,,,,57,"47,5","19,5"
wrm-484-1,wrm-484,Jossi(?) ,1,1852,...? Tarvit(?),,,,,,,"33,5",48,5
wrm-1148-1,wrm-1148,?,1,1681,?,,,,,,,"67,5",48,"8,7"
wrm-1251-1,wrm-1251,Kendle,2,1766,Eli,,,,,,,62,48,"9,5"
wrm-541-1,wrm-541,Awraham,1,1340,Schimon Halevi(?),,,Halevi(?),,,,82,48,11
wrm-168-1,wrm-168,Bella,2,1213,Uri,,,,,,,47,48,"12,8"
wrm-993-1,wrm-993,Jehuda,1,1259,Jizchak,,,,,,,"62,5","48,5",14
wrm-170-1,wrm-170,Riwka,2,1205,Mosche,,,,,,,57,"48,5",15
wrm-1111-1,wrm-1111,,,1200,,,,,,,,"47,5","48,5",17
wrm-351-1,wrm-351,Jaakow,1,1705,Jehuda,,,,,,,"54,3",49,"9,5"
wrm-224-1,wrm-224,,,1240,,,,,,,,51,49,"12,8"
wrm-1162-1,wrm-1162,?,1,1200,Meir,,,,,,,51,49,"14,5"
wrm-944-1,wrm-944,,,1400,,,,,,,,"61,3",49,"15,4"
wrm-101-1,wrm-101,Bona,2,1201,?,,,,,,,54,49,16
wrm-218-1,wrm-218,Jaakow,1,1222,Awraham,,,,,,,65,49,20
wrm-194-1,wrm-194,Mosche,1,1217,Josef,,,,,,,56,"49,2","14,5"
wrm-710-1,wrm-710,Mirjam,2,1652,Schimschon(?),,,,,,,63,"49,5",10
wrm-189-1,wrm-189,Schmuel,1,1222,Mosche Halevi,,,Halevi,,,,58,"49,5",14
wrm-176-1,wrm-176,Jechiel,1,1175,Menachem,,,,,,,63,"49,5",15
wrm-836-1,wrm-836,,,1300,,,,,,,,58,50,2
wrm-969-2,wrm-969,Seligman,1,1828,Löb Nass,,Nass,,,,,"54,5",50,"7,5"
wrm-969-1,wrm-969,Löb Nass,1,1829,,,Nass,,,,,"54,5",50,"7,5"
wrm-719-1,wrm-719,?,1,1250,Jehuda,,,,,,,45,50,11
wrm-140-1,wrm-140,Mirjam,2,1202,Ascher,,,,,,,53,50,13
wrm-183-1,wrm-183,Gnana,2,1189,Josef,,,,,,,"55,8",50,"15,3"
wrm-817-1,wrm-817,Elia,1,1680,Jizchak Blin,,Blin,,,,,55,50,17
wrm-855-1,wrm-855,,,1200,,,,,,,,"58,5",50,17
wrm-885-1,wrm-885,,,1200,,,,,,,,50,50,18
wrm-1100-1,wrm-1100,,,1200,,,,,,,,"57,5",50,18
wrm-172-1,wrm-172,Jizchak,1,1206,Meir,,,,,,,62,50,"18,5"
wrm-242-1,wrm-242,Jaakow,1,1230,Jizchak,,,,,,,"58,5",50,"20,8"
wrm-591-1,wrm-591,Richenza,2,1329,Jizchak Hakohen,,,Hakohen,,,,57,"50,5",10
wrm-1189-1,wrm-1189,Belet,2,1220,Schimon,,,,,,,57,"50,5",12
wrm-808-1,wrm-808,Ascher,1,1270,Schimon Halevi,,,Halevi,,,,49,51,11
wrm-747-1,wrm-747,Schmuel,1,1451,Mosche Halevi,,,Halevi,,,,61,51,11
wrm-747-2,wrm-747,Zerlen,2,1452,Mosche Halevi,,,Halevi,,,,61,51,11
wrm-1053-1,wrm-1053,Josef,1,1276,Elieser,,,,,,,"68,5",51,"15,5"
wrm-861-1,wrm-861,,,1200,,,,,,,,62,51,"18,5"
wrm-387-1,wrm-387,Jechiel,1,1300,Josef,,,,,,,57,51,19
wrm-15-1,wrm-15,Bona,2,1143,Elieser,,,,,,,"78,5",51,28
wrm-929-1,wrm-929,,,1250,,,,,,,,"52,5","51,5",10
wrm-494-1,wrm-494,Jente,2,1300,?,,,,,,,67,"51,5","12,5"
wrm-146-1,wrm-146,Channa,2,1316,David,,,,,,,"74,5","51,5",13
wrm-527-1,wrm-527,Jaakow,1,1296,Mosche,,,,,,,74,52,"10,5"
wrm-200-1,wrm-200,Sara,2,1193,Jaakow Halevi,,,Halevi,,,,"56,6",52,"12,7"
wrm-191-1,wrm-191,Magtin,2,1216,Schlomo,,,,,,,"55,5",52,13
wrm-475-1,wrm-475,Gutlen,2,1307,Elasar,,,,,,,"63,5",52,13
wrm-206-1,wrm-206,Sara,2,1201,Mosche,,,,,,,61,52,"13,8"
wrm-276-1,wrm-276,Rachel Gemita,2,1233,Gerschom,,,,,,,57,52,14
wrm-729-1,wrm-729,Natan,1,1316,Jizchak,,,,,,,39,52,15
wrm-114-1,wrm-114,Zeruja,2,1179,Schneor,,,,,,,"52,5",52,15
wrm-439-1,wrm-439,Channa,2,1263,Schimschon,,,,,,,"51,5",52,16
wrm-56-1,wrm-56,,,1240,,,,,,,,45,52,24
wrm-884-1,wrm-884,Jintlen,2,1266,Awraham,,,,,,,70,52,26
wrm-737-1,wrm-737,Bräune Wallerstein,2,1568,,,,,Wallerstein,,,"81,5","52,5","10,5"
wrm-201-1,wrm-201,Mosche,1,1214,Awraham Hakohen,,,Hakohen,,,,46,"52,5","15,6"
wrm-1097-1,wrm-1097,?,2,1261,Josef,,,,,,,"56,5","52,5","16,8"
wrm-1136-1,wrm-1136,,,1200,,,,,,,,58,"52,5",18
wrm-874-1,wrm-874,?,2,1300,Awraham,,,,,,,60,53,11
wrm-650-1,wrm-650,?,1,1423,?,,,,,,,"84,5",53,"12,5"
wrm-702-1,wrm-702,Sara(?),2,1268,?,,,,,,,49,53,"13,5"
wrm-148-1,wrm-148,Ascher,1,1180,Mosche,,,,,,,77,53,"13,8"
wrm-275-1,wrm-275,,,1200,,,,,,,,51,53,14
wrm-151-1,wrm-151,Sara,2,1165,,,,,,,,"64,5",53,14
wrm-215-1,wrm-215,Simcha,1,1215,Schimon,,,,,,,53,53,"14,8"
wrm-108-1,wrm-108,Menachem,1,1217,Joez(?),,,,,,,58,53,"14,8"
wrm-128-1,wrm-128,Jekutiel,1,1222,Ascher Halevi,,,Halevi,,,,"64,5",53,"14,8"
wrm-75-1,wrm-75,Michal(?),2,1199,Elieser,,,,,,,"47,5",53,18
wrm-1009-1,wrm-1009,Aharon Elasar,1,1685,Baruch Turlach,,Turlach,,,,,"72,7","53,5","12,5"
wrm-124-1,wrm-124,Josef,1,1187,Menachem,,,,,,,70,"53,5","16,5"
wrm-241-1,wrm-241,,,1240,,,,,,,,35,"53,5",17
wrm-328-1,wrm-328,Bella,2,1298,Schmuel,,,,,,,69,"53,5",11
wrm-429-1,wrm-429,Kilchen,2,1376,Mosche Jaffe(?),,Jaffe(?),,,,,52,54,10
wrm-429-2,wrm-429,Feiwesch,1,1376,Mosche Jaffe(?),,Jaffe(?),,,,,52,54,10
wrm-429-3,wrm-429,Henlen,2,1376,Mosche Jaffe(?),,Jaffe(?),,,,,52,54,10
wrm-375-1,wrm-375,Rizlen,2,1240,Meir,,,,,,,62,54,13
wrm-251-1,wrm-251,Channa,2,1200,Jehuda,,,,,,,"58,5",54,"13,5"
wrm-857-1,wrm-857,,,1200,,,,,,,,57,54,"16,5"
wrm-365-1,wrm-365,Sara,2,1299,Jechiel,,,,,,,46,54,"10,5"
wrm-991-1,wrm-991,Sara Osnat Ester,2,1686,Awraham Neustädtel,,Neustädtel,,Aharon,,,"80,3","54,2","13,6"
wrm-601-1,wrm-601,Michael,1,1770,Awraham Gernsheim,,Gernsheim,,,,,56,"54,5",7
wrm-590-1,wrm-590,Golda,2,1370,Mosche,,,,,,,55,"54,5",11
wrm-299-1,wrm-299,Bona,2,1155,Schmuel,,,,,,,59,"54,5","13,5"
wrm-163-1,wrm-163,Riwka,2,1222,Jaakow,,,,,,,58,"54,5","17,5"
wrm-877-1,wrm-877,Meir,1,1322,Elasar,,,,,,,61,"54,5","17,5"
wrm-105-1,wrm-105,Golda(?),2,1167,?,,,,,,,50,"54,5",22
wrm-1120-1,wrm-1120,Gelche Bayertal,2,1829,,,,,Hirz Bayertal,,,60,55,"7,7"
wrm-673-1,wrm-673,Reine,2,1479,Mosche,,,,Jaakow(?),,,61,55,"12,5"
wrm-188-1,wrm-188,Bella,2,1191,Eljakim,,,,,,,52,55,13
wrm-712-1,wrm-712,Bella Bacharach,2,1464,Mosche ,,Bacharach,,,,,"49,5",55,14
wrm-66-1,wrm-66,?,2,1160,?,,,,,,,"54,5",55,14
wrm-337-1,wrm-337,,,1200,,,,,,,,"55,3",55,15
wrm-253-1,wrm-253,Natan,1,1247,Awraham,,,,,,,55,55,16
wrm-787-1,wrm-787,Simcha,2,1343,Schmuel(?),,,,,,,84,55,"16,5"
wrm-787-2,wrm-787,Vromet(?),2,1343,Schmuel,,,,,,,84,55,"16,5"
wrm-371-1,wrm-371,Rachel,2,1245,Joez,,,,,,,51,55,19
wrm-307-1,wrm-307,,,1200,,,,,,,,63,55,14
wrm-604-1,wrm-604,Süßche,2,1825,,,,,Izek Nauen,,,"52,5","55,5","6,3"
wrm-1033-1,wrm-1033,Elieser,1,1300,Awraham,,,,,,,"56,5","55,5",13
wrm-1106-1,wrm-1106,Chava,2,1246,Awraham Halevi,,,Halevi,,,,"67,5","55,5",13
wrm-208-1,wrm-208,Bräunlen,2,1555,David,,,,,,,76,"55,5",14
wrm-410-1,wrm-410,Schmuel,1,1285,Urschrago Hakohen,,,Hakohen,,,,64,"55,5","14,5"
wrm-866-1,wrm-866,Riwka,2,1253,Netanel,,,,,,,"66,5","55,5",17
wrm-902-1,wrm-902,Sara,2,1262,Jaakow(?),,,,,,,"55,5","55,5","17,5"
wrm-956-1,wrm-956,Channa,2,1300,Josef(?),,,,,,,32,56,9
wrm-776-1,wrm-776,Meir,1,1438,Menachem,,,,,,,"44,5",56,11
wrm-1137-1,wrm-1137,,,1200,,,,,,,,57,56,12
wrm-1116-1,wrm-1116,Mirjam,2,1704,Meir Schochet,,Schochet,,Meir,,,"83,7",56,"12,5"
wrm-303-1,wrm-303,?,2,1233,Schmuel,,,,,,,51,56,"13,5"
wrm-589-1,wrm-589,Josef,1,1318,Mosche,,,,,,,65,56,"13,5"
wrm-1133-1,wrm-1133,,,1200,,,,,,,,"60,5",56,14
wrm-915-1,wrm-915,Channa,2,1248,Elieser(?),,,,,,,52,56,15
wrm-437-1,wrm-437,Röselchen(?),2,1519,,,,,,,,58,56,18
wrm-437-2,wrm-437,Jaakow,1,1519,,,,,,,,58,56,18
wrm-1058-1,wrm-1058,,,1400,,,,,,,,58,56,18
wrm-519-1,wrm-519,?,2,1301,?,,,,,,,64,"56,5",15
wrm-227-1,wrm-227,Channa,2,1209,Jaakow,,,,,,,52,"56,6","17,5"
wrm-784-2,wrm-784,Elijahu,1,1666,,,Meler,,,,,50,57,"10,5"
wrm-784-1,wrm-784,Sprinz,2,1666,Elieser Meler,,Meler,,,,,50,57,"10,5"
wrm-755-1,wrm-755,Dolz (Dolce),2,1451,Jaakow,,,,,,,57,57,11
wrm-644-2,wrm-644,Jaakow,1,1413,Elasar,,,,,,,85,57,11
wrm-644-1,wrm-644,David,1,1414,Awraham,,,,,,,85,57,11
wrm-622-1,wrm-622,Jechiel,1,1261,Ascher Kohen,,,Kohen,,,,62,57,12
wrm-986-1,wrm-986,?,1,1309,?,,,,,,,45,57,14
wrm-809-1,wrm-809,Vromut,2,1414,Jehuda,,,,,,,45,57,14
wrm-436-1,wrm-436,Juta,2,1479,David,,,,,,,45,57,14
wrm-426-1,wrm-426,Awraham,1,1289,Jaakow,,,,,,,53,57,"14,5"
wrm-895-1,wrm-895,,,1200,,,,,,,,57,57,15
wrm-688-1,wrm-688,Awraham,1,1494,Jehuda Deckingen,,Deckingen,,,,,"71,5",57,15
wrm-798-1,wrm-798,Jehuda,1,1404,Jechiel,,,,,,,80,57,16
wrm-302-1,wrm-302,,,1200,,,,,,,,61,57,17
wrm-301-1,wrm-301,Simcha,2,1243,Josef,,,,,,,"58,5",57,22
wrm-1037-1,wrm-1037,Ephraim,1,1253,Schimschon,,,,,,,47,"57,3","13,5"
wrm-1069-1,wrm-1069,Sara,2,1299,Natan(?),,,,,,,"61,5","57,5",18
wrm-1266-1,wrm-1266,Schlomo,1,1346,Jehuda,,,,,,,63,58,8
wrm-461-1,wrm-461,,,1300,,,,,,,,56,58,10
wrm-762-1,wrm-762,Mosche,1,1322,Jizchak,,,,,,,51,58,10
wrm-167-1,wrm-167,Netanel,1,1219,David,,,,,,,50,58,13
wrm-707-1,wrm-707,Rechlen,2,1475,Schmuel,,,,,,,70,58,14
wrm-873-1,wrm-873,Meir,1,1301,Alexander,,,,,,,"60,5",58,"14,5"
wrm-96-1,wrm-96,Elieser,1,1235,Jehonatan,,,,,,,54,58,"14,6"
wrm-485-1,wrm-485,Riwka,2,1503,Simcha,,,,,,,67,58,15
wrm-445-1,wrm-445,Gutlen,2,1307,Baruch,,,,,,,80,58,16
wrm-795-1,wrm-795,Joel,1,1300,Gerschom(?),,,,,,,61,58,"16,5"
wrm-99-1,wrm-99,Jehuda,1,1187,Jizchak,,,,,,,"63,5",58,"16,5"
wrm-254-1,wrm-254,,,1280,,,,,,,,63,58,17
wrm-279-1,wrm-279,,,1200,,,,,,,,64,58,17
wrm-104-1,wrm-104,Guta,2,1218,Elieser,,,,,,,54,58,"17,5"
wrm-504-1,wrm-504,Jekutiel,1,1300,?,,,,,,,67,58,"19,5"
wrm-416-1,wrm-416,Jehudit,2,1200,,,,,,,,66,58,"19,5"
wrm-872-1,wrm-872,Josef,1,1307,Schealtiel,,,,,,,"62,5","58,5",13
wrm-129-1,wrm-129,Michal(?),2,1140,Natan(?),,,,,,,60,"58,5",14
wrm-144-1,wrm-144,Segulla,2,1204,Jizchak Halevi,,,Halevi,,,,53,59,"10,5"
wrm-516-1,wrm-516,Bona,2,1318,Awraham Halevi,,,Halevi,,,,62,59,11
wrm-557-1,wrm-557,Gluka,2,1295,Menachem,,,,,,,86,59,13
wrm-259-1,wrm-259,,,1300,,,,,,,,60,59,"13,5"
wrm-559-1,wrm-559,Raswit,2,1303,Menachem Halevi,,,Halevi,,,,60,59,15
wrm-458-1,wrm-458,Sorlen Sara Bacharach,2,1480,Josef ,,Bacharach,,Awraham Bacharach,,,71,59,15
wrm-458-2,wrm-458,Rafael,1,1480,Awraham Bacharach,,Bacharach,,,,,71,59,15
wrm-948-1,wrm-948,?,1,1400,?,,,,,,,60,59,16
wrm-225-1,wrm-225,Zeruja,2,1219,Kalonymos,,,,,,,"51,5",59,17
wrm-339-1,wrm-339,Batschewa(?),2,1238,Jizchak,,,,,,,50,"59,5",12
wrm-1004-1,wrm-1004,Mina,2,1320,Mosche,,,,,,,"69,5","59,8",15
wrm-750-1,wrm-750,Chananel,1,1323,Jehuda,,,,,,,67,60,12
wrm-331-1,wrm-331,Channa,2,1708,Awraham Schlomo Salman Segal,,,Levi,,,,"69,5",60,12
wrm-1036-1,wrm-1036,Mirjam,2,1300,Schealtiel,,,,,,,66,60,"12,5"
wrm-670-1,wrm-670,Mina,2,1470,Schmuel,,,,,,,56,60,13
wrm-582-1,wrm-582,?,1,1300,?,,,,,,,63,60,14
wrm-336-1,wrm-336,Reiza,2,1271,Jehonatan,,,,,,,"51,4",60,"14,5"
wrm-150-1,wrm-150,Jizchak,1,1187,Mosche Halevi,,,Halevi,,,,55,60,16
wrm-446-1,wrm-446,Vromut,2,1307,Baruch,,,,,,,66,60,16
wrm-1099-1,wrm-1099,Gitel,2,1260,Josef,,,,,,,"57,5",60,17
wrm-318-1,wrm-318,Bonafila,2,1336,Schmuel,,,,,,,59,60,17
wrm-97-1,wrm-97,Jehonatan,1,1184,Jehuda,,,,,,,77,60,17
wrm-1276-1,wrm-1276,Riwka,2,1160,?,,,,,,,"50,5",60,19
wrm-315-1,wrm-315,,,1300,,,,,,,,61,60,20
wrm-49-1,wrm-49,?,1,1172,?,,,,,,,80,60,25
wrm-122-1,wrm-122,Joel,1,1140,Meir Hakohen,,,Hakohen,,,,55,60,"26,5"
wrm-456-1,wrm-456,Gutlen,2,1465,Schmuel ,,aus Bacharach,,,,,"63,5","60,5",13
wrm-139-1,wrm-139,?,1,1164,Josef,,,,,,,"61,5","60,5",14
wrm-881-1,wrm-881,Channa,2,1267,Meir,,,,,,,71,"60,5","15,5"
wrm-414-1,wrm-414,,,1200,,,,,,,,56,"60,5",16
wrm-350-1,wrm-350,Josef,1,1222,Mosche,,,,,,,53,"60,5","16,8"
wrm-630-1,wrm-630,Mirjam,2,1341,Mordechai,,,,,,,"38,5","60,5",17
wrm-119-1,wrm-119,Jekutiel,1,1437,Meir,,,,,,,46,"60,7",17
wrm-774-1,wrm-774,Mordechai,1,1291,...el,,,,,,,43,61,8
wrm-768-1,wrm-768,Elia(s Elsas),1,1623,Menachem „zum weißen Armbrust“,,,,,,,60,61,8
wrm-153-1,wrm-153,Lea,2,1320,Ascher Ulma,,,,Anschel Oppenheim,,,47,61,12
wrm-636-1,wrm-636,Bräunlen,2,1348,Eljakim,,,,,,,63,61,12
wrm-264-1,wrm-264,Malka,2,1228,Chalafta,,,,,,,58,61,"12,5"
wrm-171-1,wrm-171,Rachel,2,1199,Mosche(?),,,,,,,59,61,13
wrm-667-1,wrm-667,Rechlen,2,1300,Schlomo,,,,,,,"67,5",61,14
wrm-892-1,wrm-892,,,1200,,,,,,,,56,61,15
wrm-138-1,wrm-138,Josef,1,1166,Mosche,,,,,,,"57,5",61,"15,5"
wrm-1045-1,wrm-1045,,,1200,,,,,,,,62,61,16
wrm-1054-1,wrm-1054,Awigail,2,1250,Elieser(?),,,,,,,53,"61,5",15
wrm-169-1,wrm-169,Elasar,1,1211,Jaakow Hakohen,,,Hakohen,,,,57,"61,5",15
wrm-258-1,wrm-258,Juta,2,1229,David,,,,,,,"62,5","61,5","15,5"
wrm-197-1,wrm-197,Jizchak,1,1198,Natan Hakohen,,,Hakohen,,,,53,"61,5",16
wrm-256-1,wrm-256,Sara,2,1229,Simcha,,,,,,,63,"61,5",16
wrm-878-1,wrm-878,Ugla,2,1300,Josef,,,,,,,66,"61,5","20,5"
wrm-544-1,wrm-544,Josef,1,1390,Awraham,,,,,,,"70,5",62,9
wrm-402-1,wrm-402,,,1300,,,,,,,,61,62,"9,5"
wrm-482-1,wrm-482,Scholem,1,1761,Menachem,,,,,,,"63,5",62,10
wrm-838-1,wrm-838,?,1,1347,?,,,,,,,73,62,10
wrm-907-1,wrm-907,Baruch(?),1,1288,Jaakow(?),,,,,,,70,62,"11,5"
wrm-831-1,wrm-831,Jizchak,1,1303,Josef Halevi,,,Halevi,,,,65,62,12
wrm-495-1,wrm-495,Awraham(?),1,1306,?,,,,,,,46,62,"12,5"
wrm-696-1,wrm-696,Pesslen,2,1484,Perez,,,,,,,48,62,"12,5"
wrm-696-2,wrm-696,Serlen,2,1484,Perez,,,,,,,48,62,"12,5"
wrm-255-1,wrm-255,Channa,2,1233,David,,,,,,,"50,5",62,"13,5"
wrm-923-1,wrm-923,Jaakow,1,1271,Joel,,,,,,,"58,5",62,14
wrm-136-1,wrm-136,Chajim,1,1188,Josef,,,,,,,60,62,14
wrm-175-1,wrm-175,Zadok,1,1180,Jechiel,,,,,,,"68,5",62,"14,3"
wrm-130-1,wrm-130,Sara,2,1223,Elieser,,,,,,,"54,7",62,15
wrm-896-1,wrm-896,Sara,2,1200,? Hakohen(?),,,Hakohen(?),,,,58,62,15
wrm-1177-1,wrm-1177,Gila,2,1200,Josef,,,,,,,62,62,15
wrm-240-1,wrm-240,Jaakow,1,1231,Perez,,,,,,,61,62,"15,3"
wrm-126-1,wrm-126,Awigail,2,1218,Natan,,,,,,,50,62,"19,5"
wrm-62-1,wrm-62,S...,2,1146,Schmuel,,,,,,,61,62,22
wrm-704-1,wrm-704,?,1,1464,Josef,,,,,,,"56,5","62,5","8,5"
wrm-662-1,wrm-662,Meir,1,1750,Izek,,,,,,,57,"62,5","8,5"
wrm-474-1,wrm-474,,,1300,,,,,,,,58,"62,5",11
wrm-850-1,wrm-850,,,1300,,,,,,,,68,"62,5","12,5"
wrm-669-1,wrm-669,Äuglen,2,1553,Awraham,,,,Jisrael,,,"69,5","62,5",15
wrm-135-1,wrm-135,Chava,2,1173,?,,,,,,,56,"62,5",16
wrm-229-1,wrm-229,Meir,1,1211,Menachem,Ephraim,,,,,,48,"62,5","16,5"
wrm-1035-1,wrm-1035,Schlomo,1,1300,H...,,,,,,,"60,6","62,5","17,7"
wrm-505-1,wrm-505,Gnana,2,1294,Simcha Hakohen,,,Hakohen,,,,"65,5",63,"10,5"
wrm-1230-1,wrm-1230,Channa,2,1337,Awraham,,,,,,,72,63,"11,3"
wrm-347-1,wrm-347,Chava,2,1729,Tuwia Schatz,,Schatz,,Wolf Kohen,,,67,63,12
wrm-64-1,wrm-64,Simcha,1,1300,Meir Hakohen,,,Hakohen,,,,70,63,12
wrm-443-1,wrm-443,Awraham,1,1323,Jizchak Halevi,,,Halevi,,,,87,63,12
wrm-908-1,wrm-908,Gutlen,2,1292,Meir Hakohen,,,Hakohen,,,,68,63,"12,5"
wrm-842-1,wrm-842,Mosche,1,1338,Jizchak,,,,,,,68,63,13
wrm-78-1,wrm-78,Zippora,2,1199,Jehonatan,,,,,,,"53,5",63,14
wrm-184-1,wrm-184,Mosche,1,1184,Joel Hakohen,,,Hakohen,,,,65,63,14
wrm-223-1,wrm-223,Riwka,2,1228,Josef,,,,Kalonymos Halevi (gest.),,,62,63,"14,3"
wrm-109-1,wrm-109,Nechemja,1,1212,Chija,,,,,,,"55,5",63,16
wrm-116-1,wrm-116,Channa,2,1191,Jizchak,,,,,,,"65,5",63,16
wrm-320-1,wrm-320,Juta,2,1229,Josef,,,,,,,"64,5",63,"17,5"
wrm-370-1,wrm-370,,,1200,,,,,,,,52,63,18
wrm-230-1,wrm-230,Ascher,1,1206,Awraham,,,,,,,"52,7",63,"18,5"
wrm-382-1,wrm-382,Mordechai,1,1250,Jaakow Halevi,,,Halevi,,,,51,63,13
wrm-273-1,wrm-273,,,1200,,,,,,,,"57,5",63,"8,5"
wrm-735-1,wrm-735,Menachem Manli,1,1722,Elieser Unna,,Unna,,,,,"90,5","63,5",10
wrm-869-1,wrm-869,Mosche,1,1318,Jekutiel,,,,,,,"61,5","63,5",11
wrm-211-1,wrm-211,Dewora,2,1150,?,,,,,,,"55,7","63,5",14
wrm-158-1,wrm-158,Jehuda(?),1,1184,Awraham,,,,,,,58,"63,5",16
wrm-1095-1,wrm-1095,?,0,1300,?,,,,,,,"56,8","63,5",18
wrm-417-1,wrm-417,Mirjam,2,1243,Schlumiel,,,,,,,"57,5","63,5",20
wrm-477-1,wrm-477,Sinai Loanz,1,1700,Sekel ,,Loanz,,,,,60,64,"9,5"
wrm-35-1,wrm-35,Natan,1,1330,Meschulam,,,,,,,54,64,10
wrm-40-1,wrm-40,?,2,1323,?,,,,,,,67,64,"11,5"
wrm-954-1,wrm-954,Reiza,2,1274,Josef,,,,,,,74,64,13
wrm-238-1,wrm-238,Josef,1,1218,David,,,,,,,"50,5",64,14
wrm-82-1,wrm-82,,,1200,,,,,,,,55,64,14
wrm-957-1,wrm-957,Schealtiel,1,1301,Mosche aus Oppenheim,,aus Oppenheim,,,,,67,64,15
wrm-261-1,wrm-261,Ester,2,1222,Schimschon,,,,,,,"54,5",64,"15,5"
wrm-1134-1,wrm-1134,?,1,1200,?,,,,,,,64,64,"15,5"
wrm-267-1,wrm-267,Mosche,1,1209,Schmuel,,,,,,,55,64,"16,5"
wrm-1143-1,wrm-1143,Bella,,1315,Awraham,,,,,,,53,64,21
wrm-300-1,wrm-300,?,2,1200,?,,,,,,,"58,5",64,18
wrm-789-1,wrm-789,Lipet,2,1621,Aharon Elieser,,,,Liva Hoheneck,,,76,"64,5","12,5"
wrm-209-1,wrm-209,Netanel,1,1206,Awraham,,,,,,,"57,5","64,5",13
wrm-364-1,wrm-364,Jizchak,1,1335,Mosche Halevi,,,Halevi,,,,56,"64,5",16
wrm-316-1,wrm-316,Kalonymos,1,1212,Chalafta,,,,,,,73,"64,5",20
wrm-1038-1,wrm-1038,Sara,,1795,,,,,Mosche Limburg,,,55,"64,9","8,8"
wrm-404-1,wrm-404,Menachem,1,1279,Baruch,,,,,,,54,65,"8,5"
wrm-444-1,wrm-444,Mosche,1,1243,Eljakim,,,,,,,42,65,11
wrm-174-1,wrm-174,Awraham,1,1190,,,,,,,,"68,5",65,"11,5"
wrm-761-1,wrm-761,Pucelle,2,1450,Zadok,,,,,,,93,65,12
wrm-761-2,wrm-761,Levia,2,1450,Zadok,,,,,,,93,65,12
wrm-1028-1,wrm-1028,Bella,2,1253,Elieser,,,,,,,"55,7",65,"12,2"
wrm-868-1,wrm-868,Richza,2,1294,Jaakow,,,,,,,"53,5",65,"12,5"
wrm-133-1,wrm-133,Mosche,1,1212,Schlomo,,,,,,,56,65,14
wrm-893-1,wrm-893,Jehuda(?),1,1269,Meir Hakohen,,,Hakohen,,,,69,65,14
wrm-648-1,wrm-648,,,1400,,,,,,,,72,65,14
wrm-1070-1,wrm-1070,,,1254,,,,,,,,"56,5",65,15
wrm-1135-1,wrm-1135,Gutlen,2,1338,Natan,,,,,,,"56,5",65,"16,7"
wrm-1096-1,wrm-1096,Josef,1,1262,Mosche,,,,,,,"58,5",65,"17,5"
wrm-909-1,wrm-909,Elieser,1,1200,Jehoschua,,,,,,,"55,5",65,18
wrm-384-1,wrm-384,,,1300,,,,,,,,65,65,17
wrm-1139-1,wrm-1139,Joez,1,1219,Schmuel,,,,,,,49,"65,5","11,8"
wrm-607-1,wrm-607,Rechlen,2,1380,Natan Levi,,,Levi,,,,67,"65,5",12
wrm-703-1,wrm-703,Jizchak,1,1483,Menachem,,,,,,,"49,5","65,5",16
wrm-703-2,wrm-703,Selikman,1,1483,Jizchak,Menachem,,,,,,"49,5","65,5",16
wrm-703-3,wrm-703,Channa,2,1483,Jizchak,Menachem,,,,,,"49,5","65,5",16
wrm-30-1,wrm-30,?,1,1300,?,,,,,,,84,"65,5",16
wrm-1062-1,wrm-1062,Gemita,2,1279,Jizchak,,,,,,,"54,3","65,5","20,5"
wrm-415-1,wrm-415,?,1,1240,?,,,,,,,52,"65,5",22
wrm-834-1,wrm-834,Channa,2,1398,Awraham,,,,,,,53,66,10
wrm-195-1,wrm-195,Channa,2,1205,Mosche,,,,,,,"48,3",66,"10,7"
wrm-1269-1,wrm-1269,Lewia,2,1734,Physingor,,,,,,,68,66,"11,5"
wrm-438-1,wrm-438,Rachel,2,1330,Schimon,,,,,,,55,66,12
wrm-810-1,wrm-810,Jehuda,1,1343,Joez(?),,,,,,,55,66,13
wrm-102-1,wrm-102,Schmuel,1,1216,Jekutiel,,,,,,,61,66,14
wrm-488-1,wrm-488,Elieser,1,1322,Schlomo,,,,,,,73,66,15
wrm-186-1,wrm-186,Josef,1,1210,Otniel,,,,,,,"64,5",66,16
wrm-883-1,wrm-883,Josef,1,1271,Mordechai Hakohen,,,Hakohen,,,,50,66,17
wrm-1121-1,wrm-1121,,,1200,,,,,,,,"57,5",66,19
wrm-576-1,wrm-576,Sprinzche,2,1802,,,,,Falk Gernsheim,,,55,"66,5",7
wrm-534-1,wrm-534,?,2,1323,?,,,,,,,"47,5","66,5",13
wrm-385-1,wrm-385,Magtin,2,1300,Schmuel,,,,,,,"68,5","66,5",14
wrm-154-1,wrm-154,Jehuda,1,1172,Joez,,,,,,,63,"66,5","18,5"
wrm-308-1,wrm-308,?,2,1244,,,,,,,,63,"66,5",14
wrm-292-1,wrm-292,Jizchak,1,1244,Jaakow Halevi,,,Halevi,,,,"59,5","66,7","17,5"
wrm-1188-1,wrm-1188,?,1,1296,?,,,,,,,78,"66,8","11,5"
wrm-771-1,wrm-771,?,2,1328,?,,,,,,,58,67,10
wrm-819-1,wrm-819,Jaakow,1,1267,Awraham Halevi,,,Halevi,,,,53,67,11
wrm-949-1,wrm-949,Binjamin Schlomo (Salman),1,1641,Jisrael Reizweiler,,Reizweiler,,,,,53,67,"11,5"
wrm-751-1,wrm-751,Kilchen,2,1600,?,,,,Jidlen Segal,,,67,67,12
wrm-125-1,wrm-125,Mordechai,1,1622,Natan,,,,,,,75,67,12
wrm-639-1,wrm-639,Natan,1,1391,Josef,,,,,,,"75,5",67,12
wrm-409-1,wrm-409,Urschrago,1,1300,Jizchak Hakohen,,,Hakohen,,,,80,67,12
wrm-709-1,wrm-709,?,1,1600,?,,,,,,,85,67,"12,5"
wrm-502-1,wrm-502,Pora,2,1316,Josef Hakohen,,,Hakohen,,,,63,67,14
wrm-155-1,wrm-155,Jaakow,1,1606,Elieser Ulma,,Ulma,,,,,"78,6",67,14
wrm-928-1,wrm-928,Schneor,1,1250,Otniel,,,,,,,"68,5",67,"14,5"
wrm-799-1,wrm-799,Jizchak,1,1300,?,,,,,,,"67,5",67,15
wrm-653-1,wrm-653,Rosa,2,1409,Jaakow,,,,,,,"96,5",67,"15,5"
wrm-363-1,wrm-363,Schmuel,1,1303,Menachem,,,,,,,58,67,16
wrm-311-1,wrm-311,Meir,1,1239,Menachem,,,,,,,60,67,"18,5"
wrm-1098-1,wrm-1098,M...,2,1200,Awraham,,,,,,,"55,5","67,5","13,5"
wrm-532-1,wrm-532,David,1,1293,Jechiel,,,,,,,"65,5","67,5","13,5"
wrm-658-1,wrm-658,Hindche,2,1558,Mosche,,,,,,,"41,5","67,5",17
wrm-1192-1,wrm-1192,Jizchak Eisak,1,1736,Awraham Falk,,Falk,,,,,"54,2",68,7
wrm-1244-2,wrm-1244,Henle,2,1708,Awraham,,,,,,,83,68,"7,5"
wrm-1244-1,wrm-1244,Ah(aron?),1,1708,Awraham,,,,,,,83,68,"7,5"
wrm-265-1,wrm-265,Reiz,2,1685,Mosche Halevi,,,Halevi,,,,"64,5",68,"10,5"
wrm-619-1,wrm-619,Reine,2,1386,Meir Tilsberg,,Tilsberg,,,,,"77,5",68,"10,5"
wrm-631-1,wrm-631,Joel,1,1418,Natan Halevi,,,Halevi,,,,"57,5",68,11
wrm-826-1,wrm-826,Mosche,1,1328,Jaakow Halevi,,,Halevi,,,,"63,5",68,"13,5"
wrm-284-1,wrm-284,Schneor,1,1219,Schmuel,,,,,,,47,68,"14,5"
wrm-547-1,wrm-547,Ginßa,2,1319,Urschrago Hakohen,,,Hakohen,,,,"75,5",68,"14,5"
wrm-1081-1,wrm-1081,Jizchak(?),1,1316,?,,,,,,,52,68,16
wrm-1160-1,wrm-1160,Sara,2,1250,Jizchak,,,,,,,"57,5",68,16
wrm-1113-1,wrm-1113,Mina,2,1200,Jizchak,,,,,,,"67,5",68,"16,5"
wrm-1075-1,wrm-1075,Mosche(?),1,1179,Jizchak(?) Halevi(?),,,Halevi(?),,,,53,68,17
wrm-891-1,wrm-891,Golda(?),2,1269,Schimschon(?),,,,,,,61,68,"17,5"
wrm-293-1,wrm-293,Mosche,1,1253,Jaakow Levi,,,Levi,,,,"58,5",68,"16,5"
wrm-1055-1,wrm-1055,,,1200,,,,,,,,64,"68,3",17
wrm-972-1,wrm-972,Nadaw Mosche Aharon,1,1722,Simcha Malbaum,,Malbaum,,,,,70,"68,5",10
wrm-1006-1,wrm-1006,Elasar,1,1314,Natan Halevi,,,Halevi,,,,"54,5","68,5","12,9"
wrm-4-1,wrm-4,Michal Vromut,2,1747,Awraham,,,,Aharon Levi,,,70,"68,5","14,5"
wrm-455-1,wrm-455,Channa,2,1319,Jekutiel Halevi,,,Halevi,,,,"66,5","68,5",16
wrm-192-1,wrm-192,Mosche,1,1214,Schmuel Halevi,,,Halevi,,,,54,"68,5","17,4"
wrm-291-1,wrm-291,Jeune,2,1218,David,,,,,,,"50,5","68,5",18
wrm-325-1,wrm-325,Aharon,1,1250,Menachem,,,,,,,70,"68,5",20
wrm-346-1,wrm-346,Akiwa,1,1651,Tuwia Halevi,,,Halevi,,,,45,69,10
wrm-1008-1,wrm-1008,Riwka,2,1677,Natan Franklin,,Franklin,,,,,"81,7",69,"10,3"
wrm-497-1,wrm-497,Schlomo,1,1561,? Reutlingen,,Reutlingen,,,,,70,69,11
wrm-95-1,wrm-95,Jisrael,1,1628,Eljakim „zur Waagen“,,,,,,,"83,7",69,11
wrm-507-1,wrm-507,Feiwesch,1,1770,Masus Langebach,,Langebach,,,,,"56,5",69,"11,5"
wrm-233-1,wrm-233,Schmuel Sanvil,1,1720,Schlomo Salman Nass,,Nass,,,,,"54,5",69,12
wrm-660-1,wrm-660,Grisle,2,1475,Schemaja,,,,,,,69,69,13
wrm-1087-1,wrm-1087,Jizchak,1,1307,Awraham,,,,,,,"56,5",69,"13,5"
wrm-103-1,wrm-103,Schlomo,1,1218,Natan,,,,,,,46,69,15
wrm-1186-1,wrm-1186,Mordechai,1,1212,Josef,,,,,,,"56,5",69,16
wrm-1056-1,wrm-1056,Awiga'al,2,1239,Kalonymos Halevi,,,Halevi,,,,55,69,"16,5"
wrm-723-1,wrm-723,,,1550,,,,,,,,66,69,17
wrm-675-1,wrm-675,Anschel Ascher,1,1456,Meschulam,,,,,,,64,69,12
wrm-392-1,wrm-392,Zippora,2,1259,? Halevi,,,Halevi,,,,70,69,14
wrm-381-1,wrm-381,Chava,2,1200,?,,,,,,,57,69,17
wrm-538-1,wrm-538,Schmuel,1,1292,Ascher,,,,,,,"60,5","69,5","7,5"
wrm-975-1,wrm-975,Sara Osnat Ester,2,1686,Awraham Neustädtel,,Neustädtel,,Aharon,,,"80,5","69,5",13
wrm-692-1,wrm-692,Jachet,2,1400,Ascher Halevi,,,Halevi,,,,"52,5","69,5",14
wrm-924-1,wrm-924,Riwka,2,1277,Menachem,,,,,,,"51,5","69,5",21
wrm-1213-1,wrm-1213,Sara Bella,2,1784,Mendele Eppingen Segal,,Eppingen,Segal,Hirsch Ettingen,,,"57,5",70,"5,5"
wrm-413-1,wrm-413,Magtin,2,1316,Schimschon Hakohen,,,Hakohen,,,,65,70,8
wrm-638-1,wrm-638,Krönchen,2,1680,Schimon,,,,Juspa Oppenheim,,,67,70,10
wrm-53-1,wrm-53,Mosche,1,1342,Jehuda,,,,,,,80,70,14
wrm-1002-1,wrm-1002,Michla,2,1626,Mosche Schnaittach,,Schnaittach,,Ascher(?) Rodhofen,,,81,70,14
wrm-419-1,wrm-419,Belet,2,1238,Jehuda,,,,,,,"55,5",70,"14,5"
wrm-71-1,wrm-71,Mina,2,1208,Jekutiel,,,,,,,"58,5",70,15
wrm-1187-1,wrm-1187,?,1,1200,?,,,,,,,55,70,"16,5"
wrm-1060-1,wrm-1060,Natan,1,1283,Ascher Halevi,,,Halevi,,,,65,70,22
wrm-953-1,wrm-953,Mosche,1,1272,Schlomo,,,,,,,69,"70,5","9,5"
wrm-530-1,wrm-530,Jizchak,1,1289,Eljakim,,,,,,,67,"70,5","11,5"
wrm-781-1,wrm-781,Schneor,1,1295,Meir,,,,,,,"89,5","70,5","13,5"
wrm-781-2,wrm-781,Jente,2,1295,Meir,,,,,,,"89,5","70,5","13,5"
wrm-938-1,wrm-938,Kela,2,1329,Mordechai,,,,,,,"45,5",71,8
wrm-583-1,wrm-583,Channa(?),2,1329,Jisrael(?) Halevi,,,Halevi,,,,71,71,12
wrm-76-1,wrm-76,?,2,1150,?,,,,,,,55,71,14
wrm-317-1,wrm-317,Josef,1,1331,Schlomo,,,,,,,55,71,14
wrm-935-1,wrm-935,Awigail,2,1302,David,Menachem,,,,,,92,71,14
wrm-935-2,wrm-935,Rachel,2,1302,Awraham,,,,,,,92,71,14
wrm-412-1,wrm-412,Menachem,1,1289,Meir,,,,,,,70,71,17
wrm-405-1,wrm-405,Urshrago,1,1279,Schmuel Hakohen,,,Hakohen,,,,"64,5",71,22
wrm-922-1,wrm-922,Jentel,2,1250,Jaakow,,,,,,,68,71,"22,5"
wrm-386-1,wrm-386,Meir,1,1259,Awraham,,,,,,,50,71,"22,5"
wrm-920-1,wrm-920,,,1300,,,,,,,,66,71,
wrm-782-1,wrm-782,,,1500,,,,,,,,"57,5","71,5","10,5"
wrm-65-1,wrm-65,Simcha,1,1300,Meir Hakohen,,,Hakohen,,,,98,"71,5","16,5"
wrm-88-1,wrm-88,Channa,2,1197,Awraham(?) Hakohen,,,Hakohen,,,,57,"71,5",17
wrm-593-1,wrm-593,Channa,2,1323,Baruch,,,,,,,66,"71,5",13
wrm-2-1,wrm-2,Brendlen,2,1652,Seklen Neuburg,,Neuburg,,,,,"64,3",72,"9,3"
wrm-939-1,wrm-939,Mosche,1,1326,Awraham,,,,,,,58,72,10
wrm-110-1,wrm-110,Simcha,2,1297,Natan,,,,,,,49,72,12
wrm-905-1,wrm-905,?,1,1305,?,,,,,,,55,72,12
wrm-717-1,wrm-717,Reklein,2,1469,Jizchak,,,,,,,64,72,14
wrm-511-1,wrm-511,?,2,1322,Schmuel,,,,,,,78,72,15
wrm-1132-1,wrm-1132,Jehudit,2,1240,Josef,,,,,,,63,72,"15,5"
wrm-132-1,wrm-132,?,1,1179,?,,,,,,,"64,5",72,17
wrm-198-1,wrm-198,Riwka,2,1191,Jizchak Halevi,,,Halevi,,,,"70,5",72,17
wrm-277-1,wrm-277,,,1200,,,,,,,,"62,7",72,"17,5"
wrm-326-1,wrm-326,Sara,2,1303,Jizchak Halevi,,,Halevi,,,,"55,7",72,19
wrm-1130-1,wrm-1130,Jutlen,2,1292,Josef,,,,,,,"44,5",72,"20,5"
wrm-134-1,wrm-134,Jizchak,1,1170,Schmuel,,,,,,,"63,5","72,3","15,5"
wrm-356-1,wrm-356,Vogel,2,1660,,,,,Jockel,,,"84,5","72,5",11
wrm-152-1,wrm-152,Chefziwa,2,1186,Eljakim,,,,,,,56,"72,5",17
wrm-1016-1,wrm-1016,Riwka,2,1752,Elieser ,,,,Awraham Koblenz,,,57,"72,7","7,5"
wrm-971-1,wrm-971,Chajele,2,1790,Aharon Levi,,,Levi,David Brilin,,,54,73,"6,5"
wrm-1243-1,wrm-1243,Fradchen ,2,1650,Eli,,,,Jechiel Karlebach,,,68,73,"11,5"
wrm-432-1,wrm-432,Awraham,1,1333,Josef,,,,,,,60,73,12
wrm-162-1,wrm-162,Natan,1,1186,Jizchak Hakohen,,,Hakohen,,,,79,73,"12,5"
wrm-685-1,wrm-685,Süs,2,1500,Menachem,Josef,,,,,,57,73,14
wrm-234-1,wrm-234,Meir,1,1216,Awraham,,,,,,,55,73,"15,8"
wrm-778-1,wrm-778,Dulca (Dolce),2,1453,Schmuel,,,,,,,69,73,17
wrm-1071-1,wrm-1071,Mosche,1,1223,Josef,,,,,,,58,73,"17,3"
wrm-661-1,wrm-661,Jizchak,1,1480,Mosche,,,,,,,72,73,"17,5"
wrm-558-1,wrm-558,Jaakow,1,1296,Menachem,,,,,,,"54,5","73,5",14
wrm-1063-1,wrm-1063,,,1200,,,,,,,,"54,5","73,5",18
wrm-321-1,wrm-321,Ester,2,1740,Salman Bensheim,,Bensheim,,,,,"57,9",74,"9,4"
wrm-846-1,wrm-846,Channa,2,1312,Schealtiel,,,,,,,57,74,10
wrm-471-1,wrm-471,Awraham,1,1300,Zadok,,,,,,,71,74,12
wrm-460-1,wrm-460,Jizchak,1,1300,Mordechai,,,,,,,53,74,14
wrm-449-1,wrm-449,Leiza,2,1483,Meir Trier,,Trier,,,,,"60,5",74,14
wrm-79-1,wrm-79,David,1,1184,Levi,,,,,,,59,74,15
wrm-919-1,wrm-919,Kalonymos,1,1270,Simcha,,,,,,,51,74,17
wrm-1043-1,wrm-1043,Sara,2,1247,Kalonymos Halevi,,,Halevi,,,,55,74,19
wrm-389-1,wrm-389,Schmuel,1,1261,David,,,,,,,70,74,21
wrm-1200-1,wrm-1200,Meir,1,1624,Aharon Elieser Wallach,,Wallach,,,,,"74,5",74,"15,5"
wrm-203-1,wrm-203,Maimuna,2,1209,Natan Hakohen,,,Hakohen,,,,61,"74,5",12
wrm-271-1,wrm-271,Jizchak,1,1243,Elasar Halevi,,,Halevi,,,,"55,3","74,5","14,5"
wrm-1249-1,wrm-1249,Bella Guggenheim,2,1705,Jizchak Ulm,,Ulm,,Sanvel Guggenheim,,,60,"74,5","14,7"
wrm-424-1,wrm-424,Jizchak,1,1301,Josef,,,,,,,"66,5","74,5",15
wrm-708-1,wrm-708,Gutlen,2,1607,David,,,,,,,81,"74,5",16
wrm-529-1,wrm-529,Mina,2,1290,Elasar,,,,,,,"59,5","74,5",18
wrm-950-1,wrm-950,Jeschajahu Mattitijahu,1,1667,Jizchak Nikolsburg „zum Spieß“,,Nikolsburg,,,,,80,75,10
wrm-899-1,wrm-899,Awraham,1,1344,Meir,,,,,,,62,75,14
wrm-1206-1,wrm-1206,Boleslav,1,1135,?,,,,,,,47,75,16
wrm-442-1,wrm-442,Schmuel,1,1319,Eljakim,,,,,,,168,75,16
wrm-252-1,wrm-252,Justa,2,1242,Schlomo,,,,,,,"56,5",75,17
wrm-1144-1,wrm-1144,Awtalion,1,1340,Awraham,,,,,,,68,75,"17,5"
wrm-193-1,wrm-193,Gila,2,1220,Natan,,,,,,,"49,5",75,18
wrm-1196-1,wrm-1196,Jaakow,1,1172,Meschalom(?),,,,,,,59,75,18
wrm-141-1,wrm-141,Chija,1,1328,Nechemja,,,,,,,"55,5",75,20
wrm-606-1,wrm-606,Otniel,1,1334,Schimon,,,,,,,61,"75,5","11,5"
wrm-927-1,wrm-927,Schifra,2,1286,Schmuel,,,,,,,"78,5","75,5",12
wrm-543-1,wrm-543,Josef,1,1320,Ascher,,,,,,,"55,5","75,5","12,5"
wrm-786-1,wrm-786,?,1,1350,?,,,,,,,94,"75,5","15,5"
wrm-786-2,wrm-786,?,0,1350,?,,,,,,,94,"75,5","15,5"
wrm-652-1,wrm-652,Mina,2,1417,Mosche Halevi,,,Halevi,,,,"75,3","75,5",17
wrm-298-1,wrm-298,Orgia,2,1242,Awraham,,,,,,,61,"75,5",20
wrm-107-1,wrm-107,Mosche,1,1214,Schmuel,,,,,,,63,"75,5","27,5"
wrm-295-1,wrm-295,Dulca (Dolce),2,1241,Meir,,,,,,,62,"75,5","14,5"
wrm-295-2,wrm-295,Jekutiel,1,1241,Meir,,,,,,,62,"75,5","14,5"
wrm-1039-1,wrm-1039,Ephraim,1,1266,Otniel,,,,,,,"76,7","75,9","14,5"
wrm-434-1,wrm-434,Joel,1,1446,Jaakow Halevi,,,Halevi,,,,69,76,"9,5"
wrm-483-1,wrm-483,Simcha,2,1311,Schmuel,,,,,,,"61,5",76,12
wrm-425-1,wrm-425,Channa,2,1296,Jaakow,,,,,,,"72,5",76,"14,5"
wrm-157-1,wrm-157,Mosche,1,1222,Schmuel,,,,,,,61,76,15
wrm-651-1,wrm-651,,,1400,,,,,,,,64,76,"16,5"
wrm-178-1,wrm-178,Sara,2,1176,Josef Halevi,,,Halevi,,,,"65,5",76,"16,7"
wrm-1112-1,wrm-1112,Schmuel,1,1269,Josef Hakohen,,,Hakohen,,,,"49,8",76,"19,5"
wrm-911-1,wrm-911,Guta,2,1350,Awraham,,,,,,,"76,5",76,"19,5"
wrm-377-1,wrm-377,Jente,2,1263,Schneor,,,,,,,60,76,21
wrm-985-1,wrm-985,Hinlen,2,1619,Jsrael Schmuel,,,,Jizchak Dürkheim,,,81,76,"13,5"
wrm-654-1,wrm-654,Channa,2,1414,Jaakow Halevi,,,Halevi,,,,"79,5","76,5","14,5"
wrm-362-1,wrm-362,Jizchak,1,1281,Schmuel Hakohen,,,Hakohen,,,,"55,8","76,5","15,5"
wrm-1175-1,wrm-1175,Kalonymos,1,1238,Perigores,,,,,,,63,"76,5",16
wrm-943-1,wrm-943,Mosche,1,1263,Jehuda,,,,,,,"59,3","76,5",21
wrm-642-1,wrm-642,Gutlen,2,1392,Meir Tilsberg,,Tilsberg,,,,,67,"76,5",14
wrm-984-1,wrm-984,Ester,2,1784,,,,,Löb Eberstadt,,,"54,8","76,8","6,2"
wrm-980-1,wrm-980,Natan Nate,1,1713,Menke Oppenheim,,Oppenheim,,,,,59,77,"10,5"
wrm-282-1,wrm-282,Elieser ,1,1678,Schmuel,,,,,,,"79,5",77,"11,6"
wrm-813-1,wrm-813,Frokint (Vrokint),2,1319,?,,,,,,,56,77,12
wrm-1076-1,wrm-1076,Pinchas,1,1683,Schmuel Liwak Hakohen,,Liwak ,Hakohen,,,,55,77,"12,3"
wrm-1059-1,wrm-1059,Jehoschua,1,1338,Awraham,,,,,,,"47,3",77,"12,4"
wrm-216-1,wrm-216,Bruna,2,1216,Natan Hakohen,,,Hakohen,,,,61,77,"12,5"
wrm-450-1,wrm-450,Elijahu,1,1335,Elieser,,,,,,,77,77,"12,5"
wrm-594-1,wrm-594,Bella,2,1324,Alexander Hakohen,,,Hakohen,,,,65,77,13
wrm-486-1,wrm-486,Lipheit,2,1300,Meir,,,,,,,58,77,"13,5"
wrm-100-1,wrm-100,,,1500,,,,,,,,99,77,14
wrm-1105-1,wrm-1105,Jehudit,2,1222,Schmuel,,,,,,,53,77,"15,5"
wrm-779-1,wrm-779,Ugi,2,1423,Mordechai Hakohen,,,Hakohen,,,,81,77,"15,5"
wrm-952-1,wrm-952,Batschewa,2,1277,Mordechai,,,,,,,66,77,17
wrm-992-1,wrm-992,Mirjam,2,1275,Jomtow,,,,,,,"76,5",77,"18,3"
wrm-1092-1,wrm-1092,Channa,2,1280,Jizchak,,,,,,,"58,3",77,20
wrm-570-1,wrm-570,Mirjam,2,1327,Jizchak Halevi,,,Halevi,,,,"81,5",77,14
wrm-567-1,wrm-567,Schmuel,1,1303,Jizchak,,,,,,,"54,5",77,18
wrm-290-1,wrm-290,Zippora,2,1215,Schimschon,,,,,,,56,"77,3",17
wrm-962-1,wrm-962,Wolf,1,1818,Leiser Nass,,Nass,,,,,56,"77,5","7,5"
wrm-422-1,wrm-422,Klera,2,1321,Elieser,,,,,,,67,"77,5",12
wrm-1152-1,wrm-1152,Salman Jekutiel,1,1604,? Blin,,Blin,,,,,"84,8","77,5",14
wrm-693-1,wrm-693,Jaakow,1,1501,?,,,,,,,"71,5","77,5","15,5"
wrm-693-2,wrm-693,Vromet,2,1501,Jehuda,,,,Jaakow,,,"71,5","77,5","15,5"
wrm-1090-1,wrm-1090,Meir,1,1250,Elieser,,,,,,,48,"77,5","16,5"
wrm-1179-1,wrm-1179,Sara,2,1627, ... Stang,,Stang,,,,,90,"77,8","14,5"
wrm-1114-1,wrm-1114,Mosche,1,1713,Elischa Meir ,,,,,,,68,78,"10,5"
wrm-811-1,wrm-811,Juta,2,1323,Elasar,,,,,,,88,78,11
wrm-811-2,wrm-811,Elasar,1,1323,Schlomo,,,,,,,88,78,11
wrm-1195-1,wrm-1195,Menasche Elieser (Leser),1,1678,Mosche Wallach ,,Wallach ,,,,,79,78,"11,5"
wrm-796-1,wrm-796,Lipheit,2,1317,Mosche Halevi,,,Halevi,,,,"63,5",78,"12,5"
wrm-51-1,wrm-51,?,2,1561,?,,,,Wolf Schule(?) /Sole(?),,,"82,5",78,"12,5"
wrm-677-1,wrm-677,Meschulam (Selmlen) ,1,1451,Mosche Jaffe,,Jaffe,,,,,80,78,13
wrm-1140-1,wrm-1140,Jutlen,2,1200,?,,,,,,,53,78,"13,8"
wrm-69-1,wrm-69,Juta,2,1171,Baruch,,,,,,,"53,5",78,14
wrm-98-1,wrm-98,Jizchak,1,1591,Schmuel Weil,,Weil,,,,,69,78,14
wrm-777-1,wrm-777,Gitlen,2,1404,Josef,,,,,,,88,78,14
wrm-393-1,wrm-393,Schmuel,1,1265,Jizchak,,,,,,,"56,5",78,15
wrm-464-1,wrm-464,Bräune,2,1400,Jaakow,,,,,,,"51,5",78,17
wrm-894-1,wrm-894,Ugia,2,1200,Elasar,,,,,,,56,78,20
wrm-378-1,wrm-378,Jizchak,1,1253,Awraham,,,,,,,68,78,16
wrm-821-1,wrm-821,Schlomo,1,1320,Jechiel,,,,,,,60,78,16
wrm-681-1,wrm-681,Schmuel,1,1685,Mosche Meir „zum Hentschuch“,,,,,,,62,"78,5",9
wrm-1089-1,wrm-1089,Pessel,2,1705,Eisak ,,,,Hirz Wachnum (Wachenheim),,,"63,8","78,5","12,5"
wrm-561-1,wrm-561,Schlomo,1,1271,Schmuel,,,,,,,"51,5","78,5",14
wrm-1042-1,wrm-1042,Ermut,2,1249,Jizchak,,,,,,,"64,5","78,5","14,5"
wrm-249-1,wrm-249,Ester,2,1240,Schmuel,,,,,,,61,"78,5",17
wrm-263-1,wrm-263,Baruch,1,1216,Schmuel,,,,,,,52,79,"12,5"
wrm-711-1,wrm-711,Natan,1,1600,Jizchak Hakohen Staffelstein,,Staffelstein,Hakohen,,,,75,79,"12,5"
wrm-546-1,wrm-546,?,1,1307,?,,,,,,,56,79,13
wrm-931-1,wrm-931,?,1,1282,?,,,,,,,59,79,13
wrm-947-1,wrm-947,Magtin,2,1240,Eljakum,,,,,,,65,79,13
wrm-545-1,wrm-545,Jaakow(?),1,1316,Awraham(?),,,,,,,"56,5",79,"13,5"
wrm-403-1,wrm-403,Jent..?,2,1200,,,,,,,,64,79,16
wrm-863-1,wrm-863,Riwka,2,1271,Mosche,,,,,,,63,79,18
wrm-373-1,wrm-373,Awraham,1,1238,Meir,,,,,,,71,79,18
wrm-687-1,wrm-687,Elieser (Lase),1,1627,Ephraim Kirchheim,,Kirchheim,,,,,"64,5","79,5","11,5"
wrm-912-1,wrm-912,Sara(?),2,1307,Jehuda Hakohen,,,Hakohen,,,,"64,5","79,5",12
wrm-597-1,wrm-597,Michael Gernsheim,1,1792,,,Gernsheim,,,,,54,80,6
wrm-603-1,wrm-603,Herz Obenheim,1,1823,,,Obenheim,,,,,"55,8",80,"6,8"
wrm-599-1,wrm-599,Jissachar Gernsheim,1,1829,,,Gernsheim,,,,,"49,5",80,7
wrm-1211-1,wrm-1211,Chajim,1,1774,Schlomo Oppenheim,,Oppenheim,,,,,"55,8",80,7
wrm-1047-1,wrm-1047,Telzche,2,1772,Wolf Oppenheim,,Oppenheim,,,,,56,80,"7,5"
wrm-1015-1,wrm-1015,Elieser,1,1783,Aharon ,,,,,,,"60,5",80,9
wrm-528-1,wrm-528,Bruna,2,1274,Schneor,,,,,,,58,80,11
wrm-48-1,wrm-48,Jekutiel,1,1226,Jsrael,,,,,,,49,80,"11,5"
wrm-549-1,wrm-549,Michlen,2,1318,Serach(?),,,,,,,60,80,"12,5"
wrm-231-1,wrm-231,Josef,1,1205,Schimschon,,,,,,,50,80,14
wrm-626-1,wrm-626,Vromet ,2,1503,Josef Halevi,,,Halevi,Elieser b. Meir Wallach,,,61,80,14
wrm-89-1,wrm-89,?,,1148,?,,,,,,,52,80,15
wrm-1013-1,wrm-1013,Schmuel,1,1285,Joez,,,,,,,59,80,16
wrm-1073-1,wrm-1073,Simcha,2,1166,Jizchak Halevi,,,Halevi,,,,54,80,"22,5"
wrm-1029-1,wrm-1029,Mosche(?),,1240,,,,,,,,"59,3","80,3",15
wrm-1032-1,wrm-1032,?,1,1316,Jaakow(?),,,,,,,"60,4","80,8","17,5"
wrm-698-1,wrm-698,Awraham,1,1504,Jizchak aus Oppenheim,,aus Oppenheim,,,,,59,81,12
wrm-452-1,wrm-452,Mirjam,2,1325,Schmuel,,,,,,,"77,5",81,13
wrm-1051-1,wrm-1051,Josef,1,1272,Jizchak Halevi,,,Halevi,,,,"62,2",81,"17,5"
wrm-876-1,wrm-876,,,1200,,,,,,,,68,81,"17,5"
wrm-447-1,wrm-447,Gitin,2,1316,Jechiel Halevi,,,Halevi,,,,"80,5","81,5",15
wrm-423-1,wrm-423,Channa,2,1290,Jehuda,,,,,,,61,"81,5",18
wrm-239-1,wrm-239,Schmuel,1,1233,Jaakow,,,,,,,45,"81,5",20
wrm-310-1,wrm-310,Simcha,2,1240,Meir,,,,,,,64,"81,5",20
wrm-1202-1,wrm-1202,Gumpel,1,1825,Mosche Horchheim,,Horchheim,,,,,55,82,"7,5"
wrm-981-1,wrm-981,Simcha,1,1819,Izek Brill,,Brill,,,,,"50,5",82,8
wrm-540-1,wrm-540,Rösle Sofer,2,1740,Masus Langebach,,Langebach,,Wolf Sofer,,,61,82,"9,5"
wrm-890-1,wrm-890,Mosche,1,1250,Mosche,,,,,,,56,82,"10,5"
wrm-67-1,wrm-67,Guta(?),2,1640,?,,,,,,,88,82,"11,5"
wrm-472-1,wrm-472,Meir,1,1314,Jehuda,,,,,,,69,82,"12,5"
wrm-84-1,wrm-84,Guta,2,1157,Josef Halevi,,,Halevi,,,,49,82,13
wrm-72-1,wrm-72,Mosche Ascher,1,1599,Juda KaZ,,KaZ,,,,,"77,5",82,"13,5"
wrm-127-1,wrm-127,Channa,2,1220,Jizchak,,,,,,,56,82,"14,7"
wrm-1030-1,wrm-1030,Menachem,1,1248,Jizchak,,,,,,,"66,2",82,"15,8"
wrm-1216-1,wrm-1216,Gnana,2,1289,Mosche,,,,,,,60,82,18
wrm-161-1,wrm-161,Chava,2,1183,Gerschon,,,,,,,"61,5",82,18
wrm-643-1,wrm-643,Ugia,2,1390,Elasar,,,,,,,"67,5",82,18
wrm-314-1,wrm-314,Mirjam,2,1239,Schmuel,,,,,,,70,82,18
wrm-1246-1,wrm-1246,Eisak Adler KaZ,1,1822,,,Adler,KaZ,,,,53,"82,5","6,5"
wrm-602-1,wrm-602,Teile,2,1830,,,,,Herz Obenheim,,,60,"82,5","7,5"
wrm-355-1,wrm-355,Schmuel,1,1308,Gerschom,,,,,,,61,"82,5",13
wrm-1117-1,wrm-1117,Mirjam,2,1704,Meir Schochet,,Schochet,,Meir,,,"83,5","82,5",13
wrm-374-1,wrm-374,Jaakow,1,1247,Meir,,,,,,,57,"82,5","14,5"
wrm-613-1,wrm-613,Mirjam,2,1312,Josef,,,,,,,"60,5","82,5","14,5"
wrm-548-1,wrm-548,Rechlen,2,1320,Schmuel Hakohen,,,Hakohen,,,,63,83,"8,5"
wrm-552-1,wrm-552,Chakim,1,1294,Schmuel,,,,,,,68,83,"10,5"
wrm-1168-1,wrm-1168,Jirmejah Menachem,1,1675,Jizchak Halevi,,,Halevi,,,,"89,5",83,11
wrm-699-1,wrm-699,Jochewed,2,1447,Perez (?) ,,aus Altkirch (?),,,,,61,83,12
wrm-672-1,wrm-672,Jizchak Seligman,1,1495,Meir,,,,,,,"45,5",83,14
wrm-913-1,wrm-913,Mosche,1,1250,Mosche,,,,,,,56,83,14
wrm-38-1,wrm-38,Vöglen,2,1659,Elieser Oppenheim,,Oppenheim,,,,,"60,5",83,14
wrm-312-1,wrm-312,Guta,2,1242,Awraham Halevi,,,Halevi,,,,55,83,"14,5"
wrm-431-1,wrm-431,Gutlen,2,1435,Alexander,,,,,,,62,83,15
wrm-1103-1,wrm-1103,Jiska,2,1209,Elasar Halevi,,,Halevi,,,,56,83,18
wrm-115-1,wrm-115,Sagira,2,1172,Schmuel,,,,,,,60,83,"18,5"
wrm-278-1,wrm-278,Sara,2,1230,Jehuda,,,,,,,77,83,"18,5"
wrm-925-1,wrm-925,Otniel,1,1273,Schimschon,,,,,,,60,83,19
wrm-575-1,wrm-575,Falk,1,1780,Michael Gernsheim,,Gernsheim,,,,,"57,5","83,5",7
wrm-515-1,wrm-515,Menachem,1,1334,Jaakow,,,,,,,67,"83,5","11,5"
wrm-713-1,wrm-713,Eisak (Jizchak),1,1661,Natan Staffelstein Kohen,,Staffelstein, Kohen,,,,61,"83,5",17
wrm-357-1,wrm-357,Aharon,1,1622,Elijahu Blin,,Blin,,,,,"82,5","83,5",10
wrm-313-1,wrm-313,Tawit,2,1272,Josef,,,,,,,58,"83,5",20
wrm-1271-1,wrm-1271,Gittche,2,1746,Alexander Honig,,Honig,,Jisrael Falk,,,"62,7",84,"9,5"
wrm-791-1,wrm-791,?,1,1368,Josef,,,,,,,74,84,"11,5"
wrm-937-1,wrm-937,David,1,1323,Schimon,,,,,,,64,84,12
wrm-1017-1,wrm-1017,Guta,2,1306,Menachem,,,,,,,"52,5",84,"12,7"
wrm-579-1,wrm-579,Jizchak,1,1290,Josef,,,,,,,"55,5",84,"14,5"
wrm-1005-1,wrm-1005,Juta,2,1319,Elasar Halevi,,,Halevi,,,,"75,7","84,3","13,2"
wrm-1147-1,wrm-1147,Pessle,2,1802,,,,,Beer Kohen,,,55,"84,5",7
wrm-668-1,wrm-668,Chajim,1,1686,Jizchak zum Rindsfuß,,,,,,,"64,5","84,5","10,5"
wrm-514-1,wrm-514,Sara,2,1251,Jaakow,,,,,,,70,"84,5","11,5"
wrm-159-1,wrm-159,Baruch,1,1283,Josef,,,,,,,65,"84,5","13,3"
wrm-674-1,wrm-674,Channa,2,1456,Jizchak,,,,,,,70,"84,5",15
wrm-1041-1,wrm-1041,Mosche,1,1241,Jehuda,,,,,,,65,"84,5","18,5"
wrm-802-1,wrm-802,Akiwa,1,1316,Schimschon,,,,,,,62,85,11
wrm-521-1,wrm-521,?,1,1333,Schmuel,,,,,,,65,85,11
wrm-818-1,wrm-818,Jizchak,1,1290,Schmuel,,,,,,,"54,5",85,"11,5"
wrm-1022-1,wrm-1022,?,2,1273,Alexander,,,,,,,"51,5",85,14
wrm-933-1,wrm-933,Adelheit,2,1310,Schimschon,,,,,,,55,85,14
wrm-820-1,wrm-820,Schifra,2,1314,Jekutiel,,,,,,,62,85,14
wrm-1265-1,wrm-1265,Channa,2,1261,Schimschon Kohen,,,Kohen,,,,49,85,23
wrm-801-1,wrm-801,Jochewed,2,1287,Jechiel,Ephraim,,,,,,64,85,24
wrm-177-1,wrm-177,Mirjam,2,1171,Awraham,,,,,,,62,"85,3",13
wrm-361-1,wrm-361,Aberle,1,1777,Michael Oppenheim,,Oppenheim,,,,,"56,7",86,7
wrm-624-1,wrm-624,Lase Kirchheim zum Hecht,1,1714,,,Kirchheim aus Worms,,,,,"60,5",86,"10,8"
wrm-689-1,wrm-689,Mosche,1,1502,Awraham Deckingen,,Deckingen,,,,,"65,5",86,"13,5"
wrm-1171-1,wrm-1171,?,2,1400,?,,Blin,,,,,"77,8",86,14
wrm-180-1,wrm-180,Channa,2,1192,Menachem,,,,,,,59,86,"14,8"
wrm-618-1,wrm-618,Awraham,1,1328,Awraham,,,,,,,65,86,15
wrm-244-1,wrm-244,,,1240,,,,,,,,59,86,22
wrm-536-1,wrm-536,Baruch,1,1294,Jaakow,,,,,,,"69,5","86,5","9,5"
wrm-526-1,wrm-526,Mosche,1,1299,Kalonymos,,,,,,,60,"86,5",14
wrm-181-1,wrm-181,Menachem,1,1203,Jaakow,,,,,,,"63,3","86,5","15,5"
wrm-1191-1,wrm-1191,Freidlen,2,1677,Anschel Oppenheim,,Oppenheim,,Mosche Wallach,,,81,87,"10,5"
wrm-1154-1,wrm-1154,Mosche,1,1767,Awraham Levi,,,Levi,,,,"55,7",87,11
wrm-647-1,wrm-647,Gintlen,2,1578,Jizchak KaZ,,,,Izek Deckingen,,,84,87,11
wrm-588-1,wrm-588,Ester,2,1320,Jechiel,,,,,,,"66,5",87,"11,5"
wrm-655-1,wrm-655,Natan,1,1700,David,,,,,,,56,87,12
wrm-513-1,wrm-513,Channa,2,1308,Mosche,,,,,,,63,87,13
wrm-584-1,wrm-584,Bella,2,1315,Schmuel Hakohen,,,Hakohen,,,,54,87,14
wrm-1086-1,wrm-1086,Goldchen,2,1406,Schmuel,,,,,,,"88,5",87,"14,5"
wrm-722-1,wrm-722,Awraham,1,1300,Meir,,,,,,,73,87,15
wrm-550-1,wrm-550,Berechja,1,1300,Mosche,,,,,,,61,87,"15,5"
wrm-366-1,wrm-366,Natan,1,1239,Elasar,,,,,,,60,87,17
wrm-421-1,wrm-421,Jaakow,1,1239,Mosche,,,,,,,"63,5",87,"17,5"
wrm-179-1,wrm-179,Bruna,2,1183,Jizchak,Natan,,,,,,"56,3",87,"18,2"
wrm-987-1,wrm-987,Axelrad,1,1307,Jedidja,,,,,,,75,87,"18,5"
wrm-91-1,wrm-91,Piruza,2,1144,Schmuel,,,,,,,"49,3",87,20
wrm-1123-1,wrm-1123,Merle Bayerthal,2,1824,,,,,Hirz Bayerthal,,,"53,4","87,5","6,8"
wrm-963-1,wrm-963,Chajim,1,1806,Leser Nass,,Nass,,,,,53,"87,5",7
wrm-1064-1,wrm-1064,Natan(?),1,1261,?,,,,,,,65,"87,5","10,5"
wrm-616-1,wrm-616,Reuwen,1,1316,Menachem,,,,,,,68,"87,5","11,5"
wrm-621-1,wrm-621,Sara Vromet,2,1659,Jissachar,,,,Sanvel,,,"72,3","87,5",15
wrm-1067-1,wrm-1067,Riwka,2,1272,Uri,,,,,,,"54,5","87,5","15,5"
wrm-496-1,wrm-496,Jehuda,1,1284,Jizchak,,,,,,,"55,5","87,5",16
wrm-686-1,wrm-686,Jisrael,1,1556,Schmuel Rothenburg,,Rothenburg,Hakohen(?),,,,"63,5","87,5",21
wrm-827-1,wrm-827,Jaakow,1,1247,Ascher Halevi,,,Halevi,,,,"48,5","87,5","12,5"
wrm-149-1,wrm-149,Lea,2,1650,Jaakow Hakohen,,,Hakohen,Akiwa,,,68,88,8
wrm-500-1,wrm-500,Sara,2,1318,Mordechai aus Lautern,,aus Lautern,,,,,79,88,10
wrm-998-1,wrm-998,Josef,1,1294,Natan Halevi,,,Halevi,,,,73,88,12
wrm-849-1,wrm-849,Adelheit,2,1298,Meir,,,,,,,58,88,"12,5"
wrm-506-1,wrm-506,Natan,1,1310,Baruch,,,,,,,"55,5",88,13
wrm-187-1,wrm-187,Jaakow,1,1620,Mosche Schimon Hakohen,,,Hakohen,,,,"82,5",88,"13,5"
wrm-1077-1,wrm-1077,Schmuel,1,1259,Josef,,,,,,,"56,5",88,16
wrm-31-1,wrm-31,Jekutiel,1,1317,Awraham,,,,,,,77,88,17
wrm-1240-1,wrm-1240,Schimschon,1,1122,Jekutiel,,,,,,,"44,5",88,"18,5"
wrm-843-1,wrm-843,Zorit (Sore/Sara),2,1361,,,,,Awraham,,,57,88,20
wrm-8-1,wrm-8,Riwka,2,1143,Jizchak,,,,,,,"51,5",88,23
wrm-934-1,wrm-934,?,1,1300,Meir,,,,,,,"57,5","88,5",10
wrm-459-1,wrm-459,Jizchak,1,1400,Jaakow,,,,,,,65,"88,5",12
wrm-74-1,wrm-74,Channa,2,1602,Schlomo Blin,,Blin,,Salman Schotten,,,60,"88,5","12,5"
wrm-617-1,wrm-617,Joel,1,1333,Awraham,,,,,,,68,"88,5","12,5"
wrm-581-1,wrm-581,Schönlen,2,1320,Jizchak,,,,,,,67,"88,5",14
wrm-623-1,wrm-623,Mosche,1,1316,Menachem,,,,,,,"81,5","88,5","16,5"
wrm-1044-1,wrm-1044,?,2,1253,?,,,,,,,54,"88,5",20
wrm-865-1,wrm-865,Jechiel,1,1277,Josef,,,,,,,87,"88,5",24
wrm-967-1,wrm-967,Sara Malka,2,1686,Aharon,,,,Akiwa,,,55,89,"9,5"
wrm-897-1,wrm-897,Elieser,1,1300,Schlumiel,,,,,,,"65,5",89,10
wrm-1163-1,wrm-1163,Mattitjah,1,1240,Mosche,,,,,,,54,89,"12,5"
wrm-666-1,wrm-666,Hendle,2,1728,Mosche Masli,,Masli,,?,,,"57,5",89,"12,5"
wrm-940-1,wrm-940,?,2,1310,Schlomo,,,,,,,"70,5",89,13
wrm-237-1,wrm-237,Jiska,2,1221,Meir Hakohen,,,Hakohen,,,,"62,5",89,14
wrm-537-1,wrm-537,Golda,2,1291,Schmuel,,,,,,,"110,5",89,14
wrm-60-1,wrm-60,Jutlen,2,1616,Josef Mainz,,Mainz,,Aharon Ginzburg,,,80,89,15
wrm-853-1,wrm-853,Channa,2,1262,Jisrael,,,,,,,71,89,18
wrm-598-2,wrm-598,Belkind,2,1343,Mosche,,,,Alexander,,,82,89,18
wrm-598-1,wrm-598,Schena,2,1343,Alexander,,,,,,,82,89,18
wrm-754-1,wrm-754,Bathschewa,2,1330,Josef,,,,,,,56,"89,5",12
wrm-287-1,wrm-287,Seligman Koma Segal,1,1775,,,,Segal,,,,55,90,"9,4"
wrm-86-1,wrm-86,Schmuel,1,1620,Jizchak Halevi,,,Halevi,,,,84,90,"11,5"
wrm-573-1,wrm-573,Schmuel,1,1325,Chalafta,,,,,,,64,90,"12,5"
wrm-24-1,wrm-24,Vromut,2,1343,Jakar Halevi,,,Halevi,,,,95,90,14
wrm-1034-1,wrm-1034,Schifra,2,1245,Josef,,,,,,,"57,3",90,"14,5"
wrm-788-1,wrm-788,Kilchen,2,1403,Menachem,,,,,,,90,90,15
wrm-1104-1,wrm-1104,Guta,2,1241,? Hakohen,,,Hakohen,,,,65,90,"15,5"
wrm-695-1,wrm-695,Schlomo Salman,1,1490,Jekutiel,,,,,,,72,90,"16,5"
wrm-823-1,wrm-823,Batschewa,2,1311,Awraham,,,,,,,66,90,18
wrm-164-1,wrm-164,Mordechai,1,1151,Mosche Halevi,,,Halevi,,,,55,90,"18,5"
wrm-296-1,wrm-296,Schimon,1,1241,Jaakow Halevi,,,Halevi,,,,59,90,15
wrm-560-1,wrm-560,Salman,1,1831,Anschel Eberstadt,,Eberstadt,,,,,"53,5","90,5",8
wrm-862-1,wrm-862,Jekutiel,1,1261,Jaakow Halevi,,,Halevi,,,,63,"90,5",27
wrm-297-1,wrm-297,Mosche,1,1240,Aharon,,,,,,,67,"90,5",19
wrm-1068-1,wrm-1068,Sara(?),2,1700,?,,,,,,,"51,5",91,9
wrm-1157-1,wrm-1157,Channa,2,1774,Mosche Awraham ,,Mähren(?),,Mosche Levi (gest.),,,"56,5",91,11
wrm-510-1,wrm-510,Batschewa,2,1322,Mosche,,,,,,,"67,5",91,11
wrm-580-1,wrm-580,Jehuda,1,1324,Mosche Halevi,,,Halevi,,,,"73,5",91,12
wrm-1079-1,wrm-1079,Jehuda Löb,1,1685,Mosche Heilprun,,Heilprun,,,,,68,91,"12,5"
wrm-50-1,wrm-50,Sara,2,1598,Aharon Schlackenwert,,Schlackenwert,,,,,"80,3",91,"12,5"
wrm-12-1,wrm-12,Elasar,1,1358,Jissachar Halevi,,,Halevi,,,,99,91,"13,5"
wrm-12-2,wrm-12,Henlen(?),2,1358,Jissachar Halevi,,,Halevi,,,,99,91,"13,5"
wrm-1101-1,wrm-1101,Schmuel,1,1128,Awraham,,,,,,,58,91,"14,5"
wrm-18-1,wrm-18,Channa,2,1714,Josef Sekel Oppenheim,,Oppenheim,,,,,111,91,"14,5"
wrm-18-2,wrm-18,Uri Feiwesch,1,1714,Uri Ascher Oppenheim,,Oppenheim,,,,,111,91,"14,5"
wrm-605-1,wrm-605,Awraham,1,1340,Schlomo,,,,,,,76,91,16
wrm-246-1,wrm-246,Chiskia,1,1209,Jizchak,,,,,,,62,91,"17,5"
wrm-1142-1,wrm-1142,Schmuel,1,1300,…..el(?),,,,,,,53,91,"18,3"
wrm-854-1,wrm-854,Schimon,1,1263,Meir,,,,,,,58,91,19
wrm-26-1,wrm-26,?,1,1240,?,,,,,,,48,91,25
wrm-309-1,wrm-309,Alexander,1,1244,Josef,,,,,,,61,91,15
wrm-612-1,wrm-612,Mirjam,2,1319,Peter,,,,,,,77,91,18
wrm-797-1,wrm-797,Naftali Jehuda (Liva),1,1622,Mosche Jizchak Hoheneck,,Hoheneck,,,,,80,91,18
wrm-968-1,wrm-968,Mosche,1,1824,David Brill,,Brill,,,,,"54,5","91,5","6,5"
wrm-562-1,wrm-562,Perigores,1,1320,Schealtiel,,,,,,,68,"91,5",14
wrm-1194-1,wrm-1194,Awigail Vromet,2,1658,Menachem Gans,,Gans,,Leser Wallach,,,69,"91,5",14
wrm-637-1,wrm-637,Channa,2,1404,Elieser Halevi,,,Halevi,,,,83,92,10
wrm-81-1,wrm-81,Juspa,1,1550,Schimon Hakohen,,,Hakohen,,,,75,92,11
wrm-369-1,wrm-369,Alexander,1,1244,Josef,,,,,,,58,92,14
wrm-343-1,wrm-343,Mosche,1,1730,Leiser Weinheim,,Weinheim,,,,,"65,5","92,2",10
wrm-36-1,wrm-36,Mina,2,1322,Jsrael,,,,,,,"82,5","92,5","9,5"
wrm-792-1,wrm-792,Schmuel,1,1310,Schneor,,,,,,,66,"92,5",15
wrm-111-1,wrm-111,Awraham,1,1334,Schmuel,,,,,,,"63,7","92,5","15,5"
wrm-341-1,wrm-341,Leser,1,1752,Jehuda Mainz,,Mainz,,,,,"58,5",93,8
wrm-572-1,wrm-572,Jehonatan Falk Gernissim,1,1752,,,Gernsheim,,,,,63,93,"8,5"
wrm-568-1,wrm-568,Nennche Gernsheim,2,1771,Josbel KaZ aus Metz,,Gernsheim KaZ Metz,,,,,"53,5",93,9
wrm-87-1,wrm-87,Veiel,2,1622,Mosche,,,,Eisak Levi,,,"81,5",93,"11,5"
wrm-41-1,wrm-41,Lea,2,1317,Jizchak,,,,,,,60,93,12
wrm-1185-1,wrm-1185,Jente,2,1589,Salman Kronberg,,Kronberg,,,,,78,93,"12,5"
wrm-812-1,wrm-812,Schimon,1,1310,Schmuel Halevi,,,Halevi,,,,58,93,14
wrm-563-1,wrm-563,Sara,2,1321,Schmuel,,,,,,,69,93,14
wrm-682-1,wrm-682,Juda,1,1614,Schmuel,,,,,,,84,"93,5","10,5"
wrm-1247-1,wrm-1247,Elieser Lippman,1,1669,Meir Wertheim Hakohen,,Wertheim, Hakohen,,,,66,"93,5","10,7"
wrm-1074-1,wrm-1074,,,1200,,,,,,,,54,"93,5",16
wrm-596-1,wrm-596,Sara,2,1325,Alexander,,,,,,,"76,5","93,5",12
wrm-960-1,wrm-960,Jaakow,1,1828,Izek Brill,,Brill,,,,,"55,5",94,10
wrm-1020-1,wrm-1020,Merlen,2,1673,Elasar,,,,Aharon,,,"67,8",94,"10,5"
wrm-1169-1,wrm-1169,Jutla ,2,1699,Jehuda Löb Levi,,,Levi,Elchanan Mainz,,,56,94,11
wrm-632-1,wrm-632,Elasar,1,1380,Jizchak,,,,,,,70,94,13
wrm-430-1,wrm-430,Ascher,1,1418,Schmuel,,,,,,,81,94,14
wrm-1190-1,wrm-1190,Pess,2,1553,Aharon Schlackenwert,Mosche,Schlackenwert,,,,,75,94,"16,5"
wrm-1083-1,wrm-1083,Rechlen,2,1825,,,,,Chajim Gass,,,54,"94,5",8
wrm-395-1,wrm-395,Jaakow,1,1269,Jizchak,,,,,,,59,"94,5",16
wrm-1150-1,wrm-1150,Elieser Sussman,1,1637,Jizchak Blin,,Blin,,,,,"64,8","94,8","10,5"
wrm-1203-1,wrm-1203,Hindele,2,1721,Josef Masni,,Masni,,Salman Lampertheim,,,64,95,"9,3"
wrm-354-1,wrm-354,Hendele Kohen,2,1769,Seligman Karlebach,,Karlebach,,Natan Kohen,,,"58,8",95,"10,5"
wrm-684-1,wrm-684,Liwa Juda,1,1495,Ephraim Bacharach,,Bacharach,,,,,75,95,12
wrm-92-1,wrm-92,Sara,2,1628,Jehuda,,,,Mosche(?),,,80,95,13
wrm-566-1,wrm-566,Jutla Gerlsen,2,1721,Sanvel Levi,,,Levi,,,,99,95,13
wrm-294-1,wrm-294,Dulca (Dolce),2,1293,Ascher Halevi,,,Halevi,,,,67,95,"15,5"
wrm-435-1,wrm-435,Jizchak,1,1253,Chajim(?) Rothenburg,,Rothenburg,,,,,76,95,16
wrm-965-1,wrm-965,Kela,2,1682,Schimon Deckingen,,Deckingen,,…rich Essen(?),,,61,95,17
wrm-903-1,wrm-903,Orgia,2,1275,Awraham,,,,,,,79,95,"17,5"
wrm-1250-1,wrm-1250,Pessche,2,1752,Jechiel Wachenheim ,,Wachenheim ,KaZ,Beer KaZ,,,"60,7","95,5",8
wrm-1156-1,wrm-1156,Löb,1,1767,Eisak Levi,,,Levi,,,,63,"95,5","10,5"
wrm-517-1,wrm-517,Bella,2,1314,Josef Halevi,,,Halevi,,,,"71,5","95,5","14,5"
wrm-1212-1,wrm-1212,Gittel,2,1818,,,,,Lemel Bürstadt,,,60,96,9
wrm-360-1,wrm-360,Michael,1,1738,Feiwesch Oppenheim,,Oppenheim,,,,,"66,5",96,"11,5"
wrm-465-1,wrm-465,Kela,2,1465,Meschulam,,,,,,,62,96,13
wrm-955-1,wrm-955,Schimschon,1,1446,Ephraim,,,,,,,"70,5",96,13
wrm-999-1,wrm-999,Juta,2,1296,Josef,,,,,,,70,96,14
wrm-1172-1,wrm-1172,Josef,1,1242,Gamliel,,,,,,,56,96,17
wrm-627-1,wrm-627,Elieser (Leser),1,1500,Meir Wallach,,Wallach,,,,,"70,5",96,"17,5"
wrm-70-1,wrm-70,Jizchak,1,1198,Josef,,,,,,,56,96,18
wrm-190-1,wrm-190,Natan,1,1333,Jizchak,,,,,,,73,96,"18,5"
wrm-640-1,wrm-640,Dulca (Dolce),2,1388,Natan Halevi,,,Halevi,,,,56,96,"19,5"
wrm-926-1,wrm-926,Hillel,1,1278,Jaakow,,,,,,,"63,5",96,20
wrm-794-1,wrm-794,Rabbenu Meir Maharam Rothenburg,1,1293,Baruch ,Meir aus Rothenburg,,,,MaHRaM,,"68,5",96,24
wrm-352-1,wrm-352,Bella Karlebach,2,1786,Meir,,,,Eli Karlebach,,,"55,5","96,5","10,5"
wrm-793-1,wrm-793,Alexander,1,1307,Schlomo Wimpfen,,Wimpfen,,,,,67,"96,5",20
wrm-1174-1,wrm-1174,Rechlen,2,1674,Meir Schochet,,Schochet,Levi,Mendlen Levi,,,"89,3",97,"10,5"
wrm-805-1,wrm-805,Jehuda,1,1374,Mosche Jeruschalmi,,Jeruschalmi,,,,,"67,5",97,14
wrm-10-1,wrm-10,Sara,2,1325,Jechiel,,,,,,,75,97,14
wrm-182-1,wrm-182,Joel,1,1183,Joel Hakohen,,,Hakohen,,,,83,97,14
wrm-440-1,wrm-440,Mosche,1,1364,Jaakow Halevi,,,Halevi,,,,84,97,14
wrm-806-1,wrm-806,Viga,2,1418,Jeschaja,,,,,,,103,97,15
wrm-806-2,wrm-806,Channa,2,1418,Jeschaja,,,,,,,103,97,15
wrm-806-3,wrm-806,?,1,1418,Jeschaja,,,,,,,103,97,15
wrm-806-4,wrm-806,Sawli,1,1418,Jeschaja,,,,,,,103,97,15
wrm-466-1,wrm-466,Schona,2,1445,Awraham,,,,,,,47,97,31
wrm-372-1,wrm-372,?,,1300,Awraham(?),,,,,,,57,97,16
wrm-1145-2,wrm-1145,Mendel,1,1782,Leser Wittheim,,Wittheim,,,,,"58,8","97,3","7,5"
wrm-1145-1,wrm-1145,Bawi,2,1789,Gedaljahu Levi,,,Levi,Mendel Wittheim,,,"58,8","97,3","7,5"
wrm-1217-1,wrm-1217,Schlomo,1,1737,Mosche Schneor Oppenheim,,Oppenheim,,,,,72,"97,5",10
wrm-671-1,wrm-671,Ascher,1,1454,Schmuel,,,,,,,96,"97,5",14
wrm-671-2,wrm-671,Gutlen,2,1454,Jizchak,,,,,,,96,"97,5",14
wrm-959-1,wrm-959,Gitel,2,1829,,,,,Mosche Brill,,,53,98,8
wrm-353-1,wrm-353,Jettche,2,1779,,,,,Sanvil Beer Battenheim,,,"56,7",98,8
wrm-1173-1,wrm-1173,Jehuda Löb,1,1666,Menachem Levi Segal,,,Levi Segal,,,,"80,5",98,"9,5"
wrm-16-1,wrm-16,Mosche,1,1745,Natan Oppenheim,,Oppenheim,,,,,68,98,"11,5"
wrm-37-1,wrm-37,Juda,1,1412,Jizchak Halevi,,,Halevi,,,,88,"98,5",19
wrm-123-1,wrm-123,Bona,2,1197,Elasar,,,,,,,52,99,11
wrm-121-1,wrm-121,Mindla,2,1723,Juspa Schammes,,,,Sanvel Sofer,,,69,99,11
wrm-1082-1,wrm-1082,Goldchen,2,1418,Schealtiel,,,,,,,"90,7",99,13
wrm-1224-1,wrm-1224,Dobrasch,2,1662,,,,,Schimschon,,,83,99,14
wrm-243-1,wrm-243,Meir,1,1224,Joel Hakohen,,,Hakohen,,,,"50,5",99,27
wrm-1227-1,wrm-1227,Jente,2,1419,Chajim,,,,,,,84,"99,5",19
wrm-257-1,wrm-257,Simcha,2,1229,Meir,,,,,,,77,"99,5","23,5"
wrm-462-1,wrm-462,Schlomo,1,1343,Jaakow,,,,,,,80,100,9
wrm-94-1,wrm-94,Jaakow,1,1736,Jaakow Mansbach Segal,,Mansbach,Segal,,,,76,100,"10,3"
wrm-1010-1,wrm-1010,Sorle,2,1749,Elasar,,,,Jaakow Turlach,,,67,100,"10,8"
wrm-1138-1,wrm-1138,Jisrael Kalman (Kalonymos),1,1688,Natan Segal Levi ,,,Segal Levi ,,,,"66,5",100,11
wrm-553-1,wrm-553,Gutlen,2,1307,Jakar Hakohen,,,Hakohen,,,,"62,5",100,"13,5"
wrm-433-1,wrm-433,Natan,1,1381,Simcha,,,,,,,72,100,15
wrm-383-1,wrm-383,?,1,1254,Jaakow,,,,,,,77,100,16
wrm-825-1,wrm-825,Freyde ,2,1377,Schlomo,,,,,,,"68,5",100,17
wrm-585-1,wrm-585,Mina,2,1319,Jizchak,,,,,,,"65,5","100,5",11
wrm-217-1,wrm-217,Jutchen,2,1623,Baruch,,,,Eisak b. Seligman,,,"84,5","100,5","11,2"
wrm-683-1,wrm-683,Jizchak,1,1607,Akiwa Deckingen,,Deckingen,,,,,"80,5","100,5","12,5"
wrm-608-1,wrm-608,Jehonatan Falk,1,1659,Michael,,,,,,,72,"100,5",15
wrm-964-1,wrm-964,David,1,1784,Wolf Brilin,Izek Brilin,Brilin,,,,,"55,5","100,7",7
wrm-932-1,wrm-932,Nachman,1,1296,Natan,,,,,,,"83,5",101,13
wrm-551-1,wrm-551,Gutlen,2,1311,Binjamin,,,,,,,60,101,18
wrm-1026-1,wrm-1026,Channa,2,1263,Jehuda,,,,,,,56,101,"21,7"
wrm-235-1,wrm-235,Sara Rechle Nass,2,1793,,,,,Chajim Nass,,,"57,3","101,1","11,5"
wrm-345-1,wrm-345,Seligman Jizchak,1,1758,Juda Karlebach,,Karlebach,,,,,66,"101,3","11,3"
wrm-338-1,wrm-338,Aharon,1,1759,Salman Flörsheim KaZ,,Flörsheim,KaZ,,,,"61,5","101,5",10
wrm-610-1,wrm-610,Meir,1,1321,Jehuda Hakohen,,,Hakohen,,,,68,"101,5",15
wrm-535-1,wrm-535,Lea,2,1300,Awraham Awinu,,,,,,,"65,5","101,5",16
wrm-697-2,wrm-697,Anschel Ascher,1,1493,Awraham,,,,,,,74,"101,5",17
wrm-697-1,wrm-697,Jizchak,1,1493,Awraham,,,,,,,74,"101,5",17
wrm-1146-1,wrm-1146,Merlen Wertheim,2,1750,Eisak Levi,,,Levi,Leser Wertheim,,,51,102,8
wrm-1125-1,wrm-1125,Bräunle,2,1703,,,,,Jechiel Osthofen,,,69,102,12
wrm-1184-1,wrm-1184,Feiel,2,1562,Mosche Hakohen,,,Hakohen,Schmuel Lilg,,,71,102,"12,5"
wrm-17-1,wrm-17,Schimon Wolf,1,1664,Josef Jehuda Oppenheim,,Oppenheim,,,,,"82,5",102,"12,5"
wrm-14-1,wrm-14,Daniel Mosche,1,1677,Schmuel Oppenheim,,Oppenheim,,,,,"73,5","102,5",11
wrm-1253-1,wrm-1253,Jaakow MaHaRIL,1,1427,Mosche Levi Möln,,Möln,Levi,,,123954010,94,"102,5",16
wrm-7-1,wrm-7,Jaakow,1,1535,Gerschon,,,,,,,73,"102,5",18
wrm-77-1,wrm-77,Schönchen,2,1682,Natan(?),,,,,,,72,103,"8,5"
wrm-1159-1,wrm-1159,Jizchak (Eisak) Levi ,1,1736,Löb Segal,,,Levi,,,,69,103,"10,5"
wrm-1078-1,wrm-1078,Hannchen,2,1686,Schmuel Halevi,,,Halevi,Löb Oppenheim,,,72,103,13
wrm-941-1,wrm-941,Mosche,1,1292,Awraham,,,,,,,85,103,13
wrm-32-1,wrm-32,Elieser (Leser),1,1649,Jechiel Oppenheim,,Oppenheim,,,,,83,103,"13,8"
wrm-113-1,wrm-113,Mattatia,1,1602,Chajim,,,,,,,93,103,14
wrm-42-1,wrm-42,Jehuda,1,1315,Schimon,,,,,,,"71,5",103,15
wrm-1228-1,wrm-1228,Elijahu,1,1636,Mosche Loanz,,Loanz,,,,136198015,83,103,18
wrm-522-1,wrm-522,Guta,2,1308,Natan aus Esslingen,,aus Esslingen,,Jehuda?,,,71,103,"14,5"
wrm-503-1,wrm-503,Sorle Mannheim,2,1715,Masus Lange-Bach,,Langebach,,Schimon Mannheim,,,98,104,12
wrm-503-2,wrm-503,Edel,2,1715,Schimon Mannheim,,Mannheim,,,,,98,104,12
wrm-1001-1,wrm-1001,Michla,2,1662,Baruch,,,,Izek Blin,,,"81,8",104,"12,7"
wrm-841-1,wrm-841,Awraham,1,1376,Alexander,,,,,,,78,104,15
wrm-524-1,wrm-524,Jizchak,1,1301,Schmuel,,,,,,,"68,5",104,"15,5"
wrm-1-1,wrm-1,Bella,2,1599,Awraham,,,,Izek Hainsdorf,,,"78,5",104,"16,5"
wrm-490-1,wrm-490,Bella,2,1321,Awraham,,,,,,,73,"104,5",13
wrm-1093-1,wrm-1093,Simcha,2,1288,Mosche,,,,,,,"80,6","104,5",14
wrm-983-1,wrm-983,Blümle,2,1727,Schimon Wolf Oppenheim,,Oppenheim,,Izek Oppenheim,,,"66,5",105,10
wrm-578-1,wrm-578,Rachel,2,1317,Ascher Halevi,,,Halevi,,,,70,105,"11,5"
wrm-996-1,wrm-996,Raphael,1,1819,Baruch Turlach,,Turlach,,,,,"80,3",105,"11,5"
wrm-1155-1,wrm-1155,Mosche,1,1753,Jizchak Halevi ,,,Halevi,,,,65,105,"11,7"
wrm-1149-1,wrm-1149,Leser,1,1700,Wachenheim,,Wachenheim,,,,,64,105,12
wrm-645-2,wrm-645,Zerlen,2,1418,Josef,,,,,,,78,105,"14,5"
wrm-645-1,wrm-645,Henlen,2,1419,Josef,,,,,,,78,105,"14,5"
wrm-520-1,wrm-520,Bella,2,1308,Jaakow Halevi,,,Halevi,,,,"92,5",105,26
wrm-1023-1,wrm-1023,Gutlen,2,1263,Jizchak,,,,,,,76,"105,5","15,5"
wrm-664-1,wrm-664,Schlomo,1,1492,Perez Kazen,,Kazen,,,,,83,106,22
wrm-272-1,wrm-272,?,2,1289,Schmuel,,,,,,,64,106,18
wrm-995-1,wrm-995,Josef,1,1802,Baruch Turlach,,Turlach,,,,,"47,2","106,5",8
wrm-680-1,wrm-680,Hindlen,2,1675,Eli ,,,,? (gest.),,,"86,5","106,5",10
wrm-1084-1,wrm-1084,Katschil,2,1817,,,,,Juspa Schnaittach,,,"48,3","106,5","10,5"
wrm-587-1,wrm-587,Richheit,2,1323,Awraham,,,,,,,82,"106,5",11
wrm-1088-1,wrm-1088,Gittchen,2,1680,Josel,,,,Eisak Ring,,,"69,8","106,5","11,5"
wrm-359-1,wrm-359,Jettche,2,1730,Ascher Lämmle,,,,Feiwesch Oppenheim,,,59,107,10
wrm-569-1,wrm-569,Fagel Gernsheim,2,1733,Michal Beer,,"Oppenheim, Beer, Gernsheim",,,,,64,107,11
wrm-1255-1,wrm-1255,Awraham (Aberlen),1,1666,Mosche,,,,,,,"78,5",107,11
wrm-481-1,wrm-481,Ephraim Koprecht,1,1316,Schlomo Wimpfen Hakohen,,Wimpfen Hakohen,Hakohen,,,,"60,5",107,12
wrm-232-1,wrm-232,Schlomo Salman,1,1722,Schlomo Nass,,Nass,,,,,"77,5",107,14
wrm-19-1,wrm-19,Joel,1,1159,Schmuel(?) Hakohen,,,Hakohen,,,,60,107,16
wrm-564-1,wrm-564,Schmuel,1,1712,Jehonatan Gerlsum,,Gerlsum,,,,,74,"107,5",11
wrm-635-1,wrm-635,Meir,1,1389,Schmuel Tilsberg,,Tilsberg,,,,,"85,5","107,5","15,5"
wrm-1238-1,wrm-1238,Naphtali Hirsch Spitz,1,1712,Mosche,,Spitz,,,,,87,108,10
wrm-1003-1,wrm-1003,Aharon Binjamin Wolf,1,1672,Gerschon,,,,,,,"88,7",108,"12,2"
wrm-248-1,wrm-248,,,1519,,,,,,,,66,"108,5","7,8"
wrm-1198-1,wrm-1198,Blümlen,2,1750,Chajim ,,,,Dow Beer,,,"62,5","108,5","8,5"
wrm-1218-1,wrm-1218,Dobrasch,2,1736,Jair Chajim Bacharach,,Bacharach,,Schlomo Oppenheim,,,"70,5","108,5","10,5"
wrm-9-1,wrm-9,Juta,2,1210,David,,,,,,,69,"108,5","23,5"
wrm-978-1,wrm-978,Hendele,2,1722,Aharon,,,,?,,,"123,5",109,"13,5"
wrm-803-1,wrm-803,Josef,1,1307,Ascher,,,,,,,67,109,15
wrm-678-1,wrm-678,Schmuel Schimschon Esslingen,1,1602,Elieser Jaakow ,,Esslingen,,,,,"83,5","109,5","16,5"
wrm-401-1,wrm-401,Mosche Jissachar,1,1624,Elieser Göttingen,,Göttingen,,,,,84,110,12
wrm-1126-1,wrm-1126,Josef Juspa,1,1667,Schimon Hakohen ,,,Hakohen,,,,"75,5",110,13
wrm-93-1,wrm-93,Mirjam,2,1567,Baruch,,,,Eisak Ginzburg,,,82,110,"15,5"
wrm-1241-1,wrm-1241,Mosche,1,1741,Awraham Brod,,Brod,,,,,80,110,16
wrm-574-1,wrm-574,Elieser,1,1322,Menachem,,,,,,,81,110,16
wrm-1065-1,wrm-1065,Schmuel,1,1262,Elieser,,,,,,,74,110,"16,5"
wrm-641-1,wrm-641,Natan,1,1387,Schmuel Halevi,,,Halevi,,,,89,110,"21,5"
wrm-994-1,wrm-994,Gelchen,2,1679,Mordechai Hettnum,,Hettnum,,Josel Kohen Kinstein,,,"68,2","110,3","10,7"
wrm-1153-1,wrm-1153,Jechiel,1,1700,Jizchak Wachenheim (Wachnum),,Wachenheim (Wachnum),,,,,62,"110,3","14,3"
wrm-1248-1,wrm-1248,Jutlen,2,1659,Schimschon,,,,Lippman KaZ Wertheim,,,"95,5","110,5",15
wrm-1215-1,wrm-1215,Pessle Levi Oppenheim,2,1700,,,Oppenheim,Levi,Schmuel(?) Levi sal Oppenheim,,,65,111,"8,8"
wrm-1085-1,wrm-1085,Mila Carlebach,2,1830,,,,,Juda Carlebach,,,59,111,9
wrm-740-1,wrm-740,Channa ,2,1624,,,,,Netanel (gest.),,,"85,5",111,"11,5"
wrm-269-1,wrm-269,Brendle,2,1722,Jaakow,,,,David Stern,,,"69,5",111,14
wrm-1257-1,wrm-1257,Vögelen,2,1661,Jaakow,,,,Mosche Oppenheim,,,99,111,16
wrm-1257-2,wrm-1257,Mosche,1,1661,Salman Weil Oppenheim,,Weil Oppenheim,,,,,99,111,16
wrm-22-1,wrm-22,?,1,1140,?,,,,,,,74,111,18
wrm-1119-1,wrm-1119,Jehuda Löb Unna,1,1703,Jekutiel,,Löb (aus) Unna,,,,,"78,5","111,5","13,8"
wrm-1094-1,wrm-1094,Kalman,1,1736,Izek Blin,,Blin,,,,,63,112,10
wrm-1000-1,wrm-1000,Telzchen,2,1673,Meir Wallach,,Wallach,,N.N. Bloch,,,"78,1",112,10
wrm-542-1,wrm-542,Channa,2,1412,Jizchak,,,,,,,83,112,"11,5"
wrm-542-2,wrm-542,Rachel,2,1412,Josef,,,,,,,83,112,"11,5"
wrm-634-1,wrm-634,Kela,2,1728,Mosche Limburg,,Limburg,,Aharon Segal,,,"64,5",112,10
wrm-344-1,wrm-344,Ester Karlebach,2,1758,Mosche Weinheim,,Weinheim,,Seligman Karlebach,,,"63,4","112,2","10,3"
wrm-283-1,wrm-283,Daniel Schmuel,1,1682,David Oppenheim „zur weißen Rose“,,Oppenheim,,,,,"68,8","112,5","10,5"
wrm-1127-1,wrm-1127,Schimon,1,1682,Uri Hakohen,,,Hakohen,,,,59,"112,5","12,3"
wrm-1091-1,wrm-1091,Mosche Gedalja,1,1727,Simcha Levi ,,,Levi,,,,60,113,10
wrm-628-1,wrm-628,Elieser Liebermann,1,1340,Schmuel ,,Liebermann,,,,,"88,5",113,18
wrm-997-1,wrm-997,Baruch Aharon,1,1777,Raphael Turlach,,Turlach,,,,,"56,8","113,5","6,9"
wrm-493-1,wrm-493,Jentlen,2,1318,Jechiel,,,,,,,68,114,13
wrm-807-1,wrm-807,Sara,2,1312,Menachem,,,,,,,66,114,14
wrm-145-1,wrm-145,Bella,2,1604,Jizchak,,,,Kalman,,,69,114,14
wrm-491-1,wrm-491,Rechlen,2,1340,?,,,,,,,76,114,16
wrm-83-1,wrm-83,Jehuda (Löb),1,1563,Jizchak Kallstadt Hakohen,,Kallstadt,Hakohen,,,,97,114,"18,7"
wrm-1167-1,wrm-1167,Sara,2,1140,Jizchak,,,,,,,61,114,19
wrm-828-1,wrm-828,Chava,2,1762,Schlomo,,Blin,,Juspa Blin ,,,"63,5","114,5",11
wrm-1007-1,wrm-1007,Schmuel Sanvil,1,1715,Aharon Binjamin,,,,,,,66,"114,8","9,5"
wrm-1201-1,wrm-1201,Channa,2,1741,Jizchak Eisak ,,,,Löb Kohen,,,"69,5",115,"9,7"
wrm-1225-1,wrm-1225,Michle,2,1735,Jaakow Oppenheim,,Oppenheim,,Löb Wertheim,,,69,115,10
wrm-340-1,wrm-340,Baruch,1,1714,Jizchak,,,,,,,"66,5",115,11
wrm-247-1,wrm-247,David,1,1720,Benjamin Awraham Stern,,Stern,,,,,"86,8",115,"11,5"
wrm-1158-1,wrm-1158,Fromet ,2,1743,Jizchak Eisak Olf,,Olf,Levi,Eisak Levi (gest.),,,69,115,13
wrm-1180-1,wrm-1180,Riwka,2,1732,Jirmejahu Neustadt,,Neustadt,,Eisak,,,66,115,15
wrm-23-1,wrm-23,Schönlen,2,1381,Jecheskel Halevi,,,Halevi,,,,"84,5",115,16
wrm-23-2,wrm-23,Jedidja,1,1381,Jecheskel Halevi,,,Halevi,,,,"84,5",115,16
wrm-428-1,wrm-428,Natan,1,1419,Ascher,,,,,,,83,115,17
wrm-1220-1,wrm-1220,Dina Sorlen,2,1703,Meschulam Elieser Susman Brilin,,Brilin,,Jair Chaijim Bacharach,,,76,116,12
wrm-1254-1,wrm-1254,David Elia,1,1685,Awraham „zum weißen Hahnen“,,,,,,,"82,3",116,"12,5"
wrm-989-1,wrm-989,Minkele,2,1711,Nate,,,,Menke Oppenheim,,,"72,4",116,"12,7"
wrm-555-1,wrm-555,Jaakow,1,1312,Mosche Hakohen,,,Hakohen,,,,58,116,17
wrm-665-1,wrm-665,David,1,1504,Jekutiel,,,,,,,103,116,27
wrm-665-2,wrm-665,Gluka,2,1504,Juda,,,,,,,103,116,27
wrm-448-1,wrm-448,Ephraim Gumprecht,1,1481,Eljakim,,,,,,,"70,5","116,5","19,5"
wrm-990-1,wrm-990,Brendele,2,1715,Eli,,,,Raphael Turlach,,,"79,2","116,8","11,4"
wrm-61-1,wrm-61,Schimon Wolf Oppenheim,1,1632,,,Oppenheim,,,,,"93,5",117,"20,5"
wrm-1115-1,wrm-1115,Fromet Blin,2,1705,Mosche Öttingen,,Öttingen,,Izek Blin (gest.),,,72,"117,5","11,6"
wrm-906-1,wrm-906,Riwka,2,1290,Jakar Hakohen,,,Hakohen,,,,"78,5","117,5",12
wrm-829-1,wrm-829,Juspa,1,1751,Falk Blin,,Blin,,,,,71,118,"10,5"
wrm-633-1,wrm-633,Jaakow,1,1386,David,,,,,,,91,118,15
wrm-917-1,wrm-917,Batschewa,2,1263,Schlomo,,,,,,,"68,2",118,"19,3"
wrm-1061-1,wrm-1061,?,1,1281,?,,,,,,,"85,3",118,25
wrm-556-1,wrm-556,Jehuda,1,1296,Schmuel Hakohen,,,Hakohen,,,,88,118,27
wrm-649-1,wrm-649,Channa,2,1418,Schmuel,,,,,,,90,119,17
wrm-649-2,wrm-649,Elieser,1,1418,Schmuel,,,,,,,90,119,17
wrm-1182-1,wrm-1182,Jehuda Liwia,1,1738,Natan,,,,,,,58,"119,5","8,5"
wrm-1048-1,wrm-1048,Baruch Schimon Wolf,1,1722,Izek Speyer,,Speyer,,,,,"77,1","119,7","13,8"
wrm-245-1,wrm-245,Tirza Nass,2,1752,Wolf Unna aus Hanau,,Unna aus Hanau,,Salman Nass,,,"59,7",120,8
wrm-614-1,wrm-614,Ascher,1,1319,Mosche,,,,,,,83,120,11
wrm-1207-1,wrm-1207,Schmuel,1,1541,Jaakow Günzburg Halevi,,Günzburg,Halevi,,,,91,120,15
wrm-1260-1,wrm-1260,Sara Gnendlen,2,1664,Uri Schraga Segal,,,Segal,Anschel Oppenheim,,,69,"120,5","12,5"
wrm-1019-1,wrm-1019,Fromet,2,1667,Aharon Elsus,,Elsus,,Mattatia,,,"79,7",121,"10,5"
wrm-760-1,wrm-760,Elijahu,1,1666,Jizchak Elsus,,Elsus,,,,,68,121,12
wrm-840-2,wrm-840,Sara,2,1375,Awraham,,,,,,,106,121,16
wrm-840-1,wrm-840,Mina,2,1377,Jizchak,,,,Awraham,,,106,121,16
wrm-6-1,wrm-6,Röslen,2,1580,Todros,,,,Awraham Blin,,,94,121,"18,5"
wrm-982-1,wrm-982,Rechlen,2,1649,David Joel,,,,Awraham Oppenheim,,,85,121,11
wrm-1021-1,wrm-1021,Rechle,2,1749,,,,,Jokew Segal,,,"86,5",122,"14,2"
wrm-765-1,wrm-765,Fradle,2,1758,Mattitj(ahu),,,,Sinai Loans,,,65,123,10
wrm-1049-1,wrm-1049,Henle,2,1735,Izek Hammelburg,,Hammelburg,,Wolf Oppenheim,,,70,123,"10,7"
wrm-59-1,wrm-59,Jutlen,2,1561,Schimon,,,,Liva Kallstadt,,,95,123,15
wrm-804-1,wrm-804,Jochewed,2,1375,Elchanan Halevi,,,Halevi,,,,63,123,26
wrm-839-1,wrm-839,Awraham,1,1593,Jaakow,,,,,,,57,124,12
wrm-976-1,wrm-976,Jaakow,1,1686,Aharon,,,,,,,55,124,13
wrm-1256-1,wrm-1256,Feiwesch Osthoven,1,1640,Mosche(?),,,,,,,111,125,15
wrm-21-1,wrm-21,Sanvil Schmuel,1,1630,Schimon Ginzburg,,Ginzburg,,,,,80,125,16
wrm-1275-1,wrm-1275,Awigail Vagel,2,1624,Amazja Schlomo Neuburg,,Neuburg,,,,,"83,5",125,50
wrm-705-1,wrm-705,Tolz,2,1500,Josel(?),,,,,,,122,"125,5","10,5"
wrm-1237-1,wrm-1237,Menachem Mendel,1,1731,Schlomo Salman Rothschild,,Rothschild,,,,,69,126,"11,5"
wrm-1263-1,wrm-1263,Jehuda Löb,1,1719,Ascher Anschel Oppenheim,,Oppenheim,,,,,"85,5",126,14
wrm-930-1,wrm-930,Jente,2,1296,Mosche aus Oppenheim,,aus Oppenheim,,,,,89,126,17
wrm-63-1,wrm-63,Reizchen,2,1583,Juda Kallstadt Hakohen,,Kallstadt,Hakohen,,,,60,126,19
wrm-1231-1,wrm-1231,Telzle,2,1714,Meir Wertheim,,Wertheim,,,,,"70,7","126,5","10,5"
wrm-332-1,wrm-332,Leser,1,1712,Mosche Meir Oppenheim ,,Oppenheim,,,,,63,127,"10,7"
wrm-512-1,wrm-512,Jekutiel Salman,1,1309,Eljakim Halevi,,,Halevi,,,,68,127,14
wrm-961-1,wrm-961,Schlomo,1,1666,Jaakow Oppenheim,,Oppenheim,,,,,"76,5","127,5",12
wrm-936-1,wrm-936,David,1,1314,Menachem,,,,,,,78,128,10
wrm-454-1,wrm-454,Jizchak,1,1454,Elia von den Söhnen Rechawjas,,,,,,,"77,5",128,12
wrm-988-1,wrm-988,Reinchen,2,1709,Aharon Mosche Jizchak Lorsch,,,,,,,"67,5",128,"12,7"
wrm-1219-1,wrm-1219,Schimon Jair Chajim,1,1702,Mosche Schimschon Bacharach,Schmuel,Bacharach,,,,,84,128,13
wrm-1011-1,wrm-1011,Jaakow,1,1740,Schmuel Turlach,,Turlach,,,,,"67,3",128,"13,2"
wrm-756-1,wrm-756,Baruch,1,1423,Jechiel,,,,,,,97,128,14
wrm-1066-1,wrm-1066,Awraham,1,1266,Menachem,,,,,,,"72,7",128,"17,7"
wrm-1165-1,wrm-1165,Mosche,1,1710,Mosche David,,,,,,,"72,7","128,5","10,3"
wrm-800-1,wrm-800,Aharon,1,1670,Jecheskel Elijahu,,,,,,,"86,5",129,9
wrm-262-1,wrm-262,Jizchak (Izek),1,1665,Aharon Blin,,Blin,,,,,96,129,"11,7"
wrm-262-2,wrm-262,Aharon,1,1665,Jizchak (Izek) Blin,,Blin,,,,,96,129,"11,7"
wrm-262-3,wrm-262,Awraham,1,1665,Jizchak (Izek) Blin,,Blin,,,,,96,129,"11,7"
wrm-73-1,wrm-73,Mosche Schimon,1,1582,Juda Kallstadt Hakohen,,Kallstadt,Hakohen,,,,85,129,"15,5"
wrm-973-1,wrm-973,Nucha,2,1683,Juda Wolf,,,,Mosche Segal Öttingen,,,68,"129,5",11
wrm-1118-1,wrm-1118,Chajele,2,1712,Schmuel Sanvil,,,,Jehuda Löb,,,"81,7","129,5",11
wrm-1223-1,wrm-1223,Mosche Schimschon,1,1670,Schmuel Bacharach,,Bacharach,,,,1053047231,85,"129,5",13
wrm-13-1,wrm-13,Schneor Salman,1,1666,Menachem Mendlen Wallerstein,,Wallerstein,,,,,81,130,13
wrm-34-1,wrm-34,Mosche Jaakow,1,1572,Schmuel Ginzburg Segal,,Ginzburg Segal,,,,,96,130,14
wrm-1226-1,wrm-1226,Jehoscha Eberl,1,1659,Schlomo,,,,,,,96,130,14
wrm-921-1,wrm-921,Jaakow,1,1281,Schmuel,,,,,,,"85,5",130,"16,5"
wrm-1014-1,wrm-1014,Sara Sorlen,2,1670,Aharon Blin,,Blin,,Aberlen,,,"86,4","130,7","11,1"
wrm-1232-1,wrm-1232,Vromet,2,1728,Meir Igersheim,,Igersheim,,Meir Wertheim,,,71,131,10
wrm-1199-1,wrm-1199,Dov Beer Horowitz,1,1755,Jehuda Halevi,Zwi Hirsch Halevi,Horowitz,Halevi,,,,70,132,"10,5"
wrm-1128-1,wrm-1128,Henlen ,2,1699,Mosche Ettingen,,Ettingen,Kohen,Schimon Kohen,,,"80,5",132,11
wrm-822-1,wrm-822,Josef,1,1323,Mosche,,,,,,,81,132,13
wrm-20-1,wrm-20,Hinlen,2,1666,Schimon Wolf Oppenheim,,Oppenheim,,,,,"81,5",132,13
wrm-44-1,wrm-44,Mendlen (Mendel),1,1635,Schimon Oppenheim,,Oppenheim,,,,,93,133,"14,5"
wrm-1050-1,wrm-1050,Hendlen,2,1684,Schimon Wolf Oppenheim,,Oppenheim,,Awraham Schweiz(?),,,"72,3",134,"11,3"
wrm-571-1,wrm-571,Michael,1,1749,Schmuel Sanvel Gernsheim,,Gernsheim,,,,,"70,5",134,"11,5"
wrm-39-1,wrm-39,Vöglen,2,1661,Jechiel Oppenheim,,Oppenheim,,,,,"87,5",134,"14,5"
wrm-406-1,wrm-406,Rachel,2,1318,Mosche Hakohen,,,Hakohen,,,,75,135,20
wrm-629-1,wrm-629,Jissachar,1,1667,Mosche David,,,,,,,"87,5","136,5","11,5"
wrm-1164-1,wrm-1164,Elischa Meir,1,1666,Mosche,,,,,,,"76,3","138,5","12,5"
wrm-1261-1,wrm-1261,Anschel (Ascher),1,1667,Schimon Oppenheim „zum Wolf“,,Oppenheim,,,,,87,139,"11,2"
wrm-25-1,wrm-25,Hindele(n),2,1611,Leser Sierberg?,,Sierberg?,,Sanvil ...?,,,"96,5",140,"14,5"
wrm-790-1,wrm-790,Josef,1,1354,Jaakow aus Meiningen,,,,,,,87,140,15
wrm-625-2,wrm-625,Sorlen,2,1389,El(asar?),,,,,,,112,141,19
wrm-625-1,wrm-625,Meir,1,1390,Jizchak,,,,,,,112,141,19
wrm-1236-1,wrm-1236,Zwi Hirsch,1,1778,Selig Auerbach,,Auerbach aus Brod,,,,,80,142,"14,5"
wrm-1183-1,wrm-1183,Aharon,1,1555,Mosche Schlackenwert,,Schlackenwert,,,,,96,142,"16,5"
wrm-46-1,wrm-46,Eisak (Jizchak),1,1592,Jisrael Günzburg Levi,,Günzburg,Levi,,,,"116,5","142,5",18
wrm-43-2,wrm-43,Jaakow,1,1341,Jizchak Halevi,,,Halevi,,,,90,143,18
wrm-43-1,wrm-43,Josef,1,1343,Jaakow Halevi,,,Halevi,,,,90,143,18
wrm-1197-1,wrm-1197,Netanel,1,1669,Chajim Dirmstein,,Dirmstein,,,,,"94,5",144,12
wrm-1040-1,wrm-1040,Schimon Wolf,1,1710,Jissachar Beer Oppenheim,,Beer Oppenheim,,,,,"96,3","145,5","11,4"
wrm-1151-1,wrm-1151,Sussman Elieser,1,1603,Elia Blin,,Blin,,,,,"97,3","146,3",13
wrm-679-1,wrm-679,Edel,2,1593,Jaakow,,,,Liva,,,122,"146,5",15
wrm-1234-1,wrm-1234,Meir,1,1724,Josel Wertheim,,Wertheim,,,,,"83,4",147,"10,5"
wrm-1018-1,wrm-1018,Dewora Bella,2,1669,Salme Schmuel Halevi,,,Halevi,Wolf,,,80,"147,7",13
wrm-1176-1,wrm-1176,Krönchen,2,1674,Chajim,,,,,,,"87,5",148,11
wrm-1233-1,wrm-1233,Josel (Josef),1,1713,? Wertheim,,Wertheim,,,,,100,"151,5",14
wrm-47-1,wrm-47,Tewlen David,1,1590,Jaakow Josef Zilch,,Zilch,,,,,"110,5","153,5","14,5"
wrm-979-1,wrm-979,Izek,1,1781,David Brilin,,Brilin,,,,,"56,5",154,7
wrm-1024-1,wrm-1024,Jissachar,1,1686,Todros Beer Oppenheim,,Beer Oppenheim,,,,,"164,9","157,5","16,3"
wrm-1024-2,wrm-1024,Telzchen,2,1686,Awraham Oppenheim,,Oppenheim,,Jissachar Beer Oppenheim,,,"164,9","157,5","16,3"
wrm-539-1,wrm-539,Elieser,,1400,Schmuel,,,,,,,110,158,"22,5"
wrm-1235-1,wrm-1235,Jaakow Jizchak Adler Hakohen,1,1822,,,Adler,Hakohen,,,,"52,7",163,"26,5"
wrm-327-1,wrm-327,Leser Mordechai,1,1751,Leser Weinheim,,Weinheim,,,,,"83,5",106,10
wrm-327-2,wrm-327,Merle Weinheim,2,1757,Mosche Worms,,Weinheim,,Leser Mordechai,,,"83,5",106,10
wrm-1205-1,wrm-1205,Hindlen,2,1580,Awraham,,,,Menachem,,,"81,5","114,5","13,5"
wrm-1262-1,wrm-1262,Lea,2,1702,Mosche Schimschon,,,,?,,,69,51,"10,5"
wrm-1222-1,wrm-1222,Schmuel,1,1546,Elasar,,,,,,,88,59,18
wrm-1252-1,wrm-1252,Figa (Phega),2,1666,Jona,,,,"Mosche KaZ (gest.), Schimschon Bacharach",,,62,72,11
