english,german
abalone,Abalone
achiote,Achiote
acid,sauer
acorn,Eichel
adobada,adobada
adzuki bean,Adzukibohne
afghan bread,afghanisches Brot
agar,Agar
agaricus bisporus,Agaricus bisporus
agastache rugosa,Agastache rugosa
aguardente,aguardente
aji pepper,Aji-Pfeffer
alaska pollock,Alaska-Seelachs
albacore,albacore
alchermes,alchermes
alkali,Alkali
allspice,Piment
almond flavoring,Mandel-Aroma
almond flour,Mandelmehl
almond meal,Mandelmehl
almond milk,Mandelmilch
almond paste,Mandelpaste
almond powder,Mandelpulver
almonds,Mandeln
amaranth,Amaranth
amaretto,Amaretto
amba (condiment),amba (Gewürz)
ammonium carbonate,Ammoniumcarbonat
anchovies,Sardellen
anchovy,Sardellen
angelica sinensis,Angelika Sinensis
animal fat,Tierfett
anise seed,Anissamen
annatto,annatto
anís (liqueur),anís (Likör)
apple,Apfel
apple cider,Apfelwein
apricot jam,aprikosenmarmelade
arctium lappa,Arctium lappa
arepa,arepa
arrack,Arrak
arrowroot,Pfeilwurz
artichoke,Artischocke
artificial flavoring,künstliche Aromastoffe
artificial sweetener,künstlicher Süßstoff
arugula,Rucola
asparagus,Spargel
aspergillus oryzae,Aspergillus oryzae
astrocaryum vulgare,Astrocaryum vulgare
atsuete,atsuete
atta flour,Atta-Mehl
au jus,au jus
aubergine,Aubergine
auricularia auricula-judae,auricularia auricula-judae
avocado,Avocado
azuki,azuki
azuki bean,Azukibohne
back bacon,Rückenspeck
bacon,Speck
bacteria,Bakterien
bagel,Bagel
baguette,Baguette
bajri,Bajri
baker's yeast,Bäckerhefe
bakers' yeast,Bäckerhefe
baking powder,Backpulver
baking soda,Backnatron
bakso,bakso
bamboo shoot,Bambussprosse
banana leaf,Bananenblatt
bananas,Bananen
barbecue sauce,Barbecue-Sauce
barley,Gerste
barley flour,Gerstenmehl
barley malt syrup,Gerstenmalzsirup
barm,Gerste
base (chemistry),Base (Chemie)
basil,basmati
basmati,basmati
basmati rice,basmati reis
batata,batata
batter (cooking),Teig (Kochen)
bay leaf,Lorbeerblatt
bean curd,Bohnenquark
bean jam,Bohnenmarmelade
bean sprouts,Bohnensprossen
beans,Bohnen
bechamel sauce,Bechamelsoße
bee hoon,Bohnenhoon
beef,Rindfleisch
beer,Bier
beeswax,Bienenwachs
beet,Rübe
beet root,Rübenwurzel
belachan,belachan
bell peppers,Paprika
bengal gram,Bengal-Gram
beni shoga,Beni Shoga
bergamot orange,Bergamotte-Orange
berries,Beeren
berry,Beeren
besan,Besan
beurre noisette,beurre noisette
beyaz peynir,beyaz peynir
biga (bread baking),biga (Brotbacken)
bilberry,Heidelbeere
billfish,Billfisch
bird's eye chili,Vogelaugen-Chili
biscuit,biskuit
biscuit (bread),Biskuit (Brot)
bisque,Biskuit
bitter almond,Bittermandel
bitter gourd,Bitterkürbis
bitter melon,Bittermelone
black cherry,Schwarze Kirsche
black currant,Schwarze Johannisbeere
black gram,Schwarze Kichererbse
black lime,Schwarzkalk
black maple,Schwarzer Ahorn
black olive,schwarze Olive
black peas,schwarze Erbsen
black pepper,schwarzer Pfeffer
black pudding,Blutwurst
black tea,Schwarzer Tee
black-eyed peas,schwarzäugige Erbsen
blood,Blut
blood as food,Blut als Nahrungsmittel
blood cockle,Blutmuschel
blue cheese,Blauschimmelkäse
blue corn,Blaumais
bockwurst,Bockwurst
boiling water,kochendes Wasser
bok choy,Bok Choy
bolillo,Bolillo
bologna sausage,Bologna-Wurst
bone marrow,Knochenmark
borlotti bean,Borlotti-Bohne
borș (bran),borș (Kleie)
bottle gourd,Flaschenkürbis
bouillon (broth),Bouillon (Brühe)
bouillon cube,Brühwürfel
bouquet garni,Bouquet garni
bourbon whiskey,Bourbon-Whiskey
brain,Gehirn
brandy,Weinbrand
branston,Branston
bratwurst,Bratwurst
bread crumbs,Semmelbrösel
bread roll,Brötchen
breadfruit,Brotfrucht
breading,Panade
brine,Salzlake
brinjal,Brinjal
brisket,Rinderbrust
brittle,Krokant
broad bean,Saubohne
broccoli,Brokkoli
broomcorn millet,Besenreiser Hirse
broth,Brühe
brown bread,Schwarzbrot
brown gravy,braune Soße
brown sauce,braune Soße
brown sauce (meat stock based),braune Soße (auf Fleischbrühebasis)
brown sugar,brauner Zucker
brussels sprout,Rosenkohl
buckwheat,Buchweizen
buckwheat flour,Buchweizenmehl
buffalo meat,Büffelfleisch
bulgur,Bulgur
bull penis,Stierpenis
bun,Brötchen
buns,Brötchen
burdock,Klette
burger bun,Burgerbrötchen
burgundy wine,Burgunderwein
butter cake,Butterkuchen
butter cream,Buttercreme
buttermilk,Buttermilch
button mushroom,Champignon
bánh tráng,bánh tráng
cabbage,Kraut
cake,Kuchen
cake decorating,Kuchendekoration
calamansi,Calamansi
calamari,Calamari
calcium stearate,Calciumstearat
callinectes sapidus,Callinectes sapidus
camembert (cheese),Camembert (Käse)
canapé,Canapé
candied fruit,kandierte Früchte
candied peel,kandierte Schale
candlenut,Kandelnuss
cane sugar,Rohrzucker
canjica,canjica
canna (plant),canna (Pflanze)
cannabinoid,Cannabinoid
cannellini beans,Cannellini-Bohnen
canola oil,Rapsöl
cantaloupe,Cantaloupe
caper,Kapern
capon,Kapaun
capsicum annuum,Paprika annuum
caramel,Karamell
caraway,Kümmel
caraway seed,Kümmel
carbonated water,kohlensäurehaltiges Wasser
cardamom,Kardamom
carnauba wax,Carnaubawachs
carne asada,Carne Asada
carob gum,Johannisbrotkernmehl
carom seeds,Karom-Samen
carp,Karpfen
carrots,Karotten
cartilage,Knorpel
cashew nut,Cashewnuss
cassareep,Kassareep
cassava,Maniok
catfish,Wels
caul fat,Blumenkohlfett
cauliflower,Blumenkohl
caviar,Kaviar
cayenne pepper,Cayennepfeffer
celery,Staudensellerie
celery salt,Staudenselleriesalz
cellophane noodles,Zellophan-Nudeln
celosia,Celosia
cement,Zement
cephalopod ink,Kopffüßer-Tinte
cereal germ,Getreidekeim
champagne (wine),Champagner (Wein)
champon,champon
chana dal,Chana dal
chanachur,chanachur
chancaca,chancaca
chantilly cream,Chantilly-Creme
chard,Mangold
chayote,Chayote
cheddar cheese,Cheddar-Käse
cheddar sauce,Cheddarsauce
cheese curds,Käsequark
cheese sandwich,Käse-Sandwich
chenna,chenna
cherries,Kirschen
cherry,Kirsche
cherry plum,Kirschpflaume
chervil,Kerbel
chestnuts,Esskastanien
chhena,chhena
chiboust cream,Chiboust-Creme
chicago-style relish,Relish nach Chicagoer Art
chicharon,chicharon
chicharrón,chicharrón
chicken,Huhn
chickpea,Kichererbse
chickpea flour,Kichererbsenmehl
chile powder,Chilipulver
chili con carne,Chili con Carne
chili peppers,Chili-Paprika
chili sauce,Chilisauce
chillies,Chilis
chinese black mushroom,chinesischer schwarzer Pilz
chinese cabbage,Chinakohl
chinese lettuce,chinesischer Kopfsalat
chinese noodles,chinesische Nudeln
chinese sausage,chinesische Wurst
chipolata,Chipolata
chives,Schnittlauch
chocolate confectionery,Schokoladenkonfekt
chocolate ice cream,Schokoladeneis
chocolate liquor,Schokoladenlikör
chocolate sauce,Schokoladensoße
chocolate syrup,Schokoladensirup
chondrus crispus,Chondrus crispus
chorizo,Chorizo
choux pastry,Brandteig
chowder,Chowder
christmas pudding,weihnachtspudding
churrasco,Churrasco
chutney,Chutney
chuño,Chuño
cider,Apfelwein
cilantro,Koriander
cinnamon,Zimt
cinnamon sugar,Zimtzucker
ciorbă,ciorbă
citric acid,Zitronensäure
citrus zest,Zitrusschalen
clam,Muschel
clarified butter,Butterschmalz
clostridium perfringens,Clostridium perfringens
clotted cream,Schlagsahne
cloudberry,Moltebeeren
cloves,Nelken
cluster beans,Stangenbohnen
coca-cola,Coca-Cola
cocoa bean,Kakaobohne
cocoa butter,Kakaobutter
cocoa powder,Kakaopulver
cocoa solids,Kakao-Feststoffe
coconut milk,Kokosnussmilch
cod,Kabeljau
coffee,Kaffee
coffee powder,Kaffeepulver
cold cuts,Aufschnitt
cole slaw,Krautsalat
collard greens,Grünkohl
colostrum,Kolostrum
common beans,Stangenbohnen
common fig,Gewöhnliche Feige
common pheasant,Gemeiner Fasan
common sage,Gemeiner Salbei
compound chocolate,Verbundschokolade
comté cheese,Comté-Käse
conch,Muschel
condiment,Gewürz
confiture,Konfitüre
congeal,Konfitüre
cookie,Keks
cookie dough,Keksteig
cooking oil,Speiseöl
cool whip,Kühlpeitsche
coregonus albula,Coregonus albula
coriander,Koriander
corn chip,Mais-Chip
corn flakes,Maisflocken
corn kernels,Maiskörner
corn meal,Maismehl
corn oil,Maisöl
corn starch,Maisstärke
corn syrup,Maissirup
corn tortilla,Mais-Tortilla
cotechino,Cotechino
cottage cheese,Hüttenkäse
cow's trotters,Kuhfüßchen
cowpea,Kuh-Erbsen
cow’s milk,Kuhmilch
crab,Krabbe
crab meat,Krabbenfleisch
crab stick,Krabbenstange
cracker,Cracker
cranberry,Cranberry
crayfish,Krabbenfleisch
cream cheese,Frischkäse
cream of mushroom soup,Champignoncremesuppe
cream of tartar,Weinsteincreme
cream puffs,Windbeutel
creamed corn,Maiscreme
crocus,Krokus
crouton,Crouton
crudites,Krustentiere
crustacean,Krustentiere
crème anglaise,Crème anglaise
crème de cassis,Crème de Cassis
crème fraîche,Crème fraîche
crème pâtissière,Crème pâtissière
crêpe,Crêpe
cuban bread,kubanisches Brot
cubanelle,cubanelle
cucurbita ficifolia,Cucurbita ficifolia
cumian,kumianisch
cumin,Kreuzkümmel
cumin seed,Kreuzkümmelsamen
curaçao (liqueur),curaçao (Likör)
curd,Quark
cured fish,gepökelter Fisch
cured meat,gepökeltes Fleisch
curing (food preservation),Pökeln (Lebensmittelkonservierung)
curry,Curry
curry leaves,Curryblätter
curry powder,Currypulver
custard,Pudding
custard powder,Puddingpulver
cutlet,Kotelett
cuttlefish,Tintenfisch
cymbopogon,Cymbopogon
daikon,Daikon
dairy product,Molkereiprodukt
dal,Kalbfleisch
damson plum,Zwetschge
dandelion,Löwenzahn
dark rum,dunkler Rum
dark soy sauce,dunkle Sojasauce
dashi,Dashi
deep fried,frittiert
denver,denver
desiccated coconut,getrocknete Kokosnuss
desiccation,Exsikkation
dessert wine,Dessertwein
dianthus caryophyllus,Dianthus caryophyllus
dill,Dill
dip,Dip
distilled beverage,destilliertes Getränk
ditalini,ditalini
doenjang,Doenjang
dog meat,Hundefleisch
domestic sheep,Hausschaf
doner kebab,Dönerkebab
dough,Teig
dried fish,getrockneter Fisch
dried fruits,getrocknete Früchte
dried lime,getrocknete Limette
dried scallop,getrocknete Jakobsmuschel
dried shredded squid,getrockneter geschredderter Tintenfisch
dried shrimp,getrocknete Garnele
dripping,getrocknete
drumstick (poultry),Trommelstock (Geflügel)
drying,getrocknet
dubu,dubu
duck,Ente
dulce de leche,Dulce de leche
dumpling,Knödel
durian,durian
durum,durum
dutch process chocolate,holländische Prozessschokolade
döner kebab,Döner Kebab
eddoe,eddoe
edible flowers,essbare Blumen
edible mushroom,Speisepilz
edible oil,Speiseöl
edible salt,Speisesalz
egg,Ei
eleocharis dulcis,Eleocharis dulcis
elettaria,Elettaria
emmental cheese,Emmentaler Käse
endive,Endivie
english muffin,englischer Muffin
erythrina fusca,Erythrina fusca
escarole,escarole
espelette pepper,Piment d'espelette
espresso,Espresso
essential oil,ätherisches Öl
european conger,Europäischer Meeraal
european cornel,Europäischer Hornhecht
european perch,Europäischer Barsch
evaporated milk,evaporierte Milch
ewedu,ewedu
extract,Auszug
extrawurst,extrawurst
falafel,falafel
farina,farina
fat,Fett
fava bean,Favabohne
fennel,Fenchel
fenugreek,Bockshornklee
fermentation starter,Fermentationsstarter
fermented bean paste,fermentierte Bohnenpaste
fermented milk,fermentierte Milch
fern,Farn
feta,Feta
fettuccine,fettuccine
fiambre,fiambre
field bean,Ackerbohne
field pea,Ackererbse
filo,Filo
filé powder,Filé-Pulver
fish,Fisch
fish cake,Fischkuchen
fish paste,Fischpaste
fish sauce,Fischsauce
fish stock,Fischfond
five spice,Fünf Gewürze
five-spice powder,Fünf-Gewürze-Pulver
flaky pastry,Blätterteig
flan,Torte
flatbread,Fladenbrot
flavouring,Gewürz
flaxseed,Leinsamen
flour,Mehl
flour tortilla (mexico),Mehltortilla (mexikanisch)
focaccia,Focaccia
fondant icing,Fondant-Glasur
food colouring,Lebensmittelfarbe
food grain,Lebensmittelkorn
food preservation,Lebensmittelkonservierung
fowl,Federvieh
foxtail millet,Fuchsschwanzhirse
frangipane,Frangipane
french beans,Puffbohnen
french fries,Pommes frites
fried onion,Röstzwiebel
frikadeller,frikadeller
fromage frais,Frischkäse
fructose,Fruchtzucker
fruit,Obst
fruit juice,Fruchtsaft
fruit preserves,Fruchtkonserven
galangal,Galgant
game,Wild
game bird,Wildbret
ganache,Ganache
garaetteok,Garaetteok
garam masala,Garam Masala
garbanzo,Kichererbse
garden pea,Gartenerbse
garden strawberry,Gartenerdbeere
gardenia jasminoides,Gardenie jasminoides
garlic,Knoblauch
garlic butter,Knoblauchbutter
garlic chives,Knoblauch-Schnittlauch
garlic powder,Knoblauchpulver
gelatine,Gelatine
gelato,Gelatine
genoise,Genoise
ghee,Ghee
gherkin,Gewürzgurke
gianduja (chocolate),gianduja (Schokolade)
gim (korean food),gim (koreanisches Essen)
ginger,Ingwer
ginger root,Ingwerwurzel
gingerbread,Lebkuchen
ginkgo biloba,Ginkgo biloba
ginseng,Ginseng
gizzard,Muskelmagen
glace cherry,Glacé-Kirsche
glacé cherries,Glacé-Kirschen
glasswort,Glaskraut
glaze (cooking technique),Glasur (Kochtechnik)
glucose,Traubenzucker
glucose syrup,Glukosesirup
gluten,Gluten
glutinous rice flour,Klebreis-Mehl
glycerine,Glyzerin
gnaphalium affine,Gnaphalium-Affinität
goat,Ziege
goat cheese,Ziegenkäse
goat meat,Ziegenfleisch
gochujang,gochujang
goiabada,goiabada
golden raisin,goldene Rosine
golden syrup,goldener Sirup
goose,Gans
gouda cheese,Gouda-Käse
gourd,Flaschenkürbis
graham cracker crust,Graham-Cracker-Kruste
grain,Getreide
grain alcohol,Getreidealkohol
gram flour,Kichererbsenmehl
grand marnier,Grand Marnier
granny smith,Granny Smith
granola,Müsli
granulated sugar,Kristallzucker
grape seed oil,Traubenkernöl
grass jelly,Griesgelee
grated cheese,geriebener Käse
grater,Reibe
gravy,Bratensoße
green,grün
green algae,Grünalgen
green bean,grüne Bohne
green chile,grüner Chili
green gram,grünes Gramm
green peas,grüne Erbsen
gribenes,gribenes
grilled,gegrillt
groats,Grütze
ground almond,gemahlene Mandel
ground meat,Hackfleisch
ground pork,Schweinehackfleisch
groundnut oil,Erdnussöl
gruyère (cheese),Gruyère (Käse)
guacamole,Guacamole
guanciale,Guanciale
guava,Guave
gula melaka,Gula Melaka
gum arabic,Gummiarabikum
gummy candy,Gummibonbon
gyūhi,gyūhi
habanero,Habanero
ham,Schinken
ham (meat),Schinken (Fleisch)
ham hock,Schinkenkeule
hamburger,hamburger
hamburger patty,Hamburger-Patty
hard cheese,Hartkäse
hard tack,Hartriegel
hare,Hase
harissa,Harissa
hash browns,Rösti
hazelnut,Haselnuss
head,Kopf
heart,Herz
heavy cream,Schlagsahne
herbes de provence,herbes de provence
herbs,Kräuter
herring,Hering
high fructose corn syrup,Maissirup mit hohem Fruktosegehalt
hilsa,hilsa
hogao,hogao
hoisin sauce,Hoisin-Sauce
hollandaise sauce,Hollandaise-Sauce
holy basil,heiliges Basilikum
hominy,Maismehl
honey,Honig
honeydew (melon),Honigtau (Melone)
horseradish tree,Meerrettich
hot dog,Hotdog
hot dog bun,Hot-Dog-Brötchen
hot fudge,heißes Karamell
hot pepper,scharfer Pfeffer
hot sauce,scharfe Soße
hot water crust pastry,heißes Wasser Kruste Gebäck
huangjiu,huangjiu
hummus,Hummus
hydrogenated vegetable oil,hydriertes Pflanzenöl
ice,Eis
ice cream,Eiscreme
iceberg lettuce,Eisbergsalat
iced milk,Eismilch
icing,Puderzucker
icing sugar,Puderzucker
indian corn,indischer Mais
intestine,Darm
invert sugar,Invertzucker
invertase,Invertase
ipomoea aquatica,Ipomoea aquatica
isomalt,Isomalt
isomaltooligosaccharide,Isomaltooligosaccharid
isomaltulose,Isomaltulose
israeli salad,israelischer Salat
jackfruit,Jackfrucht
jaggery,Jaggery
jalapeño,Jalapeño
jam,Marmelade
jameed,jameed
jamón serrano,jamón serrano
japanese curry,japanisches Curry
jeera,jeera
jeerakasala,jeerakasala
jelly (fruit preserves),Gelee (Fruchtkonserven)
jeon,jeon
jeonyueo,jeonyueo
jicama,jicama
jinhua ham,Jinhua-Schinken
job's tears,job's tears
jocheong,jocheong
juglans regia,Juglans regia
jujube,Jujube
juniper berry,wacholderbeere
kaempferia galanga,kaempferia galanga
kaffir lime,Kaffernlimette
kailan,kailan
kaima,kaima
kaiser roll,Kaiserröllchen
kala namak,kala namak
kale,Grünkohl
kalpasi,kalpasi
kamaboko,kamaboko
kamut,Kamut
kasha,kasha
katsuobushi,katsuobushi
kaymak,kaymak
kecap manis,kecap manis
kelp,Seetang
ketchup,Ketchup
ketupat,ketupat
key lime,Limette
khoa,khoa
kholodets (dish),kholodets (Gericht)
khoya,khoya
kidney,Niere
kidney bean,Kidneybohne
kielbasa,kielbasa
kimchi,Kimchi
kipper,Bückling
kiribath,kiribath
kirsch,kirsch
kirschwasser,kirschwasser
knackwurst,Knackwurst
kohlrabi,Kohlrabi
kombu,kombu
konjac,Konjak
kosher dill pickle,koschere Dillgurke
kroeung,Kröung
krupuk,krupuk
kvass,kvass
ladyfinger (biscuit),Löffelbiskuit (Keks)
ladyfinger (cookie),Löffelbiskuit (Keks)
lagane,lagane
lamb,Lammfleisch
lamb and mutton,Lamm- und Hammelfleisch
lamiaceae,lamiaceae
lard,Schmalz
lardon,lardon
lathyrus aphaca,Lathyrus aphaca
lathyrus sativus,lathyrus sativus
leafy greens,Blattgemüse
leavening,Sauerteig
leavening agent,Backtriebmittel
lebkuchen,Lebkuchen
leek,Lauch
legume,Hülsenfrucht
lemon,Zitrone
lemon curd,Zitronenquark
lemon grass,Zitronengras
lemon juice,Zitronensaft
lemon peel,Zitronenschale
lemon zest,Zitronenschale
lentils,Linsen
lesser calamint,Kleine Kalmus
lettuce,Kopfsalat
lima bean,Limabohne
lime (fruit),Limette (Frucht)
lime juice,Limettensaft
limu (algae),Limu (Alge)
linguiça,Linguiça
lipid,Lipid
liqueur,Likör
liquid,flüssig
liquorice,Lakritz
list of edible seeds,Liste der essbaren Samen
list of indian spices,Liste der indischen Gewürze
liver,Leber
lobster,Hummer
long beans,lange Bohnen
longan,longan
longaniza,longaniza
lontong,lontong
lotus root,Lotoswurzel
lotus seed,Lotussamen
lotus seed paste,lotussamenpaste
louis dressing,louis dressing
lung,Lunge
lutjanus,lutjanus
lye,Lauge
macadamia nut,Macadamianuss
macaroni,Makkaroni
mace (spice),Muskatblüte (Gewürz)
machaca,machaca
mackerel,Makrele
madeira wine,Madeira-Wein
maida flour,Maismehl
maize,Mais
maizena,maizena
malai,malai
malic acid,Apfelsäure
malt,Malz
malt biscuit,Malzkeks
malt extract,Malzextrakt
malted,gemälzt
maltodextrin,Maltodextrin
maltose,Maltose
mandarin orange,Mandarine-Orange
mango,Mango
manioc,Maniok
manjar blanco,Manjar blanco
maple syrup,Ahornsirup
maraschino cherries,Maraschino-Kirschen
margarine,Margarine
margerine,Margerine
marie biscuit,marie keks
marinade,Marinade
marjoram,Majoran
marmalade,Marmelade
marshmallow creme,Marshmallow-Creme
marzipan,Marzipan
masa,Masa
masa harina,Masa harina
mascarpone,Mascarpone
mashed potato,Kartoffelpüree
mastic (plant resin),Mastix (Pflanzenharz)
matoke,Matoke
matzah meal,Matze-Mehl
mayonnaise,Mayonnaise
meat floss,Fleischwatte
meat pie,Fleischpastete
meatball,Frikadelle
meats,Fleisch
melilotus,Steinklee
melinjo,melinjo
mentha,Mentha
meringue,Baiser
milk,Milch
milk solids,Milchtrockenmasse
millet,Hirse
milo (drink),Hirse (Getränk)
mince meat,Hackfleisch
mincing,Hackfleisch
mint leaves,Minzblätter
mint sauce,Minzsauce
mirepoix (cuisine),Mirepoix (Küche)
mirin,Mirin
miso,Miso
miso soup,Misosuppe
mixed spices,Gewürzmischung
mizithra,mizithra
mizuame,mizuame
mochi,Mochi
molasses,Melasse
mole (sauce),Maulwurf (Soße)
monosodium glutamate,Mononatriumglutamat
monterey jack,Monterey Jack
moong dal,moong dal
mornay sauce,Mornay-Sauce
morning glory,Morgenlatte
mortadella,Mortadella
moth bean,Mottenbohne
mother dough,Mutterteig
mousse,Mousse
mozzarella,Mozzarella
msemmen,msemmen
mung bean,Mungobohne
murături,murături
muscat (grape and wine),muscat (Traube und Wein)
muscovado sugar,Muscovado-Zucker
mush (maize),Mus (Mais)
mushrooms,Champignons
mushy peas,matschige Erbsen
muskmelon,Zuckermelone
mussel,Muschel
must,Senf
mustard (condiment),Senf (Gewürz)
mustard oil,Senföl
mustard plant,Senfpflanze
mustard seed,Senfsaat
mutton,Hammelfleisch
naan,Naan
napa cabbage,Napa-Kraut
natural gum,Naturkautschuk
navy bean,marinebohne
ndoleh,ndoleh
new england-style hot dog bun,Hot-Dog-Brötchen nach Neuengland-Art
ngapi,ngapi
niacin,Niacin
nib sugar,Nib-Zucker
niter kibbeh,Niter Kibbeh
niçoise salad,niçoise Salat
nokdumuk,nokdumuk
nonpareils,Nonpareilles
noodles,Nudeln
nori,Nori
nougat,Nougat
nut (fruit),Nuss (Frucht)
nutmeg,Muskatnuss
oat,Hafer
oats,Hafer
oaxaca cheese,Oaxaca-Käse
octopus,Oktopus
odeng,Odeng
offal,Innereien
ogbono,ogbono
oil,Öl
okra,Okra
okra leaf,Okra-Blatt
olive (fruit),Olive (Frucht)
olive oil,Olivenöl
olive salad,Olivensalat
olives,Oliven
omelette,Omelette
oncom,oncom
onion powder,Zwiebelpulver
onions,Zwiebeln
open sandwich,offenes Sandwich
opor ayam,opor ayam
orange (fruit),Orange (Frucht)
orange flower water,Orangenblütenwasser
orange juice,Orangensaft
orange zest,Orangenschale
oregano,Oregano
oreo,Oreo
oxtail,Ochsenschwanz
oyster,Auster
oyster sauce,Austernsauce
pain de campagne,Pain de Campagne
pak choi,Pak Choi
palm oil,Palmöl
palm sugar,Palmzucker
pancetta,Bauchspeck
pandanus,Pandanus
paneer,Paneer
pangium edule,Pangium edule
papaya,Papaya
papelón,papelón
paprika,Paprika
paracress,Parakresse
parmesan,Parmesan
parmesan cheese,Parmesan-Käse
parsley,Petersilie
parsley root,Petersilienwurzel
parsnip,Pastinake
pasta,Nudeln
paste,Pasta
pastrami,Pastrami
pastry,Gebäck
pastry cream,Gebäckcreme
patty,Pastete
pea,Erbse
pea protein,Erbsenprotein
peach,Pfirsich
peanut butter,Erdnussbutter
peanut oil,Erdnussöl
peanut sauce,Erdnuss-Sauce
pear,Birne
pearl barley,Perlgraupen
pearl onion,Perlzwiebel
pearl sago,Perlsago
pearl sugar,Perlzucker
peas,Erbsen
pecan,Pekannuss
pecorino,Pecorino
pecorino romano,Pecorino Romano
pecorino toscano,Pecorino Toscano
pectin,Pektin
peel (fruit),Schale (Obst)
pemmican,Pemmikan
penne,Penne
peperoncini,Peperoncini
pepita,Pepita
pepper sauce,Pfeffersauce
peppercorn,Pfefferkörner
peppermint,Pfefferminz
perilla,Perilla
perkedel,perkedel
persicaria bistorta,persicaria bistorta
persipan,Persipan
pheasant,Fasan
phloem,Phloem
phoenix dactylifera,phoenix dactylifera
phyllo,Phyllo
pickled bean curd,eingelegter Bohnenquark
pickled cucumber,Eingelegte Gurke
pickled meat,Eingelegtes Fleisch
pickled tofu,eingelegter Tofu
pico de gallo,Pico de Gallo
pie crust,Pastetenkruste
pig,Schwein
pig's ear,Schweinsohr
pig's trotters,Schweinsfüßchen
pigeon pea,Taubenerbse
piloncillo,Piloncillo
pimentos,Pimentos
pimiento,Pimiento
pine nuts,Pinienkerne
pineapple,Ananas
pinhead oats,Pinienkerne Hafer
piper sarmentosum,Piper sarmentosum
piri piri,Piri Piri
pirozhki,pirozhki
pissalat,pissalat
pistachio pudding,Pistazienpudding
pistachios,Pistazien
pita,Pita
pizza,pizza
plain flour,glattes Mehl
plantain (cooking),Wegerich (Kochen)
platano,platano
plums,Pflaumen
pollen,Blütenstaub
pomegranate juice,Granatapfelsaft
pomegranate molasses,Granatapfel-Melasse
pomelo,Pomelo
pomfret,Pomfret
popcorn,Popcorn
poppy seed,Mohn
pork,Schweinefleisch
pork and beans,Schweinefleisch und Bohnen
pork jelly,Schweinefleisch-Gelee
pork ribs,Schweinerippchen
pork rind,Schweineschwarte
pork shoulder,Schweineschulter
port,Portwein
port wine,Portwein
potassium bitartrate,Kaliumbitartrat
potassium carbonate,Kaliumcarbonat
potato chip,Kartoffelchip
potato starch,Kartoffelstärke
potatoes,Kartoffeln
potatoes of chiloé,Chiloé-Kartoffeln
potatos,kartoffeln
poultry,Geflügel
powdered milk,Milchpulver
powdered sugar,Puderzucker
prawns,Krabben
pre-ferment,vorfermentieren
preservatives,Konservierungsstoffe
processed cheese,Schmelzkäse
profiteroles,Profiteroles
proso millet,Rispenhirse
provolone,Provolone
prunes,Pflaumen
prunus cerasus,Prunus cerasus
psyllium,Psyllium
pudding,Pudding
puff pastry,Blätterteig
puffed rice,Puffreis
pulse (legume),Hülse (Hülsenfrucht)
pumpkin,Kürbis
punsch,Punsch
puri,puri
purée,Püree
pyrus pyrifolia,Pyrus pyrifolia
pâté,Pastete
quail,Wachtel
quark (cheese),Quark (Käse)
quark (dairy product),Quark (Molkereiprodukt)
quesadilla,Quesadilla
queso fresco,Queso Fresko
quince,Quitte
rabbit,Kaninchen
rabbit meat,Kaninchenfleisch
radish,Rettich
raising agent,Backtriebmittel
raisins,Rosinen
ras el hanout,ras el hanout
raspberry,Himbeere
reblochon,reblochon
red alga,Rotalge
red bean paste,rote Bohnenpaste
red maple,roter Ahorn
red onion,rote Zwiebel
red palm,rote Palme
red wine,Rotwein
redcurrants,rote Johannisbeeren
reed (plant),Schilf (Pflanze)
refried beans,gebratene Bohnen
reindeer,Rentier
remoulade,Remoulade
rempeyek,rempeyek
rendering (food processing),rendering (Lebensmittelverarbeitung)
rennet,Lab
rhubarb,Rhabarber
rib,Rippe
ribes,ribes
ribes rubrum,Ribes rubrum
rice,Reis
rice bean,Reisbohne
rice bran oil,Reiskleie-Öl
rice cake,Reiskuchen
rice crispies,Reis-Crispies
rice flour,Reismehl
rice noodles,Reisnudeln
rice paper,Reispapier
rice pudding,Reispudding
rice vermicelli,Reisfadennudeln
rice vinegar,Reisessig
rice wine,Reiswein
ricotta,Ricotta
rigatoni,Rigatoni
risotto,Risotto
rock candy,Kandiszucker
rock salt,Steinsalz
roe,Rogen
rohlík,rohlík
rolled oats,Haferflocken
romaine lettuce,Romana-Salat
romano cheese,Romano-Käse
root crop,Hackfrucht
roquefort,Roquefort
rose hip,Hagebutte
rose syrup,Rosensirup
rose water,Rosenwasser
rosemary,Rosmarin
roux,Mehlschwitze
rugbrød,Rugbrød
rum,Rum
rusk,Zwieback
russian dressing,Russisches Dressing
rutabaga,Steckrübe
rye,Roggen
rye (grain),Roggen (Getreide)
rye bread,Roggenbrot
saba banana,Saba-Banane
safflower oil,Färberdistelöl
saffron,Safran
sago,Sago
sake,Sake
salad dressing,Salatdressing
salad vegetable,Salatgemüse
salads,Salate
salami,Salami
salep,salep
salmon,Lachs
salsa (sauce),salsa (Soße)
salsa roja,salsa roja
salsa verde (mexico),salsa verde (mexikanisch)
salt,salz
salt cod,Salz Kabeljau
salt pork,Schweinefleisch salzen
salt-cured meat,Salzpökelfleisch
salvia officinalis,salvia officinalis
sambal,sambal
sardines,Sardinen
sattu,sattu
sauce lyonnaise,Sauce lyonnaise
sauces,Saucen
sauerkraut,Sauerkraut
sausage,Wurst
sausage casing,Wursthülle
sayur lodeh,sayur lodeh
scallions,Jakobsmuscheln
scallop,Jakobsmuschel
schmaltz,schmaltz
schnaps,schnaps
scones,Scones
scorpionfish,Skorpionfisch
scotch bonnet (pepper),Scotch Bonnet (Pfeffer)
sea cucumber,Seegurke
sea robin,Seerobbe
sea salt,Meersalz
sea snail,Seeschnecke
seafood,Meeresfrüchte
seasoned rice vinegar,gewürzter Reisessig
seasoning,Gewürz
seaweed,Seetang
seed,Samen
self-raising flour,selbstkochendes Mehl
semecarpus anacardium,Anacardium semecarpus
semolina,Grieß
sesame oil,Sesamöl
sesame seeds,Sesamsamen
sev,sev
seville orange,Sevilla-Orange
shad,Maifisch
shahe fen,Shahe Fen
shallots,Schalotten
shark finning,Haifischflossen
shaved ice,rasiertes Eis
shawarma,Schawarma
sheep,Schaf
sheep milk,Schafsmilch
sheep's sorrel,Schafs-Sauerampfer
shellfish,Schalentiere
shepherdia canadensis,Schafskraut (Shepherdia canadensis)
sherry,Sherry
shiitake,Shiitake
shiitake mushrooms,Shiitake-Pilze
short ribs,kurze Rippen
shortbread,Mürbegebäck
shortcake,Mürbeteig
shortcrust pastry,Mürbeteig
shortening,Mürbeteig
shrimp paste,Krabbenpaste
siling labuyo,siling labuyo
siling mahaba,siling mahaba
sirene,sirene
sirenje,sirenje
skhug,skhug
skim milk,Magermilch
sliced bread,geschnittenes Brot
smetana (dairy product),smetana (Molkereiprodukt)
smoked cheese,geräucherter Käse
smoked fish,geräucherter Fisch
smoked meat,geräuchertes Fleisch
smântână,smântână
snake gourd,Schlangenkürbis
snap pea,Zuckererbse
snickers bar,Snickers-Riegel
sodium benzoate,Natriumbenzoat
sodium bicarbonate,Natriumbicarbonat
sodium chloride,Natriumchlorid
soffritto,soffritto
soft drink,Erfrischungsgetränk
solkadhi,solkadhi
solution,Lösung
som moo,som muh
somun,somun
sorghum,Sorghum
sorrel,Sauerampfer
soup stock,Suppenbrühe
sour,sauer
sour cherry,Sauerkirsche
sour cream,saure Sahne
sourdough,Sauerteig
sourdough starter,Sauerteigstarter
soy bean,Sojabohne
soy flour,Sojamehl
soy protein,Sojaeiweiß
soy sauce,Sojasauce
spaghetti,Spaghetti
spam,Spam
spanish mackerel,Spanische Makrele
spare ribs,Spareribs
sparkling water,Sprudelwasser
spearmint,Minze
spelt,Dinkel
spice mix,Gewürzmischung
spices,Gewürze
spinach,Spinat
split pea,Spalterbse
sponge cake,Biskuit
sport pepper,Sportpfeffer
sprat,Sprotten
spread,Aufstrich
spring onions,Frühlingszwiebeln
sprinkles,Streusel
spun sugar,Streuzucker
spätzle,Spätzle
squab,Täubchen
squash (plant),Kürbis (Pflanze)
squid,Tintenfisch
stadtwurst,stadtwurst
stale bread,altbackenes Brot
staling,abgestanden
star anise,Sternanis
starch,Stärke
steak,Steak
steaming,Dämpfen
stew,Eintopf
sticky rice,klebriger Reis
stock,Brühe
strained yogurt,pürierter Joghurt
strawberry ice cream,Erdbeereis
strawberry jam,Erdbeermarmelade
streusel,Streusel
string bean,Stangenbohne
stuffed peppers,gefüllte Paprika
stuffing,Füllung
sturgeon,Stör
succade,Succade
sucrose,Saccharose
suet,Talg
sugar,Zucker
sugar beet,Zuckerrübe
sugar candy,Kandiszucker
sugar syrup,Zuckersirup
sultana (grape),Sultaninen (Trauben)
sumac,Sumach
summer savory,Sommerbohnenkraut
sunflower seed oil,Sonnenblumenkernöl
surimi,Surimi
sweet,süß
sweet bean paste,süße Bohnenpaste
sweet corn,Zuckermais
sweet pea,süße Erbse
sweet potato,Süßkartoffel
sweetbread,Kalbsbries
sweetened condensed milk,gezuckerte Kondensmilch
sweetener,Süßstoff
swim bladder,Schwimmblase
swiss cheese,Schweizer Käse
syrup,Sirup
tabasco sauce,Tabasco-Sauce
table salt,Speisesalz
taboon bread,Taubenbrot
taco,Taco
tadka,Tadka
tahini,Tahini
tamale,Tamale
tamarind,Tamarinde
tandoori masala,Tandoori-Masala
tangerine,Mandarine
tangyuan,tangyuan
tapioca,Tapioka
tapioca flour,Tapioka-Mehl
tapioca pearls,Tapioka-Perlen
taro,Taro
tarragon,Estragon
tartaric acid,Weinsäure
tea,Tee
tea leaves,Teeblätter
teff,Teff
telera,Telera
tempeh,Tempeh
tempura,Tempura
tendon,Sehne
tendon as food,Sehne als Lebensmittel
textured vegetable protein,texturiertes pflanzliches Eiweiß
thai basil,Thaibasilikum
thickening agent,Verdickungsmittel
thyme,Thymian
tinapa,tinapa
toast,Toastbrot
toffee,Toffee
tofu,Tofu
tomato gravy,Tomatensoße
tomato juice,Tomatensaft
tomato paste,Tomatenmark
tomato puree,Tomatenpüree
tomato purée,Tomatenpüree
tomato sauce,Tomatensoße
tomatoes,Tomaten
tongue,Zunge
toor dal,Toor Dal
tortilla chip,Tortilla-Chip
treacle,Sirup
trichosanthes dioica,Trichosanthes dioica
tripe,Kutteln
tsampa,tsampa
tteok,tteok
tucupi,tucupi
tuna,Thunfisch
tuna salad,Thunfischsalat
turkey,Truthahn
turkey meat,Truthahnfleisch
turkish delight,türkischer Genuss
turmeric powder,Kurkumapulver
turnip,Steckrübe
udon,Udon
umami,umami
urab,urab
urad (bean),urad (Bohne)
urap,urap
urfa biber,urfa biber
urtica dioica,urtica dioica
vanilla,Vanille
vanilla extract,Vanille-Extrakt
vanilla ice cream,vanilleeis
vanilla sugar,Vanillezucker
vanillin,Vanillin
veal,Kalbfleisch
vegemite,Vegemite
vegetable,pflanzlich
vegetable fats and oils,pflanzliche Fette und Öle
vegetable oil,pflanzliches Öl
vegetable shortening,pflanzliches fett
veka (pastry),Veka (Gebäck)
velouté sauce,Velouté-Sauce
velveeta,Velveeta
venison,Wildfleisch
vicia faba,Vicia faba
vienna sausage,wiener wurst
vietnamese coriander,vietnamesischer Koriander
vinaigrette,Vinaigrette
vinegar,Essig
vitis,vitis
vodka,Wodka
volvariella volvacea,volvariella volvacea
wa (japan),wa (japan)
wafer,Waffel
wahoo,wahoo
walnuts,Walnüsse
water,Wasser
water buffalo,Wasserbüffel
water caltrop,Wasserkaltschale
watercress,Brunnenkresse
watermelon,Wassermelone
wax bean,Wachsbohne
welsh onion,Walisische Zwiebel
west-indian pea,west-indische Erbse
whale meat,Walfischfleisch
wheat,Weizen
wheat starch,Weizenstärke
wheatberry,Weizenbeere
whey,Molke
whipped cream,Schlagsahne
whipped topping,Schlagsahne
whiskey,Whiskey
whisky,Whisky
white bean,weiße Bohne
white bread,Weißbrot
white cabbage,Weißkohl
white chocolate,weiße Schokolade
white gourd,Weißkürbis
white onion,weiße Zwiebel
white pepper,weißer Pfeffer
white pudding,Weißer Pudding
white rice,weißer Reis
white sugar,weißer Zucker
white wine,Weißwein
whole grain,Vollkorn
whole milk,Vollmilch
whole wheat flour,Weizenvollkornmehl
wholemeal,Vollkorn
wild rice,Wildreis
wine,Wein
winged bean,Flügelbohne
winter melon,Wintermelone
wonton,Wonton
worcestershire sauce,Worcestershire-Sauce
wrap (sandwich),Wrap (Sandwich)
xacuti,xacuti
xanthosoma,xanthosoma
xylem,Xylem
yak,yak
yak butter,Yakbutter
yam (vegetable),yam (Gemüse)
yardlong bean,Yardlong-Bohne
yeast,Hefe
yellow onion,gelbe Zwiebel
yellow squash,gelber Kürbis
yellowfin tuna,Gelbflossen-Thunfisch
yeot,Hefe
yoghurt,Joghurt
yogurt,Joghurt
yomogi,yomogi
young coconut,junge Kokosnuss
yuca,yuca
yuzu,yuzu
zante currants,zante Johannisbeeren
zest (ingredient),Schale (Zutat)
ziti,Ziti
zucchini,Zucchini
