english,german
Aachener Printen,Aachener Printen
Abernethy biscuit,Abernethy Keks
Abgoosht,Abgoosht
Aborrajado,Aborrajado
Acar,Acar
Acorn noodle soup,Eichel-Nudelsuppe
Acıbadem kurabiyesi,Acıbadem kurabiyesi
Ada (food),Ada (Essen)
Affogato,Affogato
Afghan biscuit,Afghanisches Gebäck
Afghani burger,Afghanen-Burger
Aila (liquor),Aila (Schnaps)
Aish merahrah,Aish merahrah
Ajapsandali,Ajapsandali
Ajdov Kruh,Ajdov Kruh
Ajethna,Ajethna
Ajika,Ajika
Ajoblanco,Ajoblanco
Ajvar,Ajvar
Akanés,Akanés
Akashiyaki,Akashiyaki
Akutaq,Akutaq
Alambre,Alambre
Alcapurria,Alcapurria
Alfajor,Alfajor
Aligot,Aligot
Alivenci,Alivenci
Allahabadi cake,Allahabadi-Torte
Allerheiligenstriezel,Allerheiligenstriezel
Almogrote,Almogrote
Almojábana,Almojábana
Almond Roca,Mandel-Roca
Almond bark,Mandel Rinde
Aloo chaat,Aloo chaat
Aloo gobi,Aloo gobi
Aloo paratha,Aloo Paratha
Aloo pie,Aloo-Kuchen
Alu Potala Rasa,Alu Potala Rasa
Amanattō,Amanattō
Amandine (dessert),Amandine (Nachspeise)
Amaretti di Saronno,Amaretti di Saronno
Amatriciana sauce,Amatriciana-Sauce
Ambrosia (fruit salad),Ambrosia (Obstsalat)
American goulash,Amerikanisches Gulasch
Amish friendship bread,Amisches Freundschaftsbrot
Amok trey,Amok trey
Amplang,Amplang
Anadama bread,Anadama-Brot
Anarsa,Anarsa
Andouille,Andouille
Andrajos,Andrajos
Angel cake,Engelskuchen
Angel food cake,Engelskuchen
Angoori rasmalai,Angoori rasmalai
Anise of Flavigny,Anis von Flavigny
Anmitsu,Anmitsu
Antipasto,Antipasto
Anzac biscuit,Anzac Keks
Apam balik,Apam balik
Apfelküchle,Apfelküchle
Aplets & Cotlets,Aplets & Keulchen
Apple cake,Apfelkuchen
Apple crisp,Apfelknusper
Apple dumpling,Apfel-Knödel
Apple soup,Apfelsuppe
Apple strudel,Apfelstrudel
Arisa Pitha,Arisa Pitha
Ariselu,Ariselu
Arrabbiata sauce,Arrabbiata-Sauce
Arroz a la cubana,Arroz a la cubana
Arroz a la valenciana,Arroz a la valenciana
Arroz con gandules,Arroz con gandules
Arroz junto,Arroz junto
Arròs negre,Arròs negre
Asham (dessert),Asham (Nachspeise)
Ashure,Aschure
Asida,Asida
Atole,Atole
Aush,Aush
Avena (drink),Avena (Getränk)
Avgolemono,Avgolemono
Avocado salad,Avocado-Salat
Awara broth,Awara-Brühe
Axoa,Axoa
Ayam bakar,Ayam bakar
Ayam goreng,Ayam goreng
Ayam masak merah,Ayam masak merah
Ayran,Ayran
Azerbaijani pakhlava,Aserbaidschanisch pakhlava
BLT,BLT
Ba-wan,Ba-wan
Babi kecap,Babi kecap
Bacon,Speck
Bacon Deluxe,Speck Deluxe
Bacon and egg pie,Bacon und Eierkuchen
Bacon sandwich,Speck-Sandwich
Bacon sundae,Speck-Eisbecher
Bacone,Bacone
Baeckeoffe,Baeckeoffe
Baekseolgi,Baekseolgi
Baeksuk,Baeksuk
Bagara khana,Bagara khana
Bagel toast,Bagel-Toast
Bagna càuda,Bagna càuda
Bagnun,Bagnun
Baguette,Baguette
Bahulu,Bahulu
Baik kut kyee kaik,Baik kut kyee kaik
Bajadera,Bajadera
Bak kut teh,Bak kut teh
Baked Alaska,Gebackene Alaska
Baked ziti,Gebackene Ziti
Bakewell tart,Bakewell-Torte
Bakmi,Bakmi
Bakso,Bakso
Bal Mithai,Bal Mithai
Balchão,Balchão
Balep korkun,Balep korkun
Balushahi,Balushahi
Bamiyeh,Bamiyeh
Banana boat (food),Bananenboot (Essen)
Banana cue,Bananenstäbchen
Banana leaf rice,Bananenblatt-Reis
Banana pudding,Bananenpudding
Banana split,Bananensplit
Bananas Foster,Bananen Foster
Banbury cake,Banbury-Kuchen
Bandeja paisa,Bandeja paisa
Banitsa,Banitsa
Banoffee pie,Bananenkuchen
Bara brith,Bara brith
Barbajada,Barbajada
Barbajuan,Barbajuan
Bark bread,Rindenbrot
Barley gruel,Gerstenschleim
Basbousa,Basbousa
Basler Brot,Basler Brot
Basler Läckerli,Basler Läckerli
Bastani Sonnati,Bastani Sonnati
Basundi,Basundi
Batata harra,Batata harra
Batchoy,Batchoy
Bath Oliver,Bad Oliver
Bath bun,Bad Brötchen
Batik cake,Batik-Kuchen
Bauernfrühstück,Bauernfrühstück
Baumkuchen,Baumkuchen
Bauru (sandwich),Bauru (Sandwich)
Bazlama,Bazlama
Bean pie,Bohnenkuchen
Bean salad,Bohnensalat
Beaten biscuit,Geschlagener Keks
Bebinca,Bebinca
Beef Wellington,Rindfleisch-Wellington
Beef bourguignon,Rindfleisch Bourguignon
Beef chow fun,Rindfleisch Chow Fun
Beef kway teow,Rindfleisch Kway Teow
Beef noodle soup,Rindfleisch-Nudelsuppe
Beef on weck,Rindfleisch auf Weck
Beer bread,Bier-Brot
Beer cheese (spread),Bierkäse (Aufstrich)
Beer soup,Bier-Suppe
Belekoy,Belekoy
Belgian waffle,Belgische Waffel
Belokranjska povitica,Belokranjska povitica
Bengal potatoes,Bengalische Kartoffeln
Berliner (doughnut),Berliner (Krapfen)
Berlingozzo,Berlingozzo
Bermuda fish chowder,Bermuda Fischsuppe
Berner Haselnusslebkuchen,Berner Haselnusslebkuchen
Berner Honiglebkuchen,Berner Honiglebkuchen
Besan barfi,Besan-Barfi
Bethmännchen,Bethmännchen
Better than sex cake,Besser als Sexkuchen
Bhatoora,Bhatoora
Bhendi fry,Bhendi fry
Bhoonja,Bhoonja
Bibingka,Bibingka
Bicol Express,Bicol-Express
Bienenstich,Bienenstich
Bika Ambon,Bika Ambon
Bikaneri bhujia,Bikaneri Bhujia
Binaki,Binaki
Bindaetteok,Bindaetteok
Binignit,Binignit
Bionico,Bionico
Birnbrot,Birnbrot
Birnen,Birnen
Biryani,Biryani
Biscotti,Biscotti
Biscuit (bread),Biscuit (Brot)
Bisque (food),Biskuit (Essen)
Bisteck a la chorrillana,Bisteck a la chorrillana
Bizcochito,Bizcochito
Black Forest gateau,Schwarzwälder Kirschtorte
Black bun,Schwarzes Brötchen
Black noodles,Schwarze Nudeln
Black sesame soup,Schwarze Sesamsuppe
Black soup,Schwarze Suppe
Blancmange,Blancmange
Blanquette de veau,Blanquette de veau
Blodpalt,Blodpalt
Blondie (confection),Blondie (Konfekt)
Blue cheese dressing,Blauschimmelkäse-Dressing
Boat noodles,Boot-Nudeln
Bob chorba,Bob chorba
Bolinhos de mandioca com mel,Bolinhos de mandioca com mel
Bollito Misto,Bollito Misto
Bolo Rei,Bolo Rei
Bolo de mel,Bolo de mel
Bolo de rolo,Bolo de rolo
Bologna sandwich,Bologna-Sandwich
Bolognese sauce,Bolognese-Sauce
Bombay mix,Bombay-Mischung
Bonfire toffee,Lagerfeuer-Toffee
Boortsog,Boortsog
Booyah (stew),Booyah (Eintopf)
Booza,Booza
Boquerones en vinagre,Boquerones en vinagre
Borlengo,Borlengo
Borodinsky bread,Borodinsky-Brot
Bosintang,Bosintang
Bosna (sausage),Bosna (Wurst)
Bosnian Pot,Bosnischer Topf
Boston cream pie,Boston-Sahnetorte
Botok,Botok
Bougatsa,Bougatsa
Bouillabaisse,Bouillabaisse
Bouillon (broth),Bouillon (Brühe)
Bouillon (soup),Bouillon (Suppe)
Bouneschlupp,Bouneschlupp
Boxty,Boxty
Boyoz,Boyoz
Boûkète,Boûkète
Brandy snaps,Branntwein-Schnaps
Bratwurst,Bratwurst
Bread and butter pudding,Brot- und Butterpudding
Bread pudding,Brotpudding
Breakfast roll,Frühstücksbrötchen
Breakfast sandwich,Frühstücksbrötchen
Bremer Klaben,Bremer Klaben
Brenebon,Brennebon
Bridge mix,Bridge-Mischung
Bridie,Bridie
Brigadeiro,Brigadeiro
Brioche,Brioche
Briouat,Briouat
Brittle (food),Krokant (Lebensmittel)
Broa,Broa
Brown Betty (dessert),Brown Betty (Nachspeise)
Brown Windsor soup,Braune Windsor-Suppe
Brown bread,Braunes Brot
Brown stew chicken,Braunes Schmorhuhn
Broyé poitevin,Broyé poitevin
Brunost,Brunost
Brunswick stew,Braunschweiger Eintopf
Bruschetta,Bruschetta
Brændende kærlighed,Brændende kærlighed
Bubble and squeak,Blasen und Quietschen
Bublik,Bublik
Bubur kacang hijau,Bubur kacang hijau
Bubur ketan hitam,Bubur ketan hitam
Bubur pedas,Bubur pedas
Buchteln,Buchteln
Buckwheat gateau,Buchweizentorte
Buddha Jumps Over the Wall,Buddha springt über die Mauer
Buffalo wing,Büffelflügel
Buko pie,Buko-Kuchen
Bulalo,Bulalo
Bun,Brötchen
Bun kebab,Bun Kebab
Bundt cake,Bundt-Kuchen
Buntil,Buntil
Burebrot,Burebrot
Burgoo,Burgoo
Buridda,Buridda
Burmese tofu,Birmesischer Tofu
Butajiru,Butajiru
Butter cake,Butterkuchen
Butter cookie,Butterkeks
Butter pie,Butterkuchen
Butter tart,Butter-Torte
Butter tea,Butter-Tee
Buttercream,Buttercreme
Butterkuchen,Butterkuchen
Buttermilk koldskål,Buttermilch Koldskål
Buttermilk pie,Buttermilchkuchen
Buttery (bread),Buttrig (Brot)
Bánh,Bánh
Bánh bao,Bánh bao
Bánh bò,Bánh bò
Bánh bột lọc,Bánh bột lọc
Bánh chuối,Bánh chuối
Bánh chưng,Bánh chưng
Bánh cuốn,Bánh cuốn
Bánh da lợn,Bánh da lợn
Bánh hỏi,Bánh hỏi
Bánh khoai mì,Bánh khoai mì
Bánh tráng,Bánh tráng
Bánh tét,Bánh tét
Bánh tẻ,Bánh tẻ
Béchamel sauce,Béchamelsauce
Börek,Börek
Bún mắm,Bún mắm
Bún riêu,Bún riêu
Bündner Nusstorte,Bündner Nusstorte
Cabbage soup,Kohlsuppe
Cacciucco,Cacciucco
Cachopo (dish),Cachopo (Gericht)
Cachupa,Cachupa
Cacık,Cacık
Caesar salad,Caesar-Salat
Cajuzinho,Cajuzinho
Cake,Torte
Cake balls,Tortenbälle
Caldillo de congrio,Caldillo de congrio
Caldo de costilla,Caldo de costilla
Caldo de siete mares,Caldo de siete mares
Caldo gallego,Caldo gallego
Caldo tlalpeño,Caldo tlalpeño
California roll,Kalifornische Rolle
Calisson,Calisson
Callaloo,Callaloo
Callos,Callos
Calzone,Calzone
Cameo Creme,Cameo Creme
Camote cue,Kamee-Queue
Canapé,Kanapee
Candied fruit,Kandierte Früchte
Candle salad,Kerzensalat
Candy apple,Kandierter Apfel
Candy corn,Kandierter Mais
Candy pumpkin,Kandierter Kürbis
Canelé,Canelé
Canh chua,Canh chua
Canjica (dish),Canjica (Gericht)
Cao lầu,Cao lầu
Capirotada,Capirotada
Cappon magro,Cappon magro
Caprese salad,Caprese-Salat
Carac (pastry),Carac (Gebäck)
Caramel apple,Karamell-Apfel
Caramel corn,Karamell-Mais
Caramel shortbread,Karamell-Mürbegebäck
Caraway seed cake,Kümmelkuchen
Carbonade flamande,Karbonade flambiert
Carbonara,Karbonara
Carciofi alla Romana,Carciofi alla Romana
Cardamom bread,Kardamom-Brot
Carne asada fries,Carne asada Pommes
Carolina style,Carolina-Stil
Carpaccio,Carpaccio
Carrot cake,Karottenkuchen
Cascaron,Kaskaron
Cashew chicken,Cashew-Hähnchen
Cassata,Cassata
Cassoulet,Cassoulet
Castella,Castella
Catfish stew,Wels-Eintopf
Catànies,Catànies
Cavallucci,Cavallucci
Cawl,Cawl
Celery Victor,Sellerie Victor
Cellophane noodles,Zellophan-Nudeln
Cendol,Cendol
Cervelle de canut,Cervelle de canut
Ceviche,Ceviche
Cezerye,Cezerye
Chairo (stew),Chairo (Eintopf)
Chakapuli,Chakapuli
Chakka prathaman,Chakka prathaman
Chakli,Chakli
Chakuli pitha,Chakuli pitha
Challah,Challah
Chalupa,Chalupa
Champ (food),Champ (Essen)
Champorado,Champorado
Chana masala,Chana masala
Chanakhi,Chanakhi
Chancaca,Chancaca
Chandrakanti,Chandrakanti
Changua,Changua
Chankonabe,Chankonabe
Chantilly cake,Chantilly-Kuchen
Chapea,Chapea
Chapssaltteok,Chapssaltteok
Char kway teow,Char kway teow
Char siu,Char siu
Chargha,Chargha
Charlotte (cake),Charlotte (Kuchen)
Chatang,Chatang
Chatti Pathiri,Chatti Pathiri
Chawanmushi,Chawanmushi
Cheese and pickle sandwich,Käse-Gurken-Sandwich
Cheese dog,Käse-Hund
Cheese dream,Käsetraum
Cheese on toast,Käse auf Toast
Cheese slaw,Käsesalat
Cheesecake,Käsekuchen
Cheesymite scroll,Käseschnittchen
Chef salad,Chefsalat
Chelsea bun,Chelsea-Brötchen
Chess pie,Schachkuchen
Chhena jalebi,Chhena jalebi
Chhena kheeri,Chhena kheeri
Chhena poda,Chhena poda
Chiboust cream,Chiboust-Creme
Chicago-style hot dog,Hot Dog nach Chicagoer Art
Chicken 65,Huhn 65
Chicken Chettinad,Hähnchen Chettinad
Chicken Kiev,Hähnchen Kiew
Chicken Picasso,Hähnchen Picasso
Chicken and dumplings,Hähnchen und Knödel
Chicken and mushroom pie,Hähnchen und Pilzpastete
Chicken curry,Hähnchen-Curry
Chicken mull,Hähnchen-Mull
Chicken riggies,Hähnchen-Riggies
Chicken tikka masala,Hähnchen-Tikka-Masala
Chickpea noghl,Kichererbsen-Noghl
Chiffon cake,Chiffon-Kuchen
Chikkolee,Chikkolee
Chikuzenni,Chikuzenni
Chilaquiles,Chilaquiles
Chile con queso,Chile con queso
Chilean salad,Chilenischer Salat
Chili con carne,Chili con carne
Chili dog,Chili-Hund
Chimichanga,Chimichanga
Chinese chicken salad,Chinesischer Hähnchensalat
Chinese steamed eggs,Chinesische gedämpfte Eier
Ching bo leung,Ching bo leung
Chingudi Jhola,Chingudi Jhola
Chip butty,Chip butty
Chipa,Chippa
Chippi appam,Chippi-Appam
Chips and dip,Chips und Dip
Chireta,Chireta
Chivito (sandwich),Chivito (Sandwich)
Chocolate,Schokolade
Chocolate biscuit,Schokoladenkeks
Chocolate brownie,Schokoladen-Brownie
Chocolate chip cookie,Schokoladen-Chip-Keks
Chocolate ice cream,Schokoladen-Eiscreme
Chocolate marquise,Schokolade Marquise
Chocolate salami,Schokoladensalami
Chocolate spread,Schokoladenaufstrich
Chocolate syrup,Schokoladensirup
Chocolate tart,Schokoladenkuchen
Chocolate-covered potato chips,Kartoffelchips mit Schokoladenüberzug
Chocolate-covered raisin,Rosine mit Schokoladenüberzug
Chokladboll,Chokladboll
Cholent,Cholent
Chomchom,Chomchom
Chongyang Cake,Chongyang-Kuchen
Choripán,Choripán
Chorrillana,Chorrillana
Chotpoti,Chotpoti
Chouquette,Chouquette
Choux pastry,Brandteig
Chowder,Chowder
Christmas pudding,Weihnachtspudding
Chuchvara,Tschuchwara
Chunchullo,Chunchullo
Chupe,Chupe
Churchkhela,Churchkhela
Churma,Churma
Churmuri,Churmuri
Chè bà ba,Chè bà ba
Chè trôi nước,Chè trôi nước
Chả giò,Chả giò
Ciabatta,Ciabatta
Ciambotta,Ciambotta
Ciarduna,Ciarduna
Cider doughnut,Cidre-Krapfen
Cincin,Cincinnati
Cincinnati chili,Cincinnati-Chili
Cinnamon roll,Zimtrolle
Cioppino,Cioppino
Ciorbă,Ciorbă
Ciorbă de perișoare,Ciorbă de perișoare
Circus peanut,Zirkus-Erdnuss
Ciulama,Ciulama
Clafoutis,Clafoutis
Clam dip,Muschel-Dip
Claypot chicken rice,Claypot-Hühnerreis
Clootie,Clootie
Club sandwich,Club-Sandwich
Cobb salad,Cobb-Salat
Cobbler (food),Cobbler (Essen)
Coca (pastry),Coca (Gebäck)
Cocadas,Cocadas
Cocido lebaniego,Cocido lebaniego
Cocido montañés,Cocido montañés
Cock-a-leekie soup,Hahn-im-Lauch-Suppe
Cocktail bun,Cocktail-Brötchen
Coco bread,Kakao-Brot
Cocoa Puffs,Kakao-Puffs
Cocol,Kakao
Coconut bar,Kokosnuss-Riegel
Coconut chutney,Kokosnuss-Chutney
Coconut jam,Kokosnuss-Marmelade
Coda alla vaccinara,Coda alla vaccinara
Coddle,Kabeljau
Coffee jelly,Kaffee-Gelee
Colaz,Colaz
Colcannon,Colcannon
Coleslaw,Krautsalat
Collard liquor,Collard Schnaps
Colomba di Pasqua,Colomba di Pasqua
Colston bun,Colston-Brötchen
Comfit,Comfit
Completo,Completo
Compote,Kompott
Compote (game dish),Kompott (Wildgericht)
Compound chocolate,Kompott-Schokolade
Confit byaldi,Confit byaldi
Conkies,Conkies
Consommé,Consommé
Conversation tart,Konversations-Torte
Cookie Cake Pie,Keks-Kuchen-Torte
Cookie salad,Keks-Salat
Coppia ferrarese,Coppia ferrarese
Coq au vin,Coq au vin
Cordial (candy),Cordial (Bonbon)
Cordon bleu (dish),Cordon bleu (Gericht)
Corn burrito,Mais-Burrito
Corn chowder,Mais-Suppe
Corn crab soup,Mais-Krabben-Suppe
Corn flakes,Maisflocken
Corn fritter,Mais-Fritten
Corned beef pie,Corned-Beef-Pastete
Corned beef sandwich,Corned-Beef-Sandwich
Cornell bread,Cornell-Brot
Cornish fairing,Cornish Fairing
Coronation chicken,Krönungshuhn
Cottage pie,Cottage Pie
Cougnou,Cougnou
Coulibiac,Coulibiac
Countess (shortbread),Gräfin (Mürbegebäck)
Country Captain,Land-Kapitän
Coussin de Lyon,Coussin de Lyon
Couverture chocolate,Kuvertüre Schokolade
Covrigi,Covrigi
Cow cod soup,Kuhdorschsuppe
Cozonac,Cozonac
Crab Louie,Krabbe Louie
Crab Rangoon,Krabben-Rangoon
Crab in Padang sauce,Krabben in Padang-Sauce
Crab in oyster sauce,Krabben in Austernsauce
Cranachan,Preiselbeeren
Cranberry sauce,Cranberry-Sauce
Cream horn,Sahne-Horn
Cream of Wheat,Weizen-Creme
Cream of mushroom soup,Champignoncremesuppe
Cream pie,Sahnetorte
Cream stew,Sahne-Eintopf
Cream tea,Sahne-Tee
Creier pane,Cremetorte
Creme de papaya,Creme de Papaya
Cremeschnitte,Cremeschnitte
Cretons,Kreta
Crisp (food),Crisp (Lebensmittel)
Crispbread,Knäckebrot
Crocchè,Crocchè
Croquembouche,Croquembouche
Croquette,Krokette
Crudités,Crudités
Crudos,Crudos
Crumble,Streusel
Crème Ninon,Crème Ninon
Crème anglaise,Crème anglaise
Crêpe Suzette,Crêpe Suzette
Cuban bread,Kubanisches Brot
Cuban sandwich,Kubanisches Sandwich
Cuccìa,Cuccìa
Cucumber raita,Gurken-Raita
Cucumber sandwich,Gurken-Sandwich
Cucurucho,Gurke
Cullen skink,Cullen Skink
Cumberland Ha'penny Pie,Cumberland-Ha'penny-Kuchen
Cupcake,Cupcake
Cupcone,Cupcone
Curanto,Curanto
Curau,Curau
Curd rice,Quark-Reis
Curry,Curry
Curry Mee,Curry Mee
Curry bread,Curry-Brot
Curry goat,Curry Ziege
Curry powder,Curry-Pulver
Curry puff,Curry Puff
Curtido,Curtido
Custard,Vanillepudding
Czernina,Czernina
Dabby-Doughs,Dabby-Teige
Dabeli,Dabeli
Dabu-dabu,Dabu-Dabu
Dacquoise,Dacquoise
Dagwood sandwich,Dagwood-Sandwich
Daheen,Daheen
Dahi baigana,Dahi baigana
Dahi chutney,Dahi-Chutney
Dahi machha,Dahi machha
Dahi puri,Dahi puri
Dakjuk,Dakjuk
Dakos,Dakos
Dal,Dal
Dal biji,Dal biji
Dalcha,Dalcha
Dampfnudel,Dampfnudel
Danger dog,Gefährlicher Hund
Danish pastry,Dänisches Gebäck
Dasik,Dasik
Date and walnut loaf,Dattel-Walnuss-Brot
Daube,Daube
Daun ubi tumbuk,Daun ubi tumbuk
David Eyre's pancake,David Eyre's Pfannkuchen
Deep fried Oreo,Frittierter Oreo
Denver sandwich,Denver-Sandwich
Depression cake,Depressions-Kuchen
Derby Pie,Derby-Kuchen
Desem,Desem
Dessert bar,Dessert-Bar
Dessert salad,Dessert-Salat
Deuk Deuk Tong,Deuk Deuk Tong
Devil's curry,Teufels-Curry
Devil's food cake,Teufelskuchen
Deviled egg,Teufels-Ei
Devils on horseback,Teufel zu Pferd
Dhansak,Dhansak
Dhondas,Dhondas
Digestive biscuit,Verdauungsplätzchen
Dimlama,Dimlama
Dinuguan,Dinuguan
Dirt cake,Schmutziger Kuchen
Divinity (confectionery),Göttlichkeit (Süßwaren)
Diyabath,Diyabath
Dizé milé,Dizé milé
Doberge cake,Doberge-Torte
Dobos torte,Dobos-Torte
Dock Pudding,Dock Pudding
Dodol,Dodol
Doenjang jjigae,Doenjang jjigae
Dolma,Dolma
Dominostein,Dominostein
Donauwelle,Donauwelle
Dondurma,Dondurma
Doner kebab,Döner Kebab
Dongchimi,Dongchimi
Dopiaza,Dopiaza
Doubles (food),Doubles (Lebensmittel)
Dovga,Dovga
Dragon's beard candy,Drachenbart-Bonbon
Draw soup,Gezeichnete Suppe
Dressed herring,Gezogener Hering
Dripping cake,Tropfender Kuchen
Drokpa Katsa,Drokpa Katsa
Drunken noodles,Getrunkene Nudeln
Dry meatballs,Trockene Fleischbällchen
Ducana,Ducana
Dumpling,Knödel
Dundee cake,Dundee-Kuchen
Duqqa,Duqqa
Dushbara,Dushbara
Dutch baby pancake,Holländischer Baby-Pfannkuchen
Easter biscuit,Osterplätzchen
Eccles cake,Eccles-Kuchen
Efo riro,Efo riro
Egg drop soup,Eiertropfensuppe
Egg salad,Eiersalat
Egg tart,Eierkuchen
Eggs Benedict,Eier Benedikt
Eggs Neptune,Neptun-Eier
Empalme (food),Empalme (Lebensmittel)
Empire biscuit,Empalme (Keks)
Encebollado,Encebollado
Enchilada,Enchilada
Enduri Pitha,Enduri Pitha
English muffin,Englischer Muffin
Ensaïmada,Ensaïmada
Entomatada,Entomatada
Erotic cake,Erotischer Kuchen
Es buah,Es buah
Es campur,Es campur
Es doger,Es doger
Es teler,Es teler
Escalivada,Escalivada
Esgarrat,Esgarrat
Eshabwe,Eshabwe
Espasol,Espasol
Eton mess,Eton mess
Eurocrem,Eurocrem
Ezogelin soup,Ezogelin-Suppe
Fa gao,Fa gao
Fairy bread,Feenbrot
Fajita,Fajita
Falooda,Falooda
Faloodeh,Faloodeh
Fanesca,Fanesca
Far Breton,Far Bretonisch
Farali potatoes,Farali Kartoffeln
Farinata,Farinata
Fasolada,Fasolada
Fasole cu cârnați,Fasole cu cârnați
Fatost,Fatost
Fatteh,Fatteh
Fattoush,Fattoush
Feijoada,Feijoada
Ferrero Rocher,Ferrero Rocher
Fesenjān,Fesenjān
Fettuccine Alfredo,Fettuccine Alfredo
Feu (food),Feu (Lebensmittel)
Figgy duff (pudding),Feigenkuchen (Pudding)
Filhós,Filhós
Finikia,Finikia
Fischbrötchen,Fischbrötchen
Fish chowder,Fischpudding
Fish head curry,Fischkopf-Curry
Fish pie,Fischpastete
Fish soup,Fischsuppe
Fish soup bee hoon,Fischsuppe Biene Hoon
Fish tea,Fischtee
Fisherman's soup,Fischsuppe
Flapjack (oat bar),Flapjack (Haferriegel)
Flapper pie,Fladenbrot
Flatbread,Fladenbrot
Flatbrød,Flachbrød
Flaugnarde,Flaugnarde
Flaó,Flaó
Floating island (dessert),Schwimmende Insel (Nachspeise)
Florentine biscuit,Florentiner Kekse
Flour kurabiye,Mehl-Kurabiye
Flummadiddle,Flummadiddle
Flump (sweet),Flummi (süß)
Focaccia,Focaccia
Fondant icing,Fondant-Glasur
Fondant potatoes,Fondant-Kartoffeln
Fondue,Fondue
Fool's Gold Loaf,Fool's Gold Laib
Fortune cookie,Glückskeks
Francesinha,Franzbranntwein
Francesinha poveira,Francesinha poveira
Frangipane,Frangipane
Frangollo,Frangollo
Frankfurter Kranz,Frankfurter Kranz
French dip,Französischer Dip
French dressing,Französisches Dressing
French onion soup,Französische Zwiebelsuppe
Friand,Friand
Fricot,Frikadellen
Fried Coke,Frittierte Cola
Fried cauliflower,Frittierter Blumenkohl
Frikadeller,Frikadeller
Frito pie,Frito-Kuchen
Frittole (doughnut),Frittole (Krapfen)
Fritule,Fritule
Frog cake,Froschkuchen
Fromage fort,Fromage fort
Frozen custard,Gefrorener Pudding
Fruit bun,Obstbrötchen
Fruit curd,Fruchtquark
Fruit fool,Obsttornister
Fruit hat (pudding),Fruchthut (Pudding)
Fruit preserves,Fruchtkonserven
Fruit pudding,Fruchtpudding
Fruit salad,Fruchtsalat
Fruitcake,Obstkuchen
Frumenty,Frumenty
Frybread,Frittenbrot
Ful medames,Ful medames
Fun guo,Fun guo
Funeral potatoes,Trauerkartoffeln
Funing big cake,Funing großer Kuchen
Funkaso,Funkaso
Funšterc,Funšterc
Fánk,Fánk
Fårikål,Fårikål
Ga'at,Ga'at
Gachas,Gachas
Gaisburger Marsch,Gaisburger Marsch
Gajar ka halwa,Gajar ka halwa
Galbitang,Galbitang
Gamja ongsimi,Gamja ongsimi
Gamjatang,Gamjatang
Gangjeong,Gangjeong
Garash cake,Garash-Kuchen
Garbure,Garbure
Garlic bread,Knoblauchbrot
Garlic fingers,Knoblauch-Finger
Garnache,Garnache
Gaston Gérard Chicken,Gaston Gérard Huhn
Gatsby (sandwich),Gatsby (Sandwich)
Gaz (candy),Gaz (Bonbon)
Gazpacho,Gazpacho
Gazpachuelo,Gazpachuelo
Gelato,Gelato
General Tso's chicken,General Tso's Huhn
Genoa cake,Genua-Kuchen
Genoise,Genueser
Geplak,Geplak
German chocolate cake,Deutscher Schokoladenkuchen
Germknödel,Germknödel
Gethuk,Gethuk
Ghapama,Ghapama
Gheimeh,Gheimeh
Ghoriba,Ghoriba
Ghormeh sabzi,Ghormeh sabzi
Gianduiotto,Gianduiotto
Gibanica,Gibanica
Gibraltar rock (candy),Gibraltar-Felsen (Bonbon)
Ginanggang,Ginanggang
Ginger dressing,Ingwer-Dressing
Ginger milk curd,Ingwermilch-Quark
Ginger nut,Pfeffernuss
Gingerbread,Lebkuchen
Gionbō,Gionbō
Giouvetsi,Giouvetsi
Gizzada,Gizzada
Glasswort salad,Glasblumensalat
Glorified rice,Glorifizierter Reis
Gnocchi,Gnocchi
Gnudi,Gnudi
Gobstopper,Gobstopper
Goetta,Goetta
Gogoși,Gogoși
Goiabada,Goiabada
Golbaengi muchim,Golbaengi muchim
Gomguk,Gomguk
Goody (dessert),Goody (Nachspeise)
Gooey butter cake,Klebriger Butterkuchen
Gopchang jeongol,Gopchang jeongol
Gordita,Gordita
Goro (sweet bread),Goro (süßes Brot)
Gougère,Gougère
Goulash,Gulasch
Gołąbki,Gołąbki
Graham cracker crust,Graham-Cracker-Kruste
Granita,Granita
Grant loaf,Grant-Laib
Gravlax,Gravlax
Greek salad,Griechischer Salat
Green bean casserole,Grüner Bohnenauflauf
Green curry,Grünes Curry
Green goddess dressing,Grüne Göttin-Dressing
Gringas,Gringas
Groat (grain),Grütze (Getreide)
Groaty pudding,Grütziger Pudding
Gruel,Grütze
Guacamole,Guacamole
Guajolota,Guajolota
Guasanas,Guasanas
Gudeg,Gudeg
Gugelhupf,Gugelhupf
Gujia,Gujia
Gulyásleves,Gulyásleves
Gumbo,Gumbo
Gumdrop,Gumdrop
Gummy bear,Gummibärchen
Gundain,Gundain
Gundel pancake,Gundel-Pfannkuchen
Guyanese pepperpot,Guyanischer Pfefferstreuer
Guyuria,Guyurien
Gyabrag,Gyabrag
Gyaho,Gyaho
Gyeongju bread,Gyeongju-Brot
Gypsy tart,Zigeunerfladen
Gyro (food),Gyro (Lebensmittel)
Gyūdon,Gyūdon
Gâteau Basque,Gâteau Baskisch
Götterspeise,Götterspeise
Güllaç,Güllaç
Güveç (dish),Güveç (Gericht)
Gỏi cuốn,Gỏi cuốn
Habichuelas con dulce,Habichuelas con dulce
Hachee,Hachee
Hachis Parmentier,Hachis Parmentier
Hae mee,Hae mee
Haejangguk,Haejangguk
Hagebuttenmark,Hagebuttenmark
Haggis,Haggis
Haggis pakora,Haggis-Pakora
Halal snack pack,Halal-Snackpackung
Haleem,Haleem
Halguane,Halguane
Hallaca,Hallaca
Hallulla,Halulla
Halo-halo,Halo-halo
Halva,Halva
Ham and cheese sandwich,Schinken-Käse-Sandwich
Ham and egg bun,Schinken-Ei-Brötchen
Ham salad,Schinkensalat
Hanabiramochi,Hanabiramochi
Handvo,Handvo
Hapanvelli,Hapanvelli
Happy Cake,Glückliche Torte
Happy Faces,Fröhliche Gesichter
Har gow,Har gow
Hard candy,Hartes Bonbon
Hard dough bread,Hartes Teigbrot
Hard sauce,Harte Soße
Harees,Harees
Harira,Harira
Harput meatballs,Harput-Frikadellen
Hasenpfeffer,Hasenpfeffer
Hasty pudding,Eiliger Pudding
Heavy cake,Schwerer Kuchen
Hefekranz,Hefekranz
Heong Peng,Heong Peng
Herman cake,Herman-Kuchen
Herring soup,Heringssuppe
Hertzoggie,Hertzoggie
Hinava,Hinava
Hirayachi,Hirayachi
Hishi mochi,Hishi-Mochi
Hobakjuk,Hobakjuk
Hochzeitssuppe,Hochzeitssuppe
Hodge-Podge (soup),Hodge-Podge (Suppe)
Hodugwaja,Hodugwaja
Hojuela,Hojuela
Hokkien mee,Hokkien mee
Home fries,Pommes frites
Homity pie,Hausmannskost
Honey bun,Honigbrötchen
Honey dill,Honig-Dill
Honeycomb toffee,Honigwaben-Toffee
Hoosh,Hoosh
Hopje,Hopje
Hoppin' John,Hoppin' John
Hornazo,Hornazo
Horsebread,Hufeisenbrot
Horseshoe sandwich,Hufeisen-Sandwich
Hortobágyi palacsinta,Hortobágyi palacsinta
Hot Brown,Heißes Braun
Hot hamburger plate,Heiße Hamburgerplatte
Hot milk cake,Heißer Milchkuchen
Hot pot,Heißer Topf
Hot wiener,Heißes Würstchen
Hotteok,Hotteok
Houska,Houska
Hoyha,Hoyha
Hoşmerim,Hoşmerim
Huangqiao Sesame Cake,Huangqiao Sesamkuchen
Huel,Huel
Huevos motuleños,Huevos motuleños
Huevos rancheros,Huevos Rancheros
Hujiao bing,Hujiao bing
Hummingbird cake,Kolibri-Kuchen
Hutspot,Hutspot
Hwajeon,Hwajeon
Hyderabadi biryani,Hyderabadi Biryani
Hyderabadi haleem,Hyderabadischer Haleem
Hyōrokumochi,Hyōrokumochi
Hōtō,Hōtō
Ice cream,Eiscreme
Ice cream float,Eiscreme Float
Ice cream sandwich,Eiscreme-Sandwich
Idrijski žlikrofi,Idrijski žlikrofi
Ikan bakar,Ikan bakar
Ikan goreng,Ikan goreng
Imarti,Imarti
Indian ice cream (Alaska),Indisches Eis (Alaska)
Indian ice cream (Canada),Indisches Eis (Kanada)
Indian omelette,Indisches Omelett
Indori Poha,Indori Poha
Inipit,Inipit
Injera,Injera
Instant soup,Instant-Suppe
Irish stew,Irischer Eintopf
Islama köfte,Islama-Köfte
Israeli eggplant salad,Israelischer Auberginensalat
Israeli salad,Israelischer Salat
Istrian stew,Istrischer Eintopf
Italian dressing,Italienisches Dressing
Italian hot dog,Italienischer Hotdog
Italian sausage,Italienische Wurst
Italian tomato pie,Italienische Tomatentorte
Jaecheopguk,Jaecheopguk
Jajangmyeon,Jajangmyeon
Jal-jeera,Jal-jeera
Jala (kuih),Jala (kuih)
Jalapeño popper,Jalapeño-Knallbonbon
Jalebi,Jalebi
Jalfrezi,Jalfrezi
Jam sandwich (food),Marmeladen-Sandwich (Essen)
Jambalaya,Jambalaya
Janchi guksu,Janchi guksu
Janssons frestelse,Janssons Frestelse
Japchae,Japchae
Jatguksu,Jatguksu
Jeera aloo,Jeera aloo
Jeera rice,Jeera-Reis
Jell-O,Götterspeise
Jello salad,Wackelpudding-Salat
Jelly bean,Gelee-Bohne
Jemput-jemput,Jemput-jemput
Jenny Lind Soup,Jenny-Lind-Suppe
Jeon (food),Jeon (Essen)
Jeonggwa,Jeonggwa
Jeongol,Jeongol
Jhajariya,Jhajariya
Jhalmuri,Jhalmuri
Jiaozi,Jiaozi
Jibarito,Jibarito
Jiuniang,Jiuniang
Jjigae,Jjigae
Jjolmyeon,Jjolmyeon
Joffre cake,Joffre-Kuchen
Johnny Marzetti,Johnny Marzetti
Jollof rice,Jollof-Reis
Jumble (cookie),Jumble (Keks)
Junket (dessert),Junket (Nachspeise)
Jésuite,Jésuite
Kaasstengels,Kaasstengels
Kabkabou,Kabkabou
Kabsa,Kabsa
Kabuni,Kabuni
Kachumber,Kachumber
Kadboli,Kadboli
Kadhi,Kadhi
Kadhi chawal,Kadhi chawal
Kai kou xiao,Kai kou xiao
Kaipen,Kaipen
Kaiser roll,Kaiserbrötchen
Kaiserschmarrn,Kaiserschmarrn
Kaju katli,Kaju katli
Kakara pitha,Kakara pitha
Kakigōri,Kakigōri
Kalakand,Kalakand
Kalakukko,Kalakukko
Kalamai (dessert),Kalamai (Nachspeise)
Kalamay,Kalamay
Kalathappam,Kalathappam
Kaldereta,Kaldereta
Kalduny,Kalduny
Kalguksu,Kalguksu
Kalitsounia,Kalitsounia
Kalu dodol,Kalu dodol
Kamarcut,Kamarcut
Kamby arro,Kamby arro
Kammerjunker (biscuit),Kammerjunker (Keks)
Kanafeh,Kanafeh
Kansar,Kansar
Kappa Ebisen,Kappa Ebisen
Kapsalon,Kapsalon
Karadantu,Karadantu
Karah Parshad,Karah Parschad
Kare-kare,Kare-kare
Karedok,Karedok
Karelian hot pot,Karelischer Eintopf
Karelian pasty,Karelische Pastete
Karintō,Karintō
Karnıyarık,Karnıyarık
Kartoffelkäse,Kartoffelkäse
Karukan,Karukan
Karydopita,Karydopita
Kasha,Kascha
Kaszanka,Kaszanka
Katogo (food),Katogo (Essen)
Kedgeree,Kedgeree
Keema,Keema
Kefir,Kefir
Kelan Antep,Kelan Antep
Kemplang,Kemplang
Kendal Mint Cake,Kendal Minzkuchen
Kerststol,Kerststol
Kesme,Kesme
Ketchup,Ketchup
Ketoprak (dish),Ketoprak (Gericht)
Kettle corn,Kettle Mais
Ketwurst,Ketwurst
Key lime pie,Limettenkuchen
Khachapuri,Khachapuri
Khanom thuai,Khanom thuai
Khao poon,Khao poon
Khapse,Khapse
Kharcho,Kharcho
Khauk swè thoke,Khauk swè thoke
Kheer,Kheer
Khichdi,Khichdi
Khichra,Khichra
Khinkali,Khinkali
Khira sagara,Khira sagara
Kho (cooking technique),Kho (Kochtechnik)
Khobz Mbesses,Khobz Mbesses
Khobz tounes,Khobz tounes
Khoresh bademjan,Khoresh bademjan
Khoya paneer,Khoya paneer
Khuushuur,Khuushuur
Kibbeh nayyeh,Kibbeh nayyeh
Kig ha farz,Kig ha farz
Kimchi jjigae,Kimchi jjigae
King Kong milk candy,King Kong Milchbonbons
Kinilnat,Kinilnat
Kirschenmichel,Kirschenmichel
Kissel,Kissel
Kiszczonka,Kiszczonka
Kitcha,Kitcha
Kitchener bun,Kitchener Brötchen
Kkultarae,Kkultarae
Klenät,Klenät
Klepon,Klepon
Kluai buat chi,Kluai buat chi
Knieperkohl,Knieperkohl
Knish,Knisch
Knäck,Knäck
Knödel,Knödel
Kobbari Lavuju,Kobbari Lavuju
Kokoretsi,Kokoretsi
Kol böreği,Kol böreği
Kolak,Kolak
Koliva,Koliva
Kombdi vade,Kombdi vade
Kompyang,Kompyang
Konro,Konro
Kopytka,Kopytka
Kora Khai,Kora Khai
Kosereva,Kosereva
Kotlet schabowy,Kotlet schabowy
Kottenbutter,Kottenbutter
Kouign-amann,Kouign-amann
Kołacz,Kołacz
Kransekake,Kransekake
Krentjebrij,Krentjebrij
Kreplach,Kreplach
Kreple,Kreple
Krispie,Krispie
Krofne,Krofne
Kroppkaka,Kroppkaka
Krotekake,Krotekake
Krumiri,Krumiri
Krumkake,Krumkake
Krupnik (soup),Krupnik (Suppe)
Kréma,Kréma
Krówki,Krówki
Kubaneh,Kubaneh
Kubdari,Kubdari
Kuchmachi,Kuchmachi
Kue cubit,Kue cubit
Kue lapis,Kue lapis
Kue mangkok,Kue mangkok
Kue putu mangkok,Kue putu mangkok
Kugelis,Kugelis
Kuih semperit,Kuih semperit
Kulajda,Kulajda
Kulolo,Kulolo
Kusa mochi,Kusa mochi
Kutia,Kutia
Kutsinta,Kutsinta
Kuzhambu,Kuzhambu
Kwati (soup),Kwati (Suppe)
Kwetiau goreng,Kwetiau goreng
Kyiv cake,Kiewer Kuchen
Kyopolou,Kopolou
Kyselo,Kyselo
Kısır,Kısır
Laal maans,Laal maans
Laapsi,Laapsi
Lacabòn,Lacabòn
Laddu,Laddu
Lady Baltimore cake,Lady Baltimore-Kuchen
Lady Grey (tea),Lady Grey (Tee)
Ladyfinger (biscuit),Ladyfinger (Keks)
Lagane e cicciari,Lagane e cicciari
Lahoh,Lahoh
Lahpet,Lahpet
Lakhamari,Lakhamari
Lancashire hotpot,Lancashire Eintopf
Lane cake,Lane-Kuchen
Larb,Larb
Lard na,Lard na
Lardy cake,Lardy-Kuchen
Lassi,Lassi
Layer cake,Schichtkuchen
Lebkuchen,Lebkuchen
Leche frita,Leche frita
Lecsó,Lecsó
Leek soup,Lauch-Suppe
Lefse,Lefse
Leipziger Lerche,Leipziger Lerche
Lekvar,Lekvar
Lemon drop (candy),Zitronentropfen (Bonbon)
Lemon ice box pie,Zitroneneis-Kuchen
Lemon meringue pie,Zitronen-Baiser-Torte
Lemper,Lemper
Lepet,Lepet
Lidah,Lidah
Linzer torte,Linzer Torte
Liptauer,Liptauer
Liquorice (confectionery),Lakritze (Süßwaren)
Liquorice allsorts,Lakritz (Süßwaren)
Litti (cuisine),Litti (Küche)
Liver soup,Lebersuppe
Llapingacho,Llapingacho
Lo mai gai,Lo mai gai
Lobio,Lobio
Lobster roll,Hummerrolle
Lobster stew,Hummereintopf
Locro,Locro
Lohikeitto,Lohikeitto
Lollipop,Lollipop
Lolly cake,Lollikuchen
London bun,Londoner Brötchen
Long John (doughnut),Long John (Krapfen)
Lontong Cap Go Meh,Lontong Mütze Go Meh
Louis dressing,Louis-Dressing
Lukhmi,Lukhmi
Lumpia,Lumpia
Lung fung soup,Lung fung Suppe
Lunggoi Katsa,Lunggoi Katsa
Lupis (food),Lupis (Essen)
Lye roll,Laugenbrötchen
Lyonnaise potatoes,Lyonnaise-Kartoffeln
Lyutika,Ljutika
Lángos,Lángos
Ma'amoul,Ma'amoul
Maafe,Maafe
Macaron,Makkaroni
Macaroni and cheese,Makkaroni und Käse
Macaroni casserole,Makkaroni-Auflauf
Macaroni salad,Makkaroni-Salat
Machher Jhol,Machher Jhol
Maconochie,Makonochie
Madeleine (cake),Madeleine (Kuchen)
Maeuntang,Maeuntang
Magenbrot,Magenbrot
Makdous,Makdous
Makguksu,Makguksu
Makówki,Makówki
Malabar Matthi Curry,Malabar Matthi Curry
Malewa,Malewa
Malida,Malida
Malidzano,Malidzano
Malooga,Malooga
Malpua,Malpua
Malu Mirisata,Malu Mirisata
Manakish,Manakish
Manchester tart,Manchester-Torte
Manda Pitha,Manda Pitha
Mandarin roll,Mandarinen-Rolle
Mandazi,Mandazi
Mandelkubb,Mandelkubb
Mandi (food),Mandi (Lebensmittel)
Mandoca,Mandoca
Mandugwa,Mandugwa
Mangalore bajji,Mangalore-Bajji
Mango pomelo sago,Mango-Pomelo-Sago
Mango pudding,Mango-Pudding
Manjū,Manjū
Mannish water,Mannish Wasser
Manok pansoh,Manok pansoh
Mansaf,Mansaf
Mantecadas,Mantecadas
Maple bacon donut,Ahornspeck-Donut
Maple slaw,Ahornsalat
Maple syrup,Ahornsirup
Maria-mole,Maria-Mole
Marie biscuit,Marie-Keks
Marillenknödel,Marillenknödel
Marinara sauce,Marinara-Sauce
Marraqueta,Marraqueta
Marshmallow creme,Marshmallow-Creme
Maruya (food),Maruya (Lebensmittel)
Masala chai,Masala chai
Masala puri,Masala puri
Masan (pastry),Masan (Gebäck)
Mashed potato,Kartoffelpüree
Massaman curry,Massaman-Curry
Mataz,Mataz
Matbucha,Matbucha
Mathri,Mathri
Mathura peda,Mathura-Peda
Matnakash,Matnakash
Mattar paneer,Mattar Paneer
Matzah ball,Matzah-Kugel
Maultasche,Maultasche
Maxwell Street Polish,Maxwell Street Polnisch
Mayfair salad dressing,Mayfair Salatdressing
Mazurek (cake),Mazurek (Kuchen)
Maíz con hielo,Maíz con hielo
Meat and potato pie,Fleisch- und Kartoffelkuchen
Meatball soup,Frikadellensuppe
Mechado,Mechado
Medianoche,Medianoche
Meghli,Meghli
Mekitsa,Mekitsa
Melktert,Melktert
Melomakarono,Melomakarono
Melt sandwich,Melt-Sandwich
Menudo (soup),Menudo (Suppe)
Mesclun,Mesklun
Mezzelune,Mezzelune
Međimurska gibanica,Međimurska gibanica
Mi rebus,Mi rebus
Mi san dao,Mi san dao
Miang kham,Miang kham
Michigan salad,Michigan-Salat
Mie aceh,Mie aceh
Mie ayam,Mie ayam
Mie celor,Mie celor
Mie kangkung,Mie kangkung
Mie koclok,Mie koclok
Mie kocok,Mie kocok
Mieum (food),Mieum (Essen)
Milcao,Milcao
Milk-cream strudel,Milch-Sahne-Strudel
Milkshake,Milchshake
Mille-feuille,Mille-feuille
Milmyeon,Milmyeon
Minestrone,Minestrone
Minties,Minzbonbons
Mirchi Bada,Mirchi Bada
Miruhulee boava,Miruhulee boava
Mirza Ghassemi,Mirza Ghassemi
Mississippi mud pie,Mississippi-Schlammkuchen
Mitha dahi,Mitha dahi
Mititei,Mititei
Mitmita,Mitmita
Mitraillette,Mitraillette
Mitsumame,Mitsumame
Mizuame,Mizuame
Mjukkaka,Mjukkaka
Mochi ice cream,Mochi-Eis
Modak,Modak
Modeling chocolate,Modellier-Schokolade
Mofletta,Mofletta
Mofongo,Mofongo
Mohinga,Mohinga
Moin moin,Moin moin
Molagoottal,Molagoottal
Molten chocolate cake,Geschmolzener Schokoladenkuchen
Monte Cristo sandwich,Monte Cristo-Sandwich
Montreal-style bagel,Bagel nach Montrealer Art
Montreal-style smoked meat,Geräuchertes Fleisch nach Montrealer Art
Mooncake,Mondkuchen
Moorkop,Moorkop
Moqueca,Moqueca
Morcón,Morcón
Moretum,Moretum
Mote con huesillo,Mote con huesillo
Mother-in-law (sandwich),Schwiegermutter (Sandwich)
Motsunabe,Motsunabe
Moussaka,Moussaka
Mousse,Mousse
Mozartkugel,Mozartkugel
Mozzarella sticks,Mozzarella-Stangen
Močnik,Močnik
Msabbaha,Msabbaha
Muffin,Muffin
Muffuletta,Muffuletta
Muhallebi,Muhallebi
Muhammara,Muhammara
Mujaddara,Mujaddara
Mukhwas,Mukhwas
Mulligan stew (food),Mulligan-Eintopf (Essen)
Multekrem,Multekrem
Mulukhiyah,Mulukhiyah
Musakhan,Musakhan
Mush (cornmeal),Mush (Maismehl)
Muskazine,Muskazine
Mustacciuoli,Mustacciuoli
Mute (soup),Mute (Suppe)
Muthia,Muthia
Mutton curry,Hammel-Curry
Mykyrokka,Mykyrokka
Mysore pak,Mysore pak
Mämmi,Mämmi
Mì Quảng,Mì Quảng
Mămăligă,Mămăligă
Naan,Naan
Naan qalia,Naan qalia
Nachos,Nachos
Naengmyeon,Naengmyeon
Nai lao,Nai lao
Nam khao,Nam khao
Namak para,Namak para
Nasi ambeng,Nasi ambeng
Nasi goreng pattaya,Nasi goreng pattaya
Natchitoches meat pie,Natchitoches Fleischpastete
Nazook,Nazook
Ndolé,Ndolé
Neapolitan ice cream,Neapolitanisches Eis
Neapolitan pizza,Neapolitanische Pizza
Neapolitan ragù,Neapolitanisches Ragù
Neapolitan sauce,Neapolitanische Sauce
Neenish tart,Neapolitanische Torte
Nem Nướng̣,Nem Nướng̣
Neula,Neula
Neyyappam,Neyyappam
Ngome (bread),Ngome (Brot)
Nikujaga,Nikujaga
Nikuman,Nikuman
Nimono,Nimono
Nobó,Nobó
Nocciolini di Canzo,Nocciolini di Canzo
Noghl,Noghl
Nokul,Nokul
Nonnevot,Nonnevot
Nonpareils,Nonpareilles
Norman Tart,Normannische Torte
Nougat,Nougat
Nudossi,Nudossi
Nun's puffs,Nonnenhappen
Nunt,Nunt
Nutella,Nutella
Obara,Obara
Obatzda,Obatzda
Obwarzanek krakowski,Obwarzanek krakowski
Oden,Oden
Ogbono soup,Ogbono-Suppe
Ogi (food),Ogi (Essen)
Ogokbap,Ogokbap
Ohaw,Ohaw
Oil down,Öl Daunen
Oil noodles,Ölnudeln
Okinawa soba,Okinawa Soba
Okroshka,Okroshka
Olho-de-sogra,Olho-de-sogra
Oliebol,Oliebol
Olivier salad,Olivier-Salat
Olla podrida,Olla podrida
Ollada,Ollada
Omelette,Omelette
Onion ring,Zwiebelring
Ontbijtkoek,Ontbijtkoek
Opera cake,Opernkuchen
Oromo (dish),Oromo (Gericht)
Oscypek,Oscypek
Osmania Biscuit,Osmanisches Gebäck
Ostkaka,Ostkaka
Ostropel,Ostropel
Otap (food),Otap (Essen)
Pabellón criollo,Pabellón criollo
Pachi Pulusu,Pachi Pulusu
Pad Thai,Pad Thai
Paella,Paella
Paila marina,Paila marina
Pain aux raisins,Pain aux raisins
Pain brié,Pain brié
Pain d'épices,Pain d'épices
Pajeon,Pajeon
Palak paneer,Palak Paneer
Palatschinke,Palatschinke
Palmier,Palmier
Palóc soup,Palóc-Suppe
Pamirdin,Pamirdin
Pan bati,Pfanne bati
Pan de Pascua,Pfanne de Pascua
Pan-bagnat,Pan-bagnat
Pancit estacion,Pancit estacion
Pandebono,Pandebono
Pandesal,Pandesal
Pandoro,Pandoro
Pane ticinese,Pane ticinese
Panettone,Panettone
Panforte,Panforte
Panini (sandwich),Panini (Sandwich)
Panipuri,Panipuri
Panjiri,Panjiri
Panna cotta,Panna cotta
Panpepato,Panpepato
Pantruca,Pantruca
Pantua,Pantua
Papa a la Huancaína,Papa a la Huancaína
Papa rellena,Papa rellena
Papadum,Papadum
Papas chorreadas,Papas chorreadas
Pappa al pomodoro,Pappa al pomodoro
Paprenjak,Paprenjak
Paprykarz szczeciński,Paprykarz szczeciński
Papza Mogu,Papza Mogu
Paratha,Paratha
Parfait,Parfait
Parker House roll,Parker-Haus-Brötchen
Parkin (cake),Parkin (Kuchen)
Parmigiana,Parmigiana
Parotta,Parotta
Partan bree,Partan bree
Party ring,Party-Ring
Paruppusilli,Paruppusilli
Pasembur,Pasembur
Paska (bread),Paska (Brot)
Passatelli,Passatelli
Pasta al pomodoro,Nudeln al pomodoro
Pasta alla Norma,Nudeln alla Norma
Pasta con le sarde,Pasta con le sarde
Pasta e fagioli,Nudeln e fagioli
Pasta primavera,Nudeln primavera
Pasta salad,Nudelsalat
Pastel de choclo,Schoko-Pasta
Pastiera,Teigwaren
Pastila,Pastila
Pastilla,Pastilla
Pastisset,Pastisset
Pastizz,Pastizz
Pastrami on rye,Pastrami auf Roggen
Pastry,Gebäck
Pasulj,Pasulj
Patatnik,Patatnik
Pathia,Pattie
Patty melt,Patty-Schmelze
Pav bhaji,Pav bhaji
Pavlova (food),Pavlova (Lebensmittel)
Paya (food),Paya (Lebensmittel)
Peach Melba,Pfirsich Melba
Peanut butter,Erdnussbutter
Pearà,Birneà
Pease pudding,Erbsenpudding
Pebete,Pebete
Pecan log roll,Pekannuss-Rolle
Peeps,Peeps
Pelmeni,Pelmeni
Pempek,Pempek
Penia (bread),Penia (Brot)
Penne alla vodka,Penne alla Wodka
Penuche,Penuche
Pepernoot,Pepernoot
Pepes,Pepes
Pepperette,Pepperette
Peppermint bark,Pfefferminz-Rinde
Persipan,Persipan
Pestil,Pestil
Pestiños,Pestiños
Pesto,Pesto
Pevarini,Pevarini
Pfeffernüsse,Pfeffernüsse
Phall,Phall
Phanaeng curry,Phanaeng-Curry
Phat phrik khing,Phat phrik khing
Phat si-io,Phat si-io
Pheasant paste,Fasanenpaste
Philadelphia Pepper Pot,Philadelphia-Pfeffertopf
Philippine adobo,Philippinisches Adobo
Phitti,Phitti
Pho,Pho
Phoenicia dessert,Phönizische Nachspeise
Piadina,Piadina
Picarones,Picarones
Pichelsteiner,Pichelsteiner
Pickert,Pickert
Pickled cucumber,Eingelegte Gurke
Pie and peas,Kuchen und Erbsen
Pieds paquets,Pieds paquets
Pig candy,Schweine-Bonbon
Pig's organ soup,Schweineorgelsuppe
Piki,Piki
Pilaf,Pilaw
Pimento cheese,Piment-Käse
Pinangat,Pinangat
Pinca,Pinca
Pindjur,Pindjur
Pineapple Lumps,Ananas Klumpen
Pineapple bun,Ananas-Brötchen
Pineapple cake,Ananas-Kuchen
Pineapple tart,Ananas-Torte
Pinjaram,Pinjaram
Pio Quinto,Pio Quinto
Piperade,Piperade
Pira caldo,Pira caldo
Pisca Andina,Pisca Andina
Pissaladière,Pissaladière
Pisto,Pisto
Pistolette,Pistolette
Pistou,Pistou
Pita,Pita
Pitepalt,Pitepalt
Piti (food),Piti (Lebensmittel)
Pizza bagel,Pizza Bagel
Pizza carbonara,Pizza Carbonara
Pizzoccheri,Pizzoccheri
Pièce montée,Pièce montée
Pişmaniye,Pişmaniye
Placenta cake,Plazenta-Kuchen
Pljeskavica,Pljeskavica
Ploye,Ploye
Po'e,Po'e
Podo pitha,Podo pitha
Podpłomyk,Podpłomyk
Pogača,Pogača
Pohay,Pohay
Poke (fish salad),Poke (Fischsalat)
Polenta,Polenta
Polish Boy,Polnischer Junge
Polvorón,Polvorón
Pomegranate soup,Granatapfel-Suppe
Poolaki,Poolaki
Poornalu,Poornalu
Pootharekulu,Pootharekulu
Popiah,Popiah
Poppy seed roll,Mohnbrötchen
Porilainen,Porilainen
Pork pie,Schweinefleischpastete
Portuguese sweet bread,Portugiesisches süßes Brot
Pot de crème,Pot de crème
Pot pie,Topfkuchen
Pot-au-feu,Topfkuchen
Potato babka,Kartoffel-Babka
Potato pancake,Kartoffelpfannkuchen
Potatonik,Kartoffelpuffer
Potjiekos,Potjiekos
Pottage,Pottage
Potée,Kartoffel
Poulet au fromage,Poulet au fromage
Pound cake,Pfundskuchen
Poutine,Poutine
Poutine râpée,Poutine râpée
Pozharsky cutlet,Pozharsky-Kotelett
Pozole,Pozole
Praline,Praline
Prawn roll,Krabbenrolle
Prekmurska gibanica,Prekmurska gibanica
Prežganka,Prežganka
Princess cake,Prinzessinnen-Kuchen
Profiterole,Profiterole
Proja,Proja
Prosphora,Prosphora
Prusurate,Prusurate
Préfou,Préfou
Ptasie mleczko,Ptasie mleczko
Pudachi Vadi,Pudachi Vadi
Puff Puff (food),Puff Puff (Lebensmittel)
Puftaloon,Puftaloon
Puits d'amour,Puits d'amour
Pulla,Pulla
Pumpkin pie,Kürbiskuchen
Punsch-roll,Punsch-Rolle
Punschkrapfen,Punschkrapfen
Puppy chow,Welpenmahlzeit
Purée Mongole,Püree Mongole
Putnis,Putnis
Putri salju,Putri salju
Putu mayam,Putu mayam
Pyttipanna,Pyttipanna
Pâté aux pommes de terre,Pâté aux pommes de terre
Pâté chaud,Pâté chaud
Pâté chinois,Pâté chinois
Pörkölt,Pörkölt
Pączki,Pączki
Pīrādziņi,Pīrādziņi
Qatayef,Qatayef
Qottab,Qottab
Quad City-style pizza,Pizza nach Quad-City-Art
Quarkkäulchen,Quarkkäulchen
Queen of Puddings,Königin der Puddings
Queijada,Queijada
Queijadinha,Queijadinha
Quesadilla,Quesadilla
Quesito,Quesito
Quetschentaart,Quetschentaart
Quiche,Quiche
Quince dessert,Quitten-Dessert
Quindim,Quindim
Qurabiya,Qurabiya
Rabbit pie,Kaninchen-Pastete
Rafanata,Rafanata
Rag pudding,Lappenpudding
Ragda pattice,Ragda-Gitterrost
Ragout fin,Ragout-Flosse
Rainbow cookie,Regenbogen-Keks
Rainbow sherbet,Regenbogen-Sorbet
Raisin bread,Rosinenbrot
Raita,Raita
Ranch dressing,Ranch-Dressing
Rappie pie,Rappie-Kuchen
Ras malai,Ras malai
Rasol (Romanian dish),Rasol (rumänisches Gericht)
Rassolnik,Rassolnik
Rat na,Ratte na
Ratatouille,Ratatouille
Ravioli,Ravioli
Red bean ice,Rotes Bohneneis
Red bean paste,Rote Bohnenpaste
Red beans and rice,Rote Bohnen und Reis
Red curry,Rotes Curry
Red pudding,Roter Pudding
Red slaw,Roter Krautsalat
Red velvet cake,Roter Samtkuchen
Redcurrant sauce,Rote Johannisbeersauce
Redonkadonk,Redonkadonk
Rempeyek,Rempeyek
Rendang,Rendang
Reshteh khoshkar,Reshteh khoshkar
Reuben sandwich,Reuben-Sandwich
Revithia,Revithia
Rfissa,Rfissa
Ribollita,Ribollita
Ricciarelli,Ricciarelli
Rice Krispies Treats,Rice Krispies Leckereien
Rice and curry,Reis und Curry
Rice and gravy,Reis mit Soße
Rice pudding,Reispudding
Rich tea,Reichhaltiger Tee
Rigó Jancsi,Rigó Jancsi
Rillettes,Rillettes
Rinflajš,Rinflajš
Risalamande,Risalamande
Risotto,Risotto
Rissole,Rissole
Rock (confectionery),Stein (Süßwaren)
Rock cake,Felsenkuchen
Rollatini,Rollatini
Romesco,Romesco
Ros omelette,Ros-Omelette
Roskette,Roskette
Rosół,Rosół
Roti john,Roti Freier
Rubaboo,Rubaboo
Rugelach,Rugelach
Rum baba,Rum baba
Rum ball,Rumkugel
Rum cake,Rumkuchen
Rumaki,Rumaki
Rumbledethumps,Rumbledethumps
Rumford's Soup,Rumford's Suppe
Rumtopf,Rumtopf
Run down,Runterlaufen
Runeberg torte,Runeberg-Torte
Runza,Runza
Rupjmaizes kārtojums,Rupjmaizes kārtojums
Russian dressing,Russisches Dressing
Russian tea cake,Russischer Teekuchen
Rössypottu,Rössypottu
Rødgrød,Rødgrød
Rømmegraut,Rømmegraut
S'more,S'mehr
S.O.S. (appetizer),S.O.S. (Vorspeise)
Saang mein,Saang mein
Sabaayad,Sabaayad
Sabich,Sabich
Sabich salad,Sabich-Salat
Sabudana Khichadi,Sabudana Khichadi
Sabzi polo,Sabzi polo
Sachertorte,Sachertorte
Sachima,Sachima
Saffron bun,Safran-Brötchen
Saffron rice,Safran-Reis
Sagamite,Sagamite
Sago pudding,Sago-Pudding
Sai bhaji,Sai bhaji
Sailor sandwich,Seemanns-Sandwich
Saimin,Saimin
Sajjige,Sajjige
Salad,Salat
Salad cream,Salatcreme
Salade niçoise,Salat niçoise
Salată de boeuf,Salată de boeuf
Salchichón,Salchichón
Salchipapas,Salchipapas
Saleeg,Saleeg
Salmagundi,Salmagundi
Salmorejo,Salmorejo
Salt water taffy,Salzwasser Taffy
Salt-rising bread,Salzsteigendes Brot
Saltah,Salzah
Salteñas,Salteñas
Saltine cracker,Saltine Cracker
Salzburger Nockerl,Salzburger Nockerl
Sambal,Sambal
Sambar (dish),Sambar (Gericht)
Samosa,Samosa
Sancocho,Sancocho
Sandbakelse,Sandbakelse
Sandesh (confectionery),Sandesh (Süßspeise)
Sandwich,Sandwich
Sandwiches de miga,Sandwiches de miga
Sans rival,Sans rival
Santula,Santula
Sara udon,Sara Udon
Sarawak layer cake,Sarawak-Schichtkuchen
Sata andagi,Sata andagi
Sauce vierge,Sauce vierge
Savoury pattie,Pikante Pastete
Sayur lodeh,Sayur lodeh
Scali bread,Scali-Brot
Schnecken,Schnecken
Schneeball (pastry),Schneeball (Gebäck)
Schnitz un knepp,Schnitz un knepp
Schupfnudel,Schupfnudel
Scone,Schupfnudel
Scotch broth,Schottische Brühe
Scotch egg,Schottisches Ei
Scotcheroos,Schottenröllchen
Scrapple,Scrapple
Seafoam salad,Seeschaum-Salat
Seattle-style hot dog,Hotdog nach Seattle-Art
Seblak,Seblak
Sekba,Sekba
Sel roti,Sel roti
Semolina pudding,Grießpudding
Semprong,Semprong
Semur (Indonesian stew),Semur (indonesischer Eintopf)
Senate bean soup,Senfbohnensuppe
Serabi,Serabi
Serbian salad,Serbischer Salat
Serradura,Serradura
Serranito,Serranito
Sesame seed candy,Sesamsamen-Bonbon
Seven-layer dip,Sieben-Schicht-Dip
Seven-layer salad,Sieben-Schicht-Salat
Sevpuri,Sevpuri
Sfouf,Sfouf
Shabu-shabu,Schabu-Schabu
Shahi Haleeb,Schahi Haleeb
Shahi paneer,Shahi Paneer
Shaker Lemon Pie,Shaker Zitronenkuchen
Shambar,Shambar
Shankarpali,Schankarpali
Shawarma,Schawarma
She-crab soup,Schafskrebs-Suppe
Sheep sorrel soup,Schaf-Sauerampfer-Suppe
Sheer khurma,Scher-Khurma
Sheermal,Schermal
Sher Berinj,Scher Berinj
Sherbet (powder),Sherbet (Pulver)
Shiro (food),Shiro (Lebensmittel)
Shlishkes,Schischkes
Sholezard,Scholezard
Shopska salad,Shopska-Salat
Shortcake,Mürbeteigkuchen
Shortcrust pastry,Mürbeteig
Shrewsbury cake,Shrewsbury-Kuchen
Shrikhand,Shrikhand
Shrimp Creole,Shrimp Kreolisch
Shrimp roe noodles,Shrimp-Rogen-Nudeln
Shrimp toast,Shrimp-Toast
Shumai,Shumai
Sicilian orange salad,Sizilianischer Orangensalat
Sincronizada,Sincronizada
Singapore-style noodles,Nudeln nach Singapur-Art
Singing hinny,Singende Maulesel
Sinigang,Sinigang
Sinseollo,Sinseollo
Sirutteok,Sirutteok
Skilpadjies,Skilpadjies
Sklandrausis,Sklandrausis
Skolebrød,Skolebrød
Skomakarlåda,Skomakarlåda
Slavink,Slawisch
Sliced fish soup,Geschnittene Fischsuppe
Sloosh,Sloosh
Sloppy joe,Sloppy Joe
Sloppy joe (New Jersey),Schlabberpullover (New Jersey)
Smažený sýr,Smažený sýr
Smoked meat,Geräuchertes Fleisch
Smulpaj,Smulpaj
Smyrna meatballs,Smyrna-Frikadellen
Smörgåstårta,Smörgåstårta
Smørrebrød,Smørrebrød
Snickerdoodle,Snickerdoodle
Snickers salad,Snickers-Salat
Snow skin mooncake,Schneehaut-Mondkuchen
Sobao,Sobao
Soda bread,Soda-Brot
Sohan (confectionery),Sohan (Süßwaren)
Sohan Asali,Sohan Asali
Sohan Halwa,Sohan Halwa
Sohan papdi,Sohan Papdi
Sol over Gudhjem,Sol über Gudhjem
Solomon Gundy,Salomon Gundy
Solyanka,Soljanka
Song gao,Song gao
Sooth (chutney),Sooth (Chutney)
Sop saudara,Sop saudara
Sopa de mondongo,Sopa de mondongo
Sopa de pata,Sopa de pata
Sopa teologa,Sopa teologa
Sopaipilla,Sopaipilla
Sope,Sope
Sorbet,Sorbet
Sorrel soup,Sauerampfersuppe
Sorshe Ilish,Sorshe Ilish
Sorullos,Sorullos
Soup,Suppe
Soup all'Imperatrice,Suppe all'Imperatrice
Soup alla Canavese,Suppe alla Canavese
Soup alla modenese,Suppe alla modenese
Soup joumou,Suppe joumou
Soup with risotto,Suppe mit Risotto
Sour cherry soup,Sauerkirschsuppe
Sour rye soup,Saure Roggensuppe
Sourdough,Sauerteig
Soused herring,Gesäuerter Hering
Southern Illinois chowder,Süd-Illinois-Suppe
Soylent (food),Soylent (Lebensmittel)
Soyo (Paraguay),Soyo (Paraguay)
Spaghetti,Spaghetti
Spaghetti aglio e olio,Spaghetti aglio e olio (Spaghetti mit Olivenöl)
Spaghetti alla puttanesca,Spaghetti alla puttanesca (Spaghetti)
Spaghetti with meatballs,Spaghetti mit Fleischbällchen
Spaghettieis,Spaghettieis
Spam musubi,Spam Musubi
Spanakopita,Spanakopita
Spanakorizo,Spanakorizo
Spanische Windtorte,Spanische Windtorte
Speckkuchen,Speckkuchen
Speculaas,Spekulatius
Spekkoek,Spekkoek
Sponge cake,Biskuitkuchen
Spoom,Biskuit
Spring soup,Frühlingssuppe
Spritzgebäck,Spritzgebäck
Spumoni,Spumoni
St. Honoré cake,St. Honoré-Torte
St. Paul sandwich,St. Paulus-Sandwich
Stamppot,Stamppot
Steak and kidney pie,Steak und Nierenpastete
Steak and kidney pudding,Steak und Nierenpudding
Steak pie,Steak-Pastete
Steckrübeneintopf,Steckrübeneintopf
Stew,Eintopf
Stick candy,Stäbchen-Bonbon
Sticky toffee pudding,Sticky Toffee (Klebepudding)
Stip (dish),Stip (Gericht)
Stir-fried tomato and scrambled eggs,Gebratene Tomate und Rührei
Stollen,Stollen
Stovies,Stovies
Strawberry Delight,Erdbeer-Genuss
Strawberry ice cream,Erdbeereis
Strawberry pie,Erdbeer-Kuchen
Streusel,Streusel
Streuselkuchen,Streuselkuchen
Stroopwafel,Stroopwafel
Stuffed squash,Gefüllter Kürbis
Styrian sour soup,Steirische saure Suppe
Suaasat,Suaasat
Suama,Suama
Subgum,Subgum
Sufganiyah,Sufganiyah
Sugar cake,Zuckerkuchen
Sugar cookie,Zuckerkeks
Sugar mice,Zuckermäuse
Sugar pie,Zuckerkuchen
Sugoli,Sugoli
Suikerboon,Suikerboon
Suikerbrood,Suikerbrood
Sujuk,Sujuk
Sukhdi,Sukhdi
Sukiyaki,Sukiyaki
Suksilgwa,Suksilgwa
Sulu köfte,Sulu köfte
Summer pudding,Sommer-Pudding
Supplì,Supplì
Suprême sauce,Suprême-Sauce
Sushki,Sushki
Suspiro de limeña,Suspiro de limeña
Sussex pond pudding,Sussex Teichpudding
Sutarfeni,Sutarfeni
Suya,Suya
Sweet potato pie,Süßkartoffel-Kuchen
Sweet potato soup,Süßkartoffel-Suppe
Sweet shells,Süße Muscheln
Sweetheart cake,Süßigkeiten-Kuchen
Swiss Wing,Schweizer Flügel
Swiss roll,Schweizer Brötchen
Syllabub,Syllabub
Syrniki,Syrniki
Sütlü Nuriye,Sütlü Nuriye
Ta-a noodles,Ta-a Nudeln
Tabbouleh,Tabbouleh
Tabrizi Lovuez,Tabrizi Lovuez
Tacacá,Tacacá
Taco,Taco
Taco salad,Taco-Salat
Taco soup,Taco-Suppe
Taffy (candy),Taffy (Süßigkeit)
Taftan (bread),Taftan (Brot)
Tahchin,Tahchin
Tahini cookie,Tahini-Keks
Tahini roll,Tahin-Brötchen
Taho,Taho
Tahu goreng,Tahu goreng
Takoyaki,Takoyaki
Talo (food),Talo (Essen)
Talunan,Talunan
Tandoori chicken,Tandoori-Huhn
Tanghulu,Tanghulu
Tangpyeongchae,Tangpyeongchae
Tapai,Tapai
Tapenade,Tapenade
Tapioca pudding,Tapioka-Pudding
Taquito,Taquito
Taralli,Taralli
Taramasalata,Taramasalata
Tarator,Tarator
Tareco,Tareco
Tarhana,Tarhana
Taro ball,Taro-Kugel
Tartar sauce,Sauce Tartar
Tarte flambée,Flammkuchen
Tartiflette,Tartiflette
Tauge goreng,Tauge Goreng
Tavern sandwich,Tavernen-Sandwich
Tavuk göğsü,Tavuk göğsü
Tavë kosi,Tavë kosi
Tea loaf,Tee-Laibchen
Tecula mecula,Tecula mecula
Teja (confectionery),Teja (Süßwaren)
Tekwan,Tekwan
Telur pindang,Telur pindang
Tembleque,Tembleque
Tenshindon,Tenshindon
Teochew porridge,Teochew-Brei
Tepsi Baytinijan,Tepsi Baytinijan
Teurgoule,Teurgoule
Thai curry,Thailändisches Curry
Thalassery Cuisine,Thalassery-Küche
Thalipeeth,Thalipeeth
Thandai,Thandai
Theeyal,Theeyal
Thekua,Thekua
Thenthuk,Thenthuk
Thousand Island dressing,Thousand Island-Dressing
Thuringian sausage,Thüringer Wurst
Tiffin (confectionery),Tiffin (Süßwaren)
Tikka (food),Tikka (Lebensmittel)
Tilslørte bondepiker,Tilslørte bondepiker
Tin roof pie,Blechkuchen
Tinola,Tinola
Tipsy cake,Spitzbuben-Kuchen
Tiramisu,Tiramisu
Tirggel,Tirggel
Tirit,Tirit
Tirokafteri,Tirokafteri
Tiết canh,Tiết canh
Tlayuda,Tlayuda
Toast Hawaii,Toast Hawaii
Toast sandwich,Toast-Sandwich
Tochitură,Tochitură
Toffee,Toffee
Tokwa’t baboy,Tokwa't baboy
Tollatsch,Tollatsch
Tom kha kai,Tom kha kai
Tom khlong,Tom khlong
Tom yum,Tom yum
Tomato and egg soup,Tomaten-Eiersuppe
Tomato bredie,Tomate bredie
Tomato omelette,Tomaten-Omelett
Tompouce,Tompouce
Tongba,Tongba
Tongue toast,Zungen-Toast
Tongyeong Kkulbbang,Tongyeong Kkulbbang
Tonkatsu,Tonkatsu
Toobs,Toobs
Torrija,Torrija
Torta Tre Monti,Torta Tre Monti
Torta ahogada,Torta ahogada
Torta alla Monferrina,Torta alla Monferrina
Torta caprese,Torta caprese
Tortas de aceite,Tortas de aceite
Torte,Torte
Tortilla chip,Tortilla-Chip
Tortillitas de camarones,Tortillitas de camarones
Tortita negra,Tortita negra
Toto (dessert),Toto (Nachspeise)
Tourin,Tourin
Tourtière,Tourtière
Toyga soup,Toyga-Suppe
Trail mix,Pfad-Mix
Tres leches cake,Tres-Leches-Torte
Trifle,Trifle
Trinxat,Trinxat
Tteokbokki,Tteokbokki
Tteokguk,Tteokguk
Ttongppang,Ttongppang
Tufahije,Tufahije
Tuile,Tuile
Tulumba,Tulumba
Tumpeng,Tumpeng
Tuna casserole,Thunfisch-Kasserolle
Tuna fish sandwich,Thunfisch-Sandwich
Tuna pot,Thunfisch-Topf
Tunnbröd,Tunnbröd
Turon (food),Turon (Essen)
Turrón,Turrón
Tursu,Tursu
Twinkie,Twinkie
Tzatziki,Tzatziki
Túrós csusza,Túrós csusza
Ube halaya,Ube halaya
Udon,Udon
Ukha,Ukha
Ulmyeon,Ulmyeon
Umai (food),Umai (Lebensmittel)
United States military chocolate,Militärschokolade der Vereinigten Staaten
Unnakai,Unnakai
Unni appam,Unni appam
Upside-down cake,Umgedrehter Kuchen
Urnebes,Urnebes
Uunijuusto,Uunijuusto
Vanillekipferl,Vanillekipferl
Vatapá,Vatapá
Vatrushka,Vatrushka
Veal Orloff,Kalbfleisch Orloff
Vegetable Handva,Gemüse Handva
Veggie burger,Veggie-Burger
Velhote,Velhote
Vetkoek,Vetkoek
Vichyssoise,Vichyssoise
Vinaigrette,Vinaigrette
Vindaloo,Vindaloo
Vinegret,Vinegret
Vitréais,Vitréais
Vla,Vla
Vodka sauce,Wodka-Sauce
Vori vori,Vori vori
Vánočka,Vánočka
Waakye,Waakye
Wacky cake,Verrückter Kuchen
Wafu dressing,Wafu-Dressing
Wajik,Wajik
Waldorf pudding,Waldorf-Pudding
Waldorf salad,Waldorf-Salat
Walnut and coffee cake,Walnuss- und Kaffeekuchen
Wat (food),Wat (Essen)
Watalappam,Watalappam
Watergate salad,Wassertor-Salat
Waterzooi,Wasserzooi
Wedding soup,Hochzeitssuppe
Welf pudding,Welfischerpudding
Welsh cake,Walisischer Kuchen
Wet walnuts,Nasse Walnüsse
White Christmas (food),Weiße Weihnachten (Lebensmittel)
White chocolate,Weiße Schokolade
White cut chicken,Weißes geschnittenes Huhn
White hot,Weiß heiß
White sugar sponge cake,Weißer Zucker-Biskuit
Whoopie pie,Zimtkuchen
Wibele,Wibele
Winter ice cream,Winter-Eiscreme
Wodzionka,Wodzionka
Wonton noodles,Wonton-Nudeln
Wrap roti,Wickel-Roti
Wurstbrot,Wurstbrot
Wurstsalat,Wurstsalat
XO sauce,XO-Sauce
Xi gua lao,Xi gua lao
Xogoi Momo,Xogoi Momo
Yaka mein,Yaka mein
Yakgwa,Yakgwa
Yakisoba,Yakisoba
Yaksik,Yaksik
Yatsuhashi,Yatsuhashi
Yemas de Santa Teresa,Yemas de Santa Teresa
Yeonpotang,Yeonpotang
Yeotgangjeong,Yeotgangjeong
Yogurt soup,Joghurtsuppe
Yong Tau Foo,Yong Tau Foo
Yubeshi,Yubeshi
Yule log (cake),Yule log (Kuchen)
Yōkan,Yōkan
Zabaione,Zabaione
Zacuscă,Zacuscă
Zakuski,Zakuski
Zapiekanka,Zapiekanka
Zarangollo,Zarangollo
Zarda (food),Zarda (Lebensmittel)
Zefir (food),Zefir (Lebensmittel)
Zelnik,Zelnik
Zerde,Zerde
Zhajiangmian,Zhajiangmian
Zhug,Zhug
Zoervleis,Zoervleis
Zongzi,Zongzi
Zopf,Zopf
Zuccotto,Zuccotto
Zuger Kirschtorte,Zuger Kirschtorte
Zuppa Inglese,Zuppa Inglese
Zwieback,Zwieback
Zwiebelkuchen,Zwiebelkuchen
Zürcher Murren,Zürcher Murren
Æbleskiver,Æbleskiver
Çiğ köfte,Çiğ köfte
Çoban salatası,Çoban salatası
Öçpoçmaq,Öçpoçmaq
Ćevapi,Ćevapi
İmam bayıldı,İmam bayıldı
İnegöl meatballs,İnegöl Fleischbällchen
İskender kebap,İskender kebap
Žemlovka,Žemlovka
